%!PS-Adobe-3.0 EPSF-3.0
%%Title: D:\MyWorkspace\Projects\Master2\LocalData\Figures\energy_spectrum.eps
%%Creator: matplotlib version 1.4.3, http://matplotlib.org/
%%CreationDate: Sat Apr 16 22:52:42 2016
%%Orientation: portrait
%%BoundingBox: 93 157 518 634
%%EndComments
%%BeginProlog
/mpldict 8 dict def
mpldict begin
/m { moveto } bind def
/l { lineto } bind def
/r { rlineto } bind def
/c { curveto } bind def
/cl { closepath } bind def
/box {
m
1 index 0 r
0 exch r
neg 0 r
cl
} bind def
/clipbox {
box
clip
newpath
} bind def
%!PS-Adobe-3.0 Resource-Font
%%Title: Bitstream Vera Sans
%%Copyright: Copyright (c) 2003 by Bitstream, Inc. All Rights Reserved.
%%Creator: Converted from TrueType to type 3 by PPR
25 dict begin
/_d{bind def}bind def
/_m{moveto}_d
/_l{lineto}_d
/_cl{closepath eofill}_d
/_c{curveto}_d
/_sc{7 -1 roll{setcachedevice}{pop pop pop pop pop pop}ifelse}_d
/_e{exec}_d
/FontName /BitstreamVeraSans-Roman def
/PaintType 0 def
/FontMatrix[.001 0 0 .001 0 0]def
/FontBBox[-183 -236 1287 928]def
/FontType 3 def
/Encoding [ /space /numbersign /parenleft /parenright /comma /period /slash /zero /one /two /three /four /five /equal /E /F /G /S /T /a /c /d /e /f /g /i /k /l /m /n /o /p /r /s /t /u /x /y /minus ] def
/FontInfo 10 dict dup begin
/FamilyName (Bitstream Vera Sans) def
/FullName (Bitstream Vera Sans) def
/Notice (Copyright (c) 2003 by Bitstream, Inc. All Rights Reserved. Bitstream Vera is a trademark of Bitstream, Inc.) def
/Weight (Roman) def
/Version (Release 1.10) def
/ItalicAngle 0.0 def
/isFixedPitch false def
/UnderlinePosition -213 def
/UnderlineThickness 143 def
end readonly def
/CharStrings 39 dict dup begin
/space{318 0 0 0 0 0 _sc
}_d
/numbersign{{838 0 77 0 761 718 _sc
511 440 _m
369 440 _l
328 277 _l
471 277 _l
511 440 _l
438 718 _m
387 515 _l
530 515 _l
581 718 _l
659 718 _l
609 515 _l
761 515 _l
761 440 _l
590 440 _l
550 277 _l
705 277 _l
705 202 _l
531 202 _l
480 0 _l
402 0 _l
452 202 _l
309 202 _l
259 0 _l
180 0 _l
231 202 _l
77 202 _l
77 277 _l
249 277 _l
290 440 _l
133 440 _l
}_e{133 515 _l
309 515 _l
359 718 _l
438 718 _l
_cl}_e}_d
/parenleft{390 0 86 -131 310 759 _sc
310 759 _m
266 683 234 609 213 536 _c
191 463 181 389 181 314 _c
181 238 191 164 213 91 _c
234 17 266 -56 310 -131 _c
232 -131 _l
183 -54 146 20 122 94 _c
98 168 86 241 86 314 _c
86 386 98 459 122 533 _c
146 607 182 682 232 759 _c
310 759 _l
_cl}_d
/parenright{390 0 80 -131 304 759 _sc
80 759 _m
158 759 _l
206 682 243 607 267 533 _c
291 459 304 386 304 314 _c
304 241 291 168 267 94 _c
243 20 206 -54 158 -131 _c
80 -131 _l
123 -56 155 17 177 91 _c
198 164 209 238 209 314 _c
209 389 198 463 177 536 _c
155 609 123 683 80 759 _c
_cl}_d
/comma{318 0 77 -115 220 124 _sc
117 124 _m
220 124 _l
220 40 _l
140 -115 _l
77 -115 _l
117 40 _l
117 124 _l
_cl}_d
/period{318 0 107 0 210 124 _sc
107 124 _m
210 124 _l
210 0 _l
107 0 _l
107 124 _l
_cl}_d
/slash{337 0 0 -92 337 729 _sc
254 729 _m
337 729 _l
83 -92 _l
0 -92 _l
254 729 _l
_cl}_d
/zero{636 0 66 -13 570 742 _sc
318 664 _m
267 664 229 639 203 589 _c
177 539 165 464 165 364 _c
165 264 177 189 203 139 _c
229 89 267 64 318 64 _c
369 64 407 89 433 139 _c
458 189 471 264 471 364 _c
471 464 458 539 433 589 _c
407 639 369 664 318 664 _c
318 742 _m
399 742 461 709 505 645 _c
548 580 570 486 570 364 _c
570 241 548 147 505 83 _c
461 19 399 -13 318 -13 _c
236 -13 173 19 130 83 _c
87 147 66 241 66 364 _c
66 486 87 580 130 645 _c
173 709 236 742 318 742 _c
_cl}_d
/one{636 0 110 0 544 729 _sc
124 83 _m
285 83 _l
285 639 _l
110 604 _l
110 694 _l
284 729 _l
383 729 _l
383 83 _l
544 83 _l
544 0 _l
124 0 _l
124 83 _l
_cl}_d
/two{{636 0 73 0 536 742 _sc
192 83 _m
536 83 _l
536 0 _l
73 0 _l
73 83 _l
110 121 161 173 226 239 _c
290 304 331 346 348 365 _c
380 400 402 430 414 455 _c
426 479 433 504 433 528 _c
433 566 419 598 392 622 _c
365 646 330 659 286 659 _c
255 659 222 653 188 643 _c
154 632 117 616 78 594 _c
78 694 _l
118 710 155 722 189 730 _c
223 738 255 742 284 742 _c
}_e{359 742 419 723 464 685 _c
509 647 532 597 532 534 _c
532 504 526 475 515 449 _c
504 422 484 390 454 354 _c
446 344 420 317 376 272 _c
332 227 271 164 192 83 _c
_cl}_e}_d
/three{{636 0 76 -13 556 742 _sc
406 393 _m
453 383 490 362 516 330 _c
542 298 556 258 556 212 _c
556 140 531 84 482 45 _c
432 6 362 -13 271 -13 _c
240 -13 208 -10 176 -4 _c
144 1 110 10 76 22 _c
76 117 _l
103 101 133 89 166 81 _c
198 73 232 69 268 69 _c
330 69 377 81 409 105 _c
441 129 458 165 458 212 _c
458 254 443 288 413 312 _c
383 336 341 349 287 349 _c
}_e{202 349 _l
202 430 _l
291 430 _l
339 430 376 439 402 459 _c
428 478 441 506 441 543 _c
441 580 427 609 401 629 _c
374 649 336 659 287 659 _c
260 659 231 656 200 650 _c
169 644 135 635 98 623 _c
98 711 _l
135 721 170 729 203 734 _c
235 739 266 742 296 742 _c
370 742 429 725 473 691 _c
517 657 539 611 539 553 _c
539 513 527 479 504 451 _c
481 423 448 403 406 393 _c
_cl}_e}_d
/four{636 0 49 0 580 729 _sc
378 643 _m
129 254 _l
378 254 _l
378 643 _l
352 729 _m
476 729 _l
476 254 _l
580 254 _l
580 172 _l
476 172 _l
476 0 _l
378 0 _l
378 172 _l
49 172 _l
49 267 _l
352 729 _l
_cl}_d
/five{{636 0 77 -13 549 729 _sc
108 729 _m
495 729 _l
495 646 _l
198 646 _l
198 467 _l
212 472 227 476 241 478 _c
255 480 270 482 284 482 _c
365 482 429 459 477 415 _c
525 370 549 310 549 234 _c
549 155 524 94 475 51 _c
426 8 357 -13 269 -13 _c
238 -13 207 -10 175 -6 _c
143 -1 111 6 77 17 _c
77 116 _l
106 100 136 88 168 80 _c
199 72 232 69 267 69 _c
}_e{323 69 368 83 401 113 _c
433 143 450 183 450 234 _c
450 284 433 324 401 354 _c
368 384 323 399 267 399 _c
241 399 214 396 188 390 _c
162 384 135 375 108 363 _c
108 729 _l
_cl}_e}_d
/equal{838 0 106 172 732 454 _sc
106 454 _m
732 454 _l
732 372 _l
106 372 _l
106 454 _l
106 255 _m
732 255 _l
732 172 _l
106 172 _l
106 255 _l
_cl}_d
/E{632 0 98 0 568 729 _sc
98 729 _m
559 729 _l
559 646 _l
197 646 _l
197 430 _l
544 430 _l
544 347 _l
197 347 _l
197 83 _l
568 83 _l
568 0 _l
98 0 _l
98 729 _l
_cl}_d
/F{575 0 98 0 517 729 _sc
98 729 _m
517 729 _l
517 646 _l
197 646 _l
197 431 _l
486 431 _l
486 348 _l
197 348 _l
197 0 _l
98 0 _l
98 729 _l
_cl}_d
/G{{775 0 56 -13 693 742 _sc
595 104 _m
595 300 _l
434 300 _l
434 381 _l
693 381 _l
693 68 _l
655 40 613 20 567 7 _c
521 -6 472 -13 420 -13 _c
306 -13 216 20 152 86 _c
88 152 56 245 56 364 _c
56 482 88 575 152 642 _c
216 708 306 742 420 742 _c
467 742 512 736 555 724 _c
598 712 638 695 674 673 _c
674 568 _l
637 598 598 621 557 637 _c
516 653 473 661 428 661 _c
}_e{338 661 271 636 227 586 _c
182 536 160 462 160 364 _c
160 265 182 191 227 141 _c
271 91 338 67 428 67 _c
462 67 493 70 521 76 _c
549 82 573 91 595 104 _c
_cl}_e}_d
/S{{635 0 66 -13 579 742 _sc
535 705 _m
535 609 _l
497 627 462 640 429 649 _c
395 657 363 662 333 662 _c
279 662 237 651 208 631 _c
179 610 165 580 165 542 _c
165 510 174 485 194 469 _c
213 452 250 439 304 429 _c
364 417 _l
437 403 491 378 526 343 _c
561 307 579 260 579 201 _c
579 130 555 77 508 41 _c
460 5 391 -13 300 -13 _c
265 -13 228 -9 189 -2 _c
}_e{150 5 110 16 69 32 _c
69 134 _l
109 111 148 94 186 83 _c
224 71 262 66 300 66 _c
356 66 399 77 430 99 _c
460 121 476 152 476 194 _c
476 230 465 258 443 278 _c
421 298 385 313 335 323 _c
275 335 _l
201 349 148 372 115 404 _c
82 435 66 478 66 534 _c
66 598 88 649 134 686 _c
179 723 242 742 322 742 _c
356 742 390 739 426 733 _c
461 727 497 717 535 705 _c
}_e{_cl}_e}_d
/T{611 0 -2 0 614 729 _sc
-2 729 _m
614 729 _l
614 646 _l
355 646 _l
355 0 _l
256 0 _l
256 646 _l
-2 646 _l
-2 729 _l
_cl}_d
/a{{613 0 60 -13 522 560 _sc
343 275 _m
270 275 220 266 192 250 _c
164 233 150 205 150 165 _c
150 133 160 107 181 89 _c
202 70 231 61 267 61 _c
317 61 357 78 387 114 _c
417 149 432 196 432 255 _c
432 275 _l
343 275 _l
522 312 _m
522 0 _l
432 0 _l
432 83 _l
411 49 385 25 355 10 _c
325 -5 287 -13 243 -13 _c
187 -13 142 2 109 33 _c
76 64 60 106 60 159 _c
}_e{60 220 80 266 122 298 _c
163 329 224 345 306 345 _c
432 345 _l
432 354 _l
432 395 418 427 391 450 _c
364 472 326 484 277 484 _c
245 484 215 480 185 472 _c
155 464 127 453 100 439 _c
100 522 _l
132 534 164 544 195 550 _c
226 556 256 560 286 560 _c
365 560 424 539 463 498 _c
502 457 522 395 522 312 _c
_cl}_e}_d
/c{{550 0 55 -13 488 560 _sc
488 526 _m
488 442 _l
462 456 437 466 411 473 _c
385 480 360 484 334 484 _c
276 484 230 465 198 428 _c
166 391 150 339 150 273 _c
150 206 166 154 198 117 _c
230 80 276 62 334 62 _c
360 62 385 65 411 72 _c
437 79 462 90 488 104 _c
488 21 _l
462 9 436 0 410 -5 _c
383 -10 354 -13 324 -13 _c
242 -13 176 12 128 64 _c
}_e{79 115 55 185 55 273 _c
55 362 79 432 128 483 _c
177 534 244 560 330 560 _c
358 560 385 557 411 551 _c
437 545 463 537 488 526 _c
_cl}_e}_d
/d{{635 0 55 -13 544 760 _sc
454 464 _m
454 760 _l
544 760 _l
544 0 _l
454 0 _l
454 82 _l
435 49 411 25 382 10 _c
353 -5 319 -13 279 -13 _c
213 -13 159 13 117 65 _c
75 117 55 187 55 273 _c
55 359 75 428 117 481 _c
159 533 213 560 279 560 _c
319 560 353 552 382 536 _c
411 520 435 496 454 464 _c
148 273 _m
148 207 161 155 188 117 _c
215 79 253 61 301 61 _c
}_e{348 61 385 79 413 117 _c
440 155 454 207 454 273 _c
454 339 440 390 413 428 _c
385 466 348 485 301 485 _c
253 485 215 466 188 428 _c
161 390 148 339 148 273 _c
_cl}_e}_d
/e{{615 0 55 -13 562 560 _sc
562 296 _m
562 252 _l
149 252 _l
153 190 171 142 205 110 _c
238 78 284 62 344 62 _c
378 62 412 66 444 74 _c
476 82 509 95 541 113 _c
541 28 _l
509 14 476 3 442 -3 _c
408 -9 373 -13 339 -13 _c
251 -13 182 12 131 62 _c
80 112 55 181 55 268 _c
55 357 79 428 127 481 _c
175 533 241 560 323 560 _c
397 560 455 536 498 489 _c
}_e{540 441 562 377 562 296 _c
472 322 _m
471 371 457 410 431 440 _c
404 469 368 484 324 484 _c
274 484 234 469 204 441 _c
174 413 156 373 152 322 _c
472 322 _l
_cl}_e}_d
/f{352 0 23 0 371 760 _sc
371 760 _m
371 685 _l
285 685 _l
253 685 230 678 218 665 _c
205 652 199 629 199 595 _c
199 547 _l
347 547 _l
347 477 _l
199 477 _l
199 0 _l
109 0 _l
109 477 _l
23 477 _l
23 547 _l
109 547 _l
109 585 _l
109 645 123 690 151 718 _c
179 746 224 760 286 760 _c
371 760 _l
_cl}_d
/g{{635 0 55 -207 544 560 _sc
454 280 _m
454 344 440 395 414 431 _c
387 467 349 485 301 485 _c
253 485 215 467 188 431 _c
161 395 148 344 148 280 _c
148 215 161 165 188 129 _c
215 93 253 75 301 75 _c
349 75 387 93 414 129 _c
440 165 454 215 454 280 _c
544 68 _m
544 -24 523 -93 482 -139 _c
440 -184 377 -207 292 -207 _c
260 -207 231 -204 203 -200 _c
175 -195 147 -188 121 -178 _c
}_e{121 -91 _l
147 -105 173 -115 199 -122 _c
225 -129 251 -133 278 -133 _c
336 -133 380 -117 410 -87 _c
439 -56 454 -10 454 52 _c
454 96 _l
435 64 411 40 382 24 _c
353 8 319 0 279 0 _c
211 0 157 25 116 76 _c
75 127 55 195 55 280 _c
55 364 75 432 116 483 _c
157 534 211 560 279 560 _c
319 560 353 552 382 536 _c
411 520 435 496 454 464 _c
454 547 _l
544 547 _l
}_e{544 68 _l
_cl}_e}_d
/i{278 0 94 0 184 760 _sc
94 547 _m
184 547 _l
184 0 _l
94 0 _l
94 547 _l
94 760 _m
184 760 _l
184 646 _l
94 646 _l
94 760 _l
_cl}_d
/k{579 0 91 0 576 760 _sc
91 760 _m
181 760 _l
181 311 _l
449 547 _l
564 547 _l
274 291 _l
576 0 _l
459 0 _l
181 267 _l
181 0 _l
91 0 _l
91 760 _l
_cl}_d
/l{278 0 94 0 184 760 _sc
94 760 _m
184 760 _l
184 0 _l
94 0 _l
94 760 _l
_cl}_d
/m{{974 0 91 0 889 560 _sc
520 442 _m
542 482 569 511 600 531 _c
631 550 668 560 711 560 _c
767 560 811 540 842 500 _c
873 460 889 403 889 330 _c
889 0 _l
799 0 _l
799 327 _l
799 379 789 418 771 444 _c
752 469 724 482 686 482 _c
639 482 602 466 575 435 _c
548 404 535 362 535 309 _c
535 0 _l
445 0 _l
445 327 _l
445 379 435 418 417 444 _c
398 469 369 482 331 482 _c
}_e{285 482 248 466 221 435 _c
194 404 181 362 181 309 _c
181 0 _l
91 0 _l
91 547 _l
181 547 _l
181 462 _l
201 495 226 520 255 536 _c
283 552 317 560 357 560 _c
397 560 430 550 458 530 _c
486 510 506 480 520 442 _c
_cl}_e}_d
/n{634 0 91 0 549 560 _sc
549 330 _m
549 0 _l
459 0 _l
459 327 _l
459 379 448 417 428 443 _c
408 469 378 482 338 482 _c
289 482 251 466 223 435 _c
195 404 181 362 181 309 _c
181 0 _l
91 0 _l
91 547 _l
181 547 _l
181 462 _l
202 494 227 519 257 535 _c
286 551 320 560 358 560 _c
420 560 468 540 500 501 _c
532 462 549 405 549 330 _c
_cl}_d
/o{612 0 55 -13 557 560 _sc
306 484 _m
258 484 220 465 192 427 _c
164 389 150 338 150 273 _c
150 207 163 156 191 118 _c
219 80 257 62 306 62 _c
354 62 392 80 420 118 _c
448 156 462 207 462 273 _c
462 337 448 389 420 427 _c
392 465 354 484 306 484 _c
306 560 _m
384 560 445 534 490 484 _c
534 433 557 363 557 273 _c
557 183 534 113 490 63 _c
445 12 384 -13 306 -13 _c
227 -13 165 12 121 63 _c
77 113 55 183 55 273 _c
55 363 77 433 121 484 _c
165 534 227 560 306 560 _c
_cl}_d
/p{{635 0 91 -207 580 560 _sc
181 82 _m
181 -207 _l
91 -207 _l
91 547 _l
181 547 _l
181 464 _l
199 496 223 520 252 536 _c
281 552 316 560 356 560 _c
422 560 476 533 518 481 _c
559 428 580 359 580 273 _c
580 187 559 117 518 65 _c
476 13 422 -13 356 -13 _c
316 -13 281 -5 252 10 _c
223 25 199 49 181 82 _c
487 273 _m
487 339 473 390 446 428 _c
418 466 381 485 334 485 _c
}_e{286 485 249 466 222 428 _c
194 390 181 339 181 273 _c
181 207 194 155 222 117 _c
249 79 286 61 334 61 _c
381 61 418 79 446 117 _c
473 155 487 207 487 273 _c
_cl}_e}_d
/r{411 0 91 0 411 560 _sc
411 463 _m
401 469 390 473 378 476 _c
366 478 353 480 339 480 _c
288 480 249 463 222 430 _c
194 397 181 350 181 288 _c
181 0 _l
91 0 _l
91 547 _l
181 547 _l
181 462 _l
199 495 224 520 254 536 _c
284 552 321 560 365 560 _c
371 560 378 559 386 559 _c
393 558 401 557 411 555 _c
411 463 _l
_cl}_d
/s{{521 0 54 -13 472 560 _sc
443 531 _m
443 446 _l
417 458 391 468 364 475 _c
336 481 308 485 279 485 _c
234 485 200 478 178 464 _c
156 450 145 430 145 403 _c
145 382 153 366 169 354 _c
185 342 217 330 265 320 _c
296 313 _l
360 299 405 279 432 255 _c
458 230 472 195 472 151 _c
472 100 452 60 412 31 _c
372 1 316 -13 246 -13 _c
216 -13 186 -10 154 -5 _c
}_e{122 0 89 8 54 20 _c
54 113 _l
87 95 120 82 152 74 _c
184 65 216 61 248 61 _c
290 61 323 68 346 82 _c
368 96 380 117 380 144 _c
380 168 371 187 355 200 _c
339 213 303 226 247 238 _c
216 245 _l
160 257 119 275 95 299 _c
70 323 58 356 58 399 _c
58 450 76 490 112 518 _c
148 546 200 560 268 560 _c
301 560 332 557 362 552 _c
391 547 418 540 443 531 _c
}_e{_cl}_e}_d
/t{392 0 27 0 368 702 _sc
183 702 _m
183 547 _l
368 547 _l
368 477 _l
183 477 _l
183 180 _l
183 135 189 106 201 94 _c
213 81 238 75 276 75 _c
368 75 _l
368 0 _l
276 0 _l
206 0 158 13 132 39 _c
106 65 93 112 93 180 _c
93 477 _l
27 477 _l
27 547 _l
93 547 _l
93 702 _l
183 702 _l
_cl}_d
/u{634 0 85 -13 543 547 _sc
85 216 _m
85 547 _l
175 547 _l
175 219 _l
175 167 185 129 205 103 _c
225 77 255 64 296 64 _c
344 64 383 79 411 110 _c
439 141 453 183 453 237 _c
453 547 _l
543 547 _l
543 0 _l
453 0 _l
453 84 _l
431 50 405 26 377 10 _c
348 -5 315 -13 277 -13 _c
214 -13 166 6 134 45 _c
101 83 85 140 85 216 _c
_cl}_d
/x{592 0 29 0 559 547 _sc
549 547 _m
351 281 _l
559 0 _l
453 0 _l
294 215 _l
135 0 _l
29 0 _l
241 286 _l
47 547 _l
153 547 _l
298 352 _l
443 547 _l
549 547 _l
_cl}_d
/y{592 0 30 -207 562 547 _sc
322 -50 _m
296 -114 271 -157 247 -177 _c
223 -197 191 -207 151 -207 _c
79 -207 _l
79 -132 _l
132 -132 _l
156 -132 175 -126 189 -114 _c
203 -102 218 -75 235 -31 _c
251 9 _l
30 547 _l
125 547 _l
296 119 _l
467 547 _l
562 547 _l
322 -50 _l
_cl}_d
/minus{838 0 106 272 732 355 _sc
106 355 _m
732 355 _l
732 272 _l
106 272 _l
106 355 _l
_cl}_d
end readonly def

/BuildGlyph
 {exch begin
 CharStrings exch
 2 copy known not{pop /.notdef}if
 true 3 1 roll get exec
 end}_d

/BuildChar {
 1 index /Encoding get exch get
 1 index /BuildGlyph get exec
}_d

FontName currentdict end definefont pop
end
%%EndProlog
mpldict begin
93.6 157.68 translate
424.8 476.64 0 0 clipbox
gsave
0 0 m
424.8 0 l
424.8 476.64 l
0 476.64 l
cl
1.000 setgray
fill
grestore
gsave
53.1 47.664 m
382.32 47.664 l
382.32 428.976 l
53.1 428.976 l
cl
1.000 setgray
fill
grestore
4.000 setlinewidth
1 setlinejoin
2 setlinecap
[] 0 setdash
1.000 0.000 0.000 setrgbcolor
gsave
329.2 381.3 53.1 47.66 clipbox
108.469 103.466 m
117.448 103.466 l
stroke
grestore
2.000 setlinewidth
0.000 0.000 1.000 setrgbcolor
gsave
329.2 381.3 53.1 47.66 clipbox
108.469 289.472 m
117.448 289.472 l
stroke
grestore
4.000 setlinewidth
1.000 0.000 0.000 setrgbcolor
gsave
329.2 381.3 53.1 47.66 clipbox
123.433 114.585 m
132.412 114.585 l
stroke
grestore
2.000 setlinewidth
0.000 0.000 1.000 setrgbcolor
gsave
329.2 381.3 53.1 47.66 clipbox
123.433 196.469 m
132.412 196.469 l
stroke
grestore
4.000 setlinewidth
1.000 0.000 0.000 setrgbcolor
gsave
329.2 381.3 53.1 47.66 clipbox
138.398 179.263 m
147.377 179.263 l
stroke
grestore
2.000 setlinewidth
0.000 0.000 1.000 setrgbcolor
gsave
329.2 381.3 53.1 47.66 clipbox
138.398 224.392 m
147.377 224.392 l
stroke
grestore
4.000 setlinewidth
1.000 0.000 0.000 setrgbcolor
gsave
329.2 381.3 53.1 47.66 clipbox
153.362 204.848 m
162.341 204.848 l
stroke
grestore
2.000 setlinewidth
0.000 0.000 1.000 setrgbcolor
gsave
329.2 381.3 53.1 47.66 clipbox
153.362 204.848 m
162.341 204.848 l
stroke
grestore
4.000 setlinewidth
1.000 0.000 0.000 setrgbcolor
gsave
329.2 381.3 53.1 47.66 clipbox
168.327 229.102 m
177.306 229.102 l
stroke
grestore
2.000 setlinewidth
0.000 0.000 1.000 setrgbcolor
gsave
329.2 381.3 53.1 47.66 clipbox
168.327 229.102 m
177.306 229.102 l
stroke
grestore
4.000 setlinewidth
1.000 0.000 0.000 setrgbcolor
gsave
329.2 381.3 53.1 47.66 clipbox
183.292 240.906 m
192.27 240.906 l
stroke
grestore
2.000 setlinewidth
0.000 0.000 1.000 setrgbcolor
gsave
329.2 381.3 53.1 47.66 clipbox
183.292 240.906 m
192.27 240.906 l
stroke
grestore
4.000 setlinewidth
1.000 0.000 0.000 setrgbcolor
gsave
329.2 381.3 53.1 47.66 clipbox
198.256 260.284 m
207.235 260.284 l
stroke
grestore
2.000 setlinewidth
0.000 0.000 1.000 setrgbcolor
gsave
329.2 381.3 53.1 47.66 clipbox
198.256 260.284 m
207.235 260.284 l
stroke
grestore
4.000 setlinewidth
1.000 0.000 0.000 setrgbcolor
gsave
329.2 381.3 53.1 47.66 clipbox
213.221 271.371 m
222.199 271.371 l
stroke
grestore
2.000 setlinewidth
0.000 0.000 1.000 setrgbcolor
gsave
329.2 381.3 53.1 47.66 clipbox
213.221 271.371 m
222.199 271.371 l
stroke
grestore
4.000 setlinewidth
1.000 0.000 0.000 setrgbcolor
gsave
329.2 381.3 53.1 47.66 clipbox
228.185 286.213 m
237.164 286.213 l
stroke
grestore
2.000 setlinewidth
0.000 0.000 1.000 setrgbcolor
gsave
329.2 381.3 53.1 47.66 clipbox
228.185 292.956 m
237.164 292.956 l
stroke
grestore
4.000 setlinewidth
1.000 0.000 0.000 setrgbcolor
gsave
329.2 381.3 53.1 47.66 clipbox
243.15 295.309 m
252.128 295.309 l
stroke
grestore
2.000 setlinewidth
0.000 0.000 1.000 setrgbcolor
gsave
329.2 381.3 53.1 47.66 clipbox
243.15 303.958 m
252.128 303.958 l
stroke
grestore
4.000 setlinewidth
1.000 0.000 0.000 setrgbcolor
gsave
329.2 381.3 53.1 47.66 clipbox
258.114 316.834 m
267.093 316.834 l
stroke
grestore
2.000 setlinewidth
0.000 0.000 1.000 setrgbcolor
gsave
329.2 381.3 53.1 47.66 clipbox
258.114 316.834 m
267.093 316.834 l
stroke
grestore
4.000 setlinewidth
1.000 0.000 0.000 setrgbcolor
gsave
329.2 381.3 53.1 47.66 clipbox
273.079 329.365 m
282.058 329.365 l
stroke
grestore
2.000 setlinewidth
0.000 0.000 1.000 setrgbcolor
gsave
329.2 381.3 53.1 47.66 clipbox
273.079 329.365 m
282.058 329.365 l
stroke
grestore
4.000 setlinewidth
1.000 0.000 0.000 setrgbcolor
gsave
329.2 381.3 53.1 47.66 clipbox
288.043 342.899 m
297.022 342.899 l
stroke
grestore
2.000 setlinewidth
0.000 0.000 1.000 setrgbcolor
gsave
329.2 381.3 53.1 47.66 clipbox
288.043 342.899 m
297.022 342.899 l
stroke
grestore
4.000 setlinewidth
1.000 0.000 0.000 setrgbcolor
gsave
329.2 381.3 53.1 47.66 clipbox
303.008 350.547 m
311.987 350.547 l
stroke
grestore
2.000 setlinewidth
0.000 0.000 1.000 setrgbcolor
gsave
329.2 381.3 53.1 47.66 clipbox
303.008 350.547 m
311.987 350.547 l
stroke
grestore
4.000 setlinewidth
1.000 0.000 0.000 setrgbcolor
gsave
329.2 381.3 53.1 47.66 clipbox
317.972 360.317 m
326.951 360.317 l
stroke
grestore
2.000 setlinewidth
0.000 0.000 1.000 setrgbcolor
gsave
329.2 381.3 53.1 47.66 clipbox
317.972 360.317 m
326.951 360.317 l
stroke
grestore
1.000 setlinewidth
0 setlinejoin
0.000 setgray
gsave
53.1 428.976 m
382.32 428.976 l
stroke
grestore
gsave
382.32 47.664 m
382.32 428.976 l
stroke
grestore
gsave
53.1 47.664 m
382.32 47.664 l
stroke
grestore
gsave
53.1 47.664 m
53.1 428.976 l
stroke
grestore
0.500 setlinewidth
1 setlinejoin
0 setlinecap
[1 3] 0 setdash
gsave
329.2 381.3 53.1 47.66 clipbox
97.9936 47.664 m
97.9936 428.976 l
stroke
grestore
[] 0 setdash
gsave
/o {
gsave
newpath
translate
0.5 setlinewidth
1 setlinejoin
0 setlinecap
0 0 m
0 4 l
gsave
0.000 setgray
fill
grestore
stroke
grestore
} bind def
97.9936 47.664 o
grestore
gsave
/o {
gsave
newpath
translate
0.5 setlinewidth
1 setlinejoin
0 setlinecap
0 0 m
0 -4 l
gsave
0.000 setgray
fill
grestore
stroke
grestore
} bind def
97.9936 428.976 o
grestore
/BitstreamVeraSans-Roman findfont
10.000 scalefont
setfont
gsave
95.470199 36.070250 translate
0.000000 rotate
0.000000 0.000000 m /zero glyphshow
grestore
[1 3] 0 setdash
gsave
329.2 381.3 53.1 47.66 clipbox
172.816 47.664 m
172.816 428.976 l
stroke
grestore
[] 0 setdash
gsave
/o {
gsave
newpath
translate
0.5 setlinewidth
1 setlinejoin
0 setlinecap
0 0 m
0 4 l
gsave
0.000 setgray
fill
grestore
stroke
grestore
} bind def
172.816 47.664 o
grestore
gsave
/o {
gsave
newpath
translate
0.5 setlinewidth
1 setlinejoin
0 setlinecap
0 0 m
0 -4 l
gsave
0.000 setgray
fill
grestore
stroke
grestore
} bind def
172.816 428.976 o
grestore
gsave
170.456989 36.070250 translate
0.000000 rotate
0.000000 0.000000 m /five glyphshow
grestore
[1 3] 0 setdash
gsave
329.2 381.3 53.1 47.66 clipbox
247.639 47.664 m
247.639 428.976 l
stroke
grestore
[] 0 setdash
gsave
/o {
gsave
newpath
translate
0.5 setlinewidth
1 setlinejoin
0 setlinecap
0 0 m
0 4 l
gsave
0.000 setgray
fill
grestore
stroke
grestore
} bind def
247.639 47.664 o
grestore
gsave
/o {
gsave
newpath
translate
0.5 setlinewidth
1 setlinejoin
0 setlinecap
0 0 m
0 -4 l
gsave
0.000 setgray
fill
grestore
stroke
grestore
} bind def
247.639 428.976 o
grestore
gsave
242.154716 36.070250 translate
0.000000 rotate
0.000000 0.000000 m /one glyphshow
6.362305 0.000000 m /zero glyphshow
grestore
[1 3] 0 setdash
gsave
329.2 381.3 53.1 47.66 clipbox
322.462 47.664 m
322.462 428.976 l
stroke
grestore
[] 0 setdash
gsave
/o {
gsave
newpath
translate
0.5 setlinewidth
1 setlinejoin
0 setlinecap
0 0 m
0 4 l
gsave
0.000 setgray
fill
grestore
stroke
grestore
} bind def
322.462 47.664 o
grestore
gsave
/o {
gsave
newpath
translate
0.5 setlinewidth
1 setlinejoin
0 setlinecap
0 0 m
0 -4 l
gsave
0.000 setgray
fill
grestore
stroke
grestore
} bind def
322.462 428.976 o
grestore
gsave
317.086818 36.070250 translate
0.000000 rotate
0.000000 0.000000 m /one glyphshow
6.362305 0.000000 m /five glyphshow
grestore
gsave
190.241250 21.398375 translate
0.000000 rotate
0.000000 0.000000 m /numbersign glyphshow
8.378906 0.000000 m /space glyphshow
11.557617 0.000000 m /f glyphshow
15.078125 0.000000 m /e glyphshow
21.230469 0.000000 m /r glyphshow
25.216797 0.000000 m /m glyphshow
34.958008 0.000000 m /i glyphshow
37.736328 0.000000 m /o glyphshow
43.854492 0.000000 m /n glyphshow
50.192383 0.000000 m /s glyphshow
grestore
[1 3] 0 setdash
gsave
329.2 381.3 53.1 47.66 clipbox
53.1 56.9643 m
382.32 56.9643 l
stroke
grestore
[] 0 setdash
gsave
/o {
gsave
newpath
translate
0.5 setlinewidth
1 setlinejoin
0 setlinecap
0 0 m
4 0 l
gsave
0.000 setgray
fill
grestore
stroke
grestore
} bind def
53.1 56.9643 o
grestore
gsave
/o {
gsave
newpath
translate
0.5 setlinewidth
1 setlinejoin
0 setlinecap
0 0 m
-4 0 l
gsave
0.000 setgray
fill
grestore
stroke
grestore
} bind def
382.32 56.9643 o
grestore
gsave
26.756250 54.206480 translate
0.000000 rotate
0.000000 0.000000 m /minus glyphshow
8.378906 0.000000 m /four glyphshow
14.741211 0.000000 m /period glyphshow
17.919922 0.000000 m /five glyphshow
grestore
[1 3] 0 setdash
gsave
329.2 381.3 53.1 47.66 clipbox
53.1 103.466 m
382.32 103.466 l
stroke
grestore
[] 0 setdash
gsave
/o {
gsave
newpath
translate
0.5 setlinewidth
1 setlinejoin
0 setlinecap
0 0 m
4 0 l
gsave
0.000 setgray
fill
grestore
stroke
grestore
} bind def
53.1 103.466 o
grestore
gsave
/o {
gsave
newpath
translate
0.5 setlinewidth
1 setlinejoin
0 setlinecap
0 0 m
-4 0 l
gsave
0.000 setgray
fill
grestore
stroke
grestore
} bind def
382.32 103.466 o
grestore
gsave
26.537500 100.707944 translate
0.000000 rotate
0.000000 0.000000 m /minus glyphshow
8.378906 0.000000 m /four glyphshow
14.741211 0.000000 m /period glyphshow
17.919922 0.000000 m /zero glyphshow
grestore
[1 3] 0 setdash
gsave
329.2 381.3 53.1 47.66 clipbox
53.1 149.967 m
382.32 149.967 l
stroke
grestore
[] 0 setdash
gsave
/o {
gsave
newpath
translate
0.5 setlinewidth
1 setlinejoin
0 setlinecap
0 0 m
4 0 l
gsave
0.000 setgray
fill
grestore
stroke
grestore
} bind def
53.1 149.967 o
grestore
gsave
/o {
gsave
newpath
translate
0.5 setlinewidth
1 setlinejoin
0 setlinecap
0 0 m
-4 0 l
gsave
0.000 setgray
fill
grestore
stroke
grestore
} bind def
382.32 149.967 o
grestore
gsave
26.756250 147.209407 translate
0.000000 rotate
0.000000 0.000000 m /minus glyphshow
8.378906 0.000000 m /three glyphshow
14.741211 0.000000 m /period glyphshow
17.919922 0.000000 m /five glyphshow
grestore
[1 3] 0 setdash
gsave
329.2 381.3 53.1 47.66 clipbox
53.1 196.469 m
382.32 196.469 l
stroke
grestore
[] 0 setdash
gsave
/o {
gsave
newpath
translate
0.5 setlinewidth
1 setlinejoin
0 setlinecap
0 0 m
4 0 l
gsave
0.000 setgray
fill
grestore
stroke
grestore
} bind def
53.1 196.469 o
grestore
gsave
/o {
gsave
newpath
translate
0.5 setlinewidth
1 setlinejoin
0 setlinecap
0 0 m
-4 0 l
gsave
0.000 setgray
fill
grestore
stroke
grestore
} bind def
382.32 196.469 o
grestore
gsave
26.537500 193.710870 translate
0.000000 rotate
0.000000 0.000000 m /minus glyphshow
8.378906 0.000000 m /three glyphshow
14.741211 0.000000 m /period glyphshow
17.919922 0.000000 m /zero glyphshow
grestore
[1 3] 0 setdash
gsave
329.2 381.3 53.1 47.66 clipbox
53.1 242.97 m
382.32 242.97 l
stroke
grestore
[] 0 setdash
gsave
/o {
gsave
newpath
translate
0.5 setlinewidth
1 setlinejoin
0 setlinecap
0 0 m
4 0 l
gsave
0.000 setgray
fill
grestore
stroke
grestore
} bind def
53.1 242.97 o
grestore
gsave
/o {
gsave
newpath
translate
0.5 setlinewidth
1 setlinejoin
0 setlinecap
0 0 m
-4 0 l
gsave
0.000 setgray
fill
grestore
stroke
grestore
} bind def
382.32 242.97 o
grestore
gsave
26.756250 240.212334 translate
0.000000 rotate
0.000000 0.000000 m /minus glyphshow
8.378906 0.000000 m /two glyphshow
14.741211 0.000000 m /period glyphshow
17.919922 0.000000 m /five glyphshow
grestore
[1 3] 0 setdash
gsave
329.2 381.3 53.1 47.66 clipbox
53.1 289.472 m
382.32 289.472 l
stroke
grestore
[] 0 setdash
gsave
/o {
gsave
newpath
translate
0.5 setlinewidth
1 setlinejoin
0 setlinecap
0 0 m
4 0 l
gsave
0.000 setgray
fill
grestore
stroke
grestore
} bind def
53.1 289.472 o
grestore
gsave
/o {
gsave
newpath
translate
0.5 setlinewidth
1 setlinejoin
0 setlinecap
0 0 m
-4 0 l
gsave
0.000 setgray
fill
grestore
stroke
grestore
} bind def
382.32 289.472 o
grestore
gsave
26.537500 286.713797 translate
0.000000 rotate
0.000000 0.000000 m /minus glyphshow
8.378906 0.000000 m /two glyphshow
14.741211 0.000000 m /period glyphshow
17.919922 0.000000 m /zero glyphshow
grestore
[1 3] 0 setdash
gsave
329.2 381.3 53.1 47.66 clipbox
53.1 335.973 m
382.32 335.973 l
stroke
grestore
[] 0 setdash
gsave
/o {
gsave
newpath
translate
0.5 setlinewidth
1 setlinejoin
0 setlinecap
0 0 m
4 0 l
gsave
0.000 setgray
fill
grestore
stroke
grestore
} bind def
53.1 335.973 o
grestore
gsave
/o {
gsave
newpath
translate
0.5 setlinewidth
1 setlinejoin
0 setlinecap
0 0 m
-4 0 l
gsave
0.000 setgray
fill
grestore
stroke
grestore
} bind def
382.32 335.973 o
grestore
gsave
26.756250 333.215261 translate
0.000000 rotate
0.000000 0.000000 m /minus glyphshow
8.378906 0.000000 m /one glyphshow
14.741211 0.000000 m /period glyphshow
17.919922 0.000000 m /five glyphshow
grestore
[1 3] 0 setdash
gsave
329.2 381.3 53.1 47.66 clipbox
53.1 382.475 m
382.32 382.475 l
stroke
grestore
[] 0 setdash
gsave
/o {
gsave
newpath
translate
0.5 setlinewidth
1 setlinejoin
0 setlinecap
0 0 m
4 0 l
gsave
0.000 setgray
fill
grestore
stroke
grestore
} bind def
53.1 382.475 o
grestore
gsave
/o {
gsave
newpath
translate
0.5 setlinewidth
1 setlinejoin
0 setlinecap
0 0 m
-4 0 l
gsave
0.000 setgray
fill
grestore
stroke
grestore
} bind def
382.32 382.475 o
grestore
gsave
26.537500 379.716724 translate
0.000000 rotate
0.000000 0.000000 m /minus glyphshow
8.378906 0.000000 m /one glyphshow
14.741211 0.000000 m /period glyphshow
17.919922 0.000000 m /zero glyphshow
grestore
[1 3] 0 setdash
gsave
329.2 381.3 53.1 47.66 clipbox
53.1 428.976 m
382.32 428.976 l
stroke
grestore
[] 0 setdash
gsave
/o {
gsave
newpath
translate
0.5 setlinewidth
1 setlinejoin
0 setlinecap
0 0 m
4 0 l
gsave
0.000 setgray
fill
grestore
stroke
grestore
} bind def
53.1 428.976 o
grestore
gsave
/o {
gsave
newpath
translate
0.5 setlinewidth
1 setlinejoin
0 setlinecap
0 0 m
-4 0 l
gsave
0.000 setgray
fill
grestore
stroke
grestore
} bind def
382.32 428.976 o
grestore
gsave
26.756250 426.218188 translate
0.000000 rotate
0.000000 0.000000 m /minus glyphshow
8.378906 0.000000 m /zero glyphshow
14.741211 0.000000 m /period glyphshow
17.919922 0.000000 m /five glyphshow
grestore
gsave
19.459375 175.257500 translate
90.000000 rotate
0.000000 0.000000 m /T glyphshow
4.358398 0.000000 m /o glyphshow
10.476562 0.000000 m /t glyphshow
14.397461 0.000000 m /a glyphshow
20.525391 0.000000 m /l glyphshow
23.303711 0.000000 m /space glyphshow
26.482422 0.000000 m /e glyphshow
32.634766 0.000000 m /n glyphshow
38.972656 0.000000 m /e glyphshow
45.125000 0.000000 m /r glyphshow
49.111328 0.000000 m /g glyphshow
55.458984 0.000000 m /y glyphshow
61.376953 0.000000 m /space glyphshow
64.555664 0.000000 m /slash glyphshow
67.924805 0.000000 m /space glyphshow
71.103516 0.000000 m /numbersign glyphshow
79.482422 0.000000 m /space glyphshow
82.661133 0.000000 m /f glyphshow
86.181641 0.000000 m /e glyphshow
92.333984 0.000000 m /r glyphshow
96.320312 0.000000 m /m glyphshow
106.061523 0.000000 m /i glyphshow
108.839844 0.000000 m /o glyphshow
114.958008 0.000000 m /n glyphshow
121.295898 0.000000 m /s glyphshow
grestore
2.000 setlinewidth
1 setlinecap
1.000 0.000 0.000 setrgbcolor
gsave
292.835 74.976 m
122.958 74.976 l
116.292 74.976 112.958 78.3093 112.958 84.976 c
112.958 99.2299 l
stroke
grestore
gsave
111.158 95.6299 m
112.958 99.2299 l
114.758 95.6299 l
stroke
grestore
/BitstreamVeraSans-Roman findfont
9.000 scalefont
setfont
gsave
296.834375 77.535375 translate
0.000000 rotate
0.000000 0.000000 m /k glyphshow
5.211914 0.000000 m /equal glyphshow
12.752930 0.000000 m /parenleft glyphshow
16.264160 0.000000 m /zero glyphshow
21.990234 0.000000 m /comma glyphshow
24.851074 0.000000 m /zero glyphshow
30.577148 0.000000 m /parenright glyphshow
grestore
gsave
300.428125 67.447875 translate
0.000000 rotate
0.000000 0.000000 m /s glyphshow
4.688965 0.000000 m /equal glyphshow
12.229980 0.000000 m /one glyphshow
17.956055 0.000000 m /slash glyphshow
20.988281 0.000000 m /two glyphshow
grestore
0.000 0.000 1.000 setrgbcolor
gsave
107.682 188.725 m
111.199 190.05 112.958 193.133 112.958 197.976 c
112.958 285.234 l
stroke
grestore
gsave
111.158 281.634 m
112.958 285.234 l
114.758 281.634 l
stroke
grestore
gsave
62.451562 190.535375 translate
0.000000 rotate
0.000000 0.000000 m /k glyphshow
5.211914 0.000000 m /equal glyphshow
12.752930 0.000000 m /parenleft glyphshow
16.264160 0.000000 m /one glyphshow
21.990234 0.000000 m /slash glyphshow
25.022461 0.000000 m /two glyphshow
30.748535 0.000000 m /comma glyphshow
33.609375 0.000000 m /zero glyphshow
39.335449 0.000000 m /parenright glyphshow
grestore
gsave
70.428125 180.447875 translate
0.000000 rotate
0.000000 0.000000 m /s glyphshow
4.688965 0.000000 m /equal glyphshow
12.229980 0.000000 m /one glyphshow
17.956055 0.000000 m /slash glyphshow
20.988281 0.000000 m /two glyphshow
grestore
1.000 0.000 0.000 setrgbcolor
gsave
342.833 90.976 m
137.923 90.976 l
131.256 90.976 127.923 94.3093 127.923 100.976 c
127.923 110.352 l
stroke
grestore
gsave
126.123 106.752 m
127.923 110.352 l
129.723 106.752 l
stroke
grestore
gsave
346.834375 93.535375 translate
0.000000 rotate
0.000000 0.000000 m /k glyphshow
5.211914 0.000000 m /equal glyphshow
12.752930 0.000000 m /parenleft glyphshow
16.264160 0.000000 m /zero glyphshow
21.990234 0.000000 m /comma glyphshow
24.851074 0.000000 m /zero glyphshow
30.577148 0.000000 m /parenright glyphshow
grestore
gsave
354.662500 83.447875 translate
0.000000 rotate
0.000000 0.000000 m /s glyphshow
4.688965 0.000000 m /equal glyphshow
12.229980 0.000000 m /zero glyphshow
grestore
0.000 0.000 1.000 setrgbcolor
gsave
135.102 203.976 m
137.923 203.976 l
131.256 203.976 127.923 200.643 127.923 193.976 c
127.923 192.232 l
stroke
grestore
gsave
126.123 188.632 m
127.923 192.232 l
129.723 188.632 l
stroke
grestore
gsave
112.451562 206.535375 translate
0.000000 rotate
0.000000 0.000000 m /k glyphshow
5.211914 0.000000 m /equal glyphshow
12.752930 0.000000 m /parenleft glyphshow
16.264160 0.000000 m /one glyphshow
21.990234 0.000000 m /slash glyphshow
25.022461 0.000000 m /two glyphshow
30.748535 0.000000 m /comma glyphshow
33.609375 0.000000 m /zero glyphshow
39.335449 0.000000 m /parenright glyphshow
grestore
gsave
124.779687 196.447875 translate
0.000000 rotate
0.000000 0.000000 m /s glyphshow
4.688965 0.000000 m /equal glyphshow
12.229980 0.000000 m /one glyphshow
grestore
1.000 0.000 0.000 setrgbcolor
gsave
288.445 106.976 m
152.887 106.976 l
146.221 106.976 142.887 110.309 142.887 116.976 c
142.887 175.024 l
stroke
grestore
gsave
141.087 171.424 m
142.887 175.024 l
144.687 171.424 l
stroke
grestore
gsave
292.451563 109.535375 translate
0.000000 rotate
0.000000 0.000000 m /k glyphshow
5.211914 0.000000 m /equal glyphshow
12.752930 0.000000 m /parenleft glyphshow
16.264160 0.000000 m /one glyphshow
21.990234 0.000000 m /slash glyphshow
25.022461 0.000000 m /two glyphshow
30.748535 0.000000 m /comma glyphshow
33.609375 0.000000 m /zero glyphshow
39.335449 0.000000 m /parenright glyphshow
grestore
gsave
300.428125 99.447875 translate
0.000000 rotate
0.000000 0.000000 m /s glyphshow
4.688965 0.000000 m /equal glyphshow
12.229980 0.000000 m /one glyphshow
17.956055 0.000000 m /slash glyphshow
20.988281 0.000000 m /two glyphshow
grestore
0.000 0.000 1.000 setrgbcolor
gsave
103.363 219.976 m
132.887 219.976 l
139.554 219.976 142.887 223.309 142.887 229.976 c
142.887 228.627 l
stroke
grestore
gsave
144.687 232.227 m
142.887 228.627 l
141.087 232.227 l
stroke
grestore
gsave
66.834375 222.535375 translate
0.000000 rotate
0.000000 0.000000 m /k glyphshow
5.211914 0.000000 m /equal glyphshow
12.752930 0.000000 m /parenleft glyphshow
16.264160 0.000000 m /zero glyphshow
21.990234 0.000000 m /comma glyphshow
24.851074 0.000000 m /zero glyphshow
30.577148 0.000000 m /parenright glyphshow
grestore
gsave
70.428125 212.447875 translate
0.000000 rotate
0.000000 0.000000 m /s glyphshow
4.688965 0.000000 m /equal glyphshow
12.229980 0.000000 m /one glyphshow
17.956055 0.000000 m /slash glyphshow
20.988281 0.000000 m /two glyphshow
grestore
1.000 0.000 0.000 setrgbcolor
gsave
342.833 122.976 m
167.852 122.976 l
161.185 122.976 157.852 126.309 157.852 132.976 c
157.852 200.616 l
stroke
grestore
gsave
156.052 197.016 m
157.852 200.616 l
159.652 197.016 l
stroke
grestore
gsave
346.834375 125.535375 translate
0.000000 rotate
0.000000 0.000000 m /k glyphshow
5.211914 0.000000 m /equal glyphshow
12.752930 0.000000 m /parenleft glyphshow
16.264160 0.000000 m /one glyphshow
21.990234 0.000000 m /comma glyphshow
24.851074 0.000000 m /zero glyphshow
30.577148 0.000000 m /parenright glyphshow
grestore
gsave
354.662500 115.447875 translate
0.000000 rotate
0.000000 0.000000 m /s glyphshow
4.688965 0.000000 m /equal glyphshow
12.229980 0.000000 m /zero glyphshow
grestore
0.000 0.000 1.000 setrgbcolor
gsave
153.252 234.94 m
156.319 233.485 157.852 230.497 157.852 225.976 c
157.852 209.083 l
stroke
grestore
gsave
159.652 212.683 m
157.852 209.083 l
156.052 212.683 l
stroke
grestore
gsave
116.834375 238.535375 translate
0.000000 rotate
0.000000 0.000000 m /k glyphshow
5.211914 0.000000 m /equal glyphshow
12.752930 0.000000 m /parenleft glyphshow
16.264160 0.000000 m /zero glyphshow
21.990234 0.000000 m /comma glyphshow
24.851074 0.000000 m /zero glyphshow
30.577148 0.000000 m /parenright glyphshow
grestore
gsave
124.662500 228.447875 translate
0.000000 rotate
0.000000 0.000000 m /s glyphshow
4.688965 0.000000 m /equal glyphshow
12.229980 0.000000 m /zero glyphshow
grestore
1.000 0.000 0.000 setrgbcolor
gsave
288.449 138.976 m
182.816 138.976 l
176.15 138.976 172.816 142.309 172.816 148.976 c
172.816 224.866 l
stroke
grestore
gsave
171.016 221.266 m
172.816 224.866 l
174.616 221.266 l
stroke
grestore
gsave
292.451563 141.535375 translate
0.000000 rotate
0.000000 0.000000 m /k glyphshow
5.211914 0.000000 m /equal glyphshow
12.752930 0.000000 m /parenleft glyphshow
16.264160 0.000000 m /one glyphshow
21.990234 0.000000 m /comma glyphshow
24.851074 0.000000 m /one glyphshow
30.577148 0.000000 m /slash glyphshow
33.609375 0.000000 m /two glyphshow
39.335449 0.000000 m /parenright glyphshow
grestore
gsave
300.428125 131.447875 translate
0.000000 rotate
0.000000 0.000000 m /s glyphshow
4.688965 0.000000 m /equal glyphshow
12.229980 0.000000 m /one glyphshow
17.956055 0.000000 m /slash glyphshow
20.988281 0.000000 m /two glyphshow
grestore
0.000 0.000 1.000 setrgbcolor
gsave
107.752 251.976 m
162.816 251.976 l
169.483 251.976 172.816 248.643 172.816 241.976 c
172.816 233.34 l
stroke
grestore
gsave
174.616 236.94 m
172.816 233.34 l
171.016 236.94 l
stroke
grestore
gsave
62.451562 254.535375 translate
0.000000 rotate
0.000000 0.000000 m /k glyphshow
5.211914 0.000000 m /equal glyphshow
12.752930 0.000000 m /parenleft glyphshow
16.264160 0.000000 m /one glyphshow
21.990234 0.000000 m /slash glyphshow
25.022461 0.000000 m /two glyphshow
30.748535 0.000000 m /comma glyphshow
33.609375 0.000000 m /zero glyphshow
39.335449 0.000000 m /parenright glyphshow
grestore
gsave
70.428125 244.447875 translate
0.000000 rotate
0.000000 0.000000 m /s glyphshow
4.688965 0.000000 m /equal glyphshow
12.229980 0.000000 m /one glyphshow
17.956055 0.000000 m /slash glyphshow
20.988281 0.000000 m /two glyphshow
grestore
1.000 0.000 0.000 setrgbcolor
gsave
342.837 154.976 m
197.781 154.976 l
191.114 154.976 187.781 158.309 187.781 164.976 c
187.781 236.673 l
stroke
grestore
gsave
185.981 233.073 m
187.781 236.673 l
189.581 233.073 l
stroke
grestore
gsave
346.834375 157.535375 translate
0.000000 rotate
0.000000 0.000000 m /k glyphshow
5.211914 0.000000 m /equal glyphshow
12.752930 0.000000 m /parenleft glyphshow
16.264160 0.000000 m /one glyphshow
21.990234 0.000000 m /comma glyphshow
24.851074 0.000000 m /one glyphshow
30.577148 0.000000 m /parenright glyphshow
grestore
gsave
354.662500 147.447875 translate
0.000000 rotate
0.000000 0.000000 m /s glyphshow
4.688965 0.000000 m /equal glyphshow
12.229980 0.000000 m /zero glyphshow
grestore
0.000 0.000 1.000 setrgbcolor
gsave
153.366 267.976 m
177.781 267.976 l
184.448 267.976 187.781 264.643 187.781 257.976 c
187.781 245.138 l
stroke
grestore
gsave
189.581 248.738 m
187.781 245.138 l
185.981 248.738 l
stroke
grestore
gsave
116.834375 270.535375 translate
0.000000 rotate
0.000000 0.000000 m /k glyphshow
5.211914 0.000000 m /equal glyphshow
12.752930 0.000000 m /parenleft glyphshow
16.264160 0.000000 m /zero glyphshow
21.990234 0.000000 m /comma glyphshow
24.851074 0.000000 m /zero glyphshow
30.577148 0.000000 m /parenright glyphshow
grestore
gsave
124.662500 260.447875 translate
0.000000 rotate
0.000000 0.000000 m /s glyphshow
4.688965 0.000000 m /equal glyphshow
12.229980 0.000000 m /zero glyphshow
grestore
1.000 0.000 0.000 setrgbcolor
gsave
288.456 170.976 m
212.745 170.976 l
206.079 170.976 202.745 174.309 202.745 180.976 c
202.745 256.049 l
stroke
grestore
gsave
200.945 252.449 m
202.745 256.049 l
204.545 252.449 l
stroke
grestore
gsave
292.451563 173.535375 translate
0.000000 rotate
0.000000 0.000000 m /k glyphshow
5.211914 0.000000 m /equal glyphshow
12.752930 0.000000 m /parenleft glyphshow
16.264160 0.000000 m /one glyphshow
21.990234 0.000000 m /comma glyphshow
24.851074 0.000000 m /one glyphshow
30.577148 0.000000 m /slash glyphshow
33.609375 0.000000 m /two glyphshow
39.335449 0.000000 m /parenright glyphshow
grestore
gsave
300.428125 163.447875 translate
0.000000 rotate
0.000000 0.000000 m /s glyphshow
4.688965 0.000000 m /equal glyphshow
12.229980 0.000000 m /one glyphshow
17.956055 0.000000 m /slash glyphshow
20.988281 0.000000 m /two glyphshow
grestore
0.000 0.000 1.000 setrgbcolor
gsave
107.749 283.976 m
192.745 283.976 l
199.412 283.976 202.745 280.643 202.745 273.976 c
202.745 264.522 l
stroke
grestore
gsave
204.545 268.122 m
202.745 264.522 l
200.945 268.122 l
stroke
grestore
gsave
62.451562 286.535375 translate
0.000000 rotate
0.000000 0.000000 m /k glyphshow
5.211914 0.000000 m /equal glyphshow
12.752930 0.000000 m /parenleft glyphshow
16.264160 0.000000 m /one glyphshow
21.990234 0.000000 m /slash glyphshow
25.022461 0.000000 m /two glyphshow
30.748535 0.000000 m /comma glyphshow
33.609375 0.000000 m /zero glyphshow
39.335449 0.000000 m /parenright glyphshow
grestore
gsave
70.428125 276.447875 translate
0.000000 rotate
0.000000 0.000000 m /s glyphshow
4.688965 0.000000 m /equal glyphshow
12.229980 0.000000 m /one glyphshow
17.956055 0.000000 m /slash glyphshow
20.988281 0.000000 m /two glyphshow
grestore
1.000 0.000 0.000 setrgbcolor
gsave
342.835 186.976 m
227.71 186.976 l
221.043 186.976 217.71 190.309 217.71 196.976 c
217.71 267.132 l
stroke
grestore
gsave
215.91 263.532 m
217.71 267.132 l
219.51 263.532 l
stroke
grestore
gsave
346.834375 189.535375 translate
0.000000 rotate
0.000000 0.000000 m /k glyphshow
5.211914 0.000000 m /equal glyphshow
12.752930 0.000000 m /parenleft glyphshow
16.264160 0.000000 m /one glyphshow
21.990234 0.000000 m /comma glyphshow
24.851074 0.000000 m /zero glyphshow
30.577148 0.000000 m /parenright glyphshow
grestore
gsave
354.662500 179.447875 translate
0.000000 rotate
0.000000 0.000000 m /s glyphshow
4.688965 0.000000 m /equal glyphshow
12.229980 0.000000 m /zero glyphshow
grestore
0.000 0.000 1.000 setrgbcolor
gsave
153.363 299.976 m
207.71 299.976 l
214.377 299.976 217.71 296.643 217.71 289.976 c
217.71 275.61 l
stroke
grestore
gsave
219.51 279.21 m
217.71 275.61 l
215.91 279.21 l
stroke
grestore
gsave
116.834375 302.535375 translate
0.000000 rotate
0.000000 0.000000 m /k glyphshow
5.211914 0.000000 m /equal glyphshow
12.752930 0.000000 m /parenleft glyphshow
16.264160 0.000000 m /zero glyphshow
21.990234 0.000000 m /comma glyphshow
24.851074 0.000000 m /zero glyphshow
30.577148 0.000000 m /parenright glyphshow
grestore
gsave
124.662500 292.447875 translate
0.000000 rotate
0.000000 0.000000 m /s glyphshow
4.688965 0.000000 m /equal glyphshow
12.229980 0.000000 m /zero glyphshow
grestore
1.000 0.000 0.000 setrgbcolor
gsave
288.454 202.976 m
242.675 202.976 l
236.008 202.976 232.675 206.309 232.675 212.976 c
232.675 281.978 l
stroke
grestore
gsave
230.875 278.378 m
232.675 281.978 l
234.475 278.378 l
stroke
grestore
gsave
292.451563 205.535375 translate
0.000000 rotate
0.000000 0.000000 m /k glyphshow
5.211914 0.000000 m /equal glyphshow
12.752930 0.000000 m /parenleft glyphshow
16.264160 0.000000 m /one glyphshow
21.990234 0.000000 m /slash glyphshow
25.022461 0.000000 m /two glyphshow
30.748535 0.000000 m /comma glyphshow
33.609375 0.000000 m /zero glyphshow
39.335449 0.000000 m /parenright glyphshow
grestore
gsave
300.428125 195.447875 translate
0.000000 rotate
0.000000 0.000000 m /s glyphshow
4.688965 0.000000 m /equal glyphshow
12.229980 0.000000 m /one glyphshow
17.956055 0.000000 m /slash glyphshow
20.988281 0.000000 m /two glyphshow
grestore
0.000 0.000 1.000 setrgbcolor
gsave
112.137 315.976 m
222.675 315.976 l
229.341 315.976 232.675 312.643 232.675 305.976 c
232.675 297.192 l
stroke
grestore
gsave
234.475 300.792 m
232.675 297.192 l
230.875 300.792 l
stroke
grestore
gsave
58.068750 318.535375 translate
0.000000 rotate
0.000000 0.000000 m /k glyphshow
5.211914 0.000000 m /equal glyphshow
12.752930 0.000000 m /parenleft glyphshow
16.264160 0.000000 m /one glyphshow
21.990234 0.000000 m /slash glyphshow
25.022461 0.000000 m /two glyphshow
30.748535 0.000000 m /comma glyphshow
33.609375 0.000000 m /one glyphshow
39.335449 0.000000 m /slash glyphshow
42.367676 0.000000 m /two glyphshow
48.093750 0.000000 m /parenright glyphshow
grestore
gsave
70.428125 308.447875 translate
0.000000 rotate
0.000000 0.000000 m /s glyphshow
4.688965 0.000000 m /equal glyphshow
12.229980 0.000000 m /one glyphshow
17.956055 0.000000 m /slash glyphshow
20.988281 0.000000 m /two glyphshow
grestore
1.000 0.000 0.000 setrgbcolor
gsave
342.837 218.976 m
257.639 218.976 l
250.972 218.976 247.639 222.309 247.639 228.976 c
247.639 291.077 l
stroke
grestore
gsave
245.839 287.477 m
247.639 291.077 l
249.439 287.477 l
stroke
grestore
gsave
346.834375 221.535375 translate
0.000000 rotate
0.000000 0.000000 m /k glyphshow
5.211914 0.000000 m /equal glyphshow
12.752930 0.000000 m /parenleft glyphshow
16.264160 0.000000 m /zero glyphshow
21.990234 0.000000 m /comma glyphshow
24.851074 0.000000 m /zero glyphshow
30.577148 0.000000 m /parenright glyphshow
grestore
gsave
354.662500 211.447875 translate
0.000000 rotate
0.000000 0.000000 m /s glyphshow
4.688965 0.000000 m /equal glyphshow
12.229980 0.000000 m /zero glyphshow
grestore
0.000 0.000 1.000 setrgbcolor
gsave
157.752 331.976 m
237.639 331.976 l
244.306 331.976 247.639 328.643 247.639 321.976 c
247.639 308.195 l
stroke
grestore
gsave
249.439 311.795 m
247.639 308.195 l
245.839 311.795 l
stroke
grestore
gsave
112.451562 334.535375 translate
0.000000 rotate
0.000000 0.000000 m /k glyphshow
5.211914 0.000000 m /equal glyphshow
12.752930 0.000000 m /parenleft glyphshow
16.264160 0.000000 m /one glyphshow
21.990234 0.000000 m /comma glyphshow
24.851074 0.000000 m /one glyphshow
30.577148 0.000000 m /slash glyphshow
33.609375 0.000000 m /two glyphshow
39.335449 0.000000 m /parenright glyphshow
grestore
gsave
124.779687 324.447875 translate
0.000000 rotate
0.000000 0.000000 m /s glyphshow
4.688965 0.000000 m /equal glyphshow
12.229980 0.000000 m /one glyphshow
grestore
1.000 0.000 0.000 setrgbcolor
gsave
292.834 234.976 m
272.604 234.976 l
265.937 234.976 262.604 238.309 262.604 244.976 c
262.604 312.593 l
stroke
grestore
gsave
260.804 308.993 m
262.604 312.593 l
264.404 308.993 l
stroke
grestore
gsave
296.834375 237.535375 translate
0.000000 rotate
0.000000 0.000000 m /k glyphshow
5.211914 0.000000 m /equal glyphshow
12.752930 0.000000 m /parenleft glyphshow
16.264160 0.000000 m /one glyphshow
21.990234 0.000000 m /comma glyphshow
24.851074 0.000000 m /zero glyphshow
30.577148 0.000000 m /parenright glyphshow
grestore
gsave
300.428125 227.447875 translate
0.000000 rotate
0.000000 0.000000 m /s glyphshow
4.688965 0.000000 m /equal glyphshow
12.229980 0.000000 m /one glyphshow
17.956055 0.000000 m /slash glyphshow
20.988281 0.000000 m /two glyphshow
grestore
0.000 0.000 1.000 setrgbcolor
gsave
112.126 347.976 m
252.604 347.976 l
259.27 347.976 262.604 344.643 262.604 337.976 c
262.604 321.07 l
stroke
grestore
gsave
264.404 324.67 m
262.604 321.07 l
260.804 324.67 l
stroke
grestore
gsave
58.068750 350.535375 translate
0.000000 rotate
0.000000 0.000000 m /k glyphshow
5.211914 0.000000 m /equal glyphshow
12.752930 0.000000 m /parenleft glyphshow
16.264160 0.000000 m /one glyphshow
21.990234 0.000000 m /slash glyphshow
25.022461 0.000000 m /two glyphshow
30.748535 0.000000 m /comma glyphshow
33.609375 0.000000 m /one glyphshow
39.335449 0.000000 m /slash glyphshow
42.367676 0.000000 m /two glyphshow
48.093750 0.000000 m /parenright glyphshow
grestore
gsave
70.428125 340.447875 translate
0.000000 rotate
0.000000 0.000000 m /s glyphshow
4.688965 0.000000 m /equal glyphshow
12.229980 0.000000 m /one glyphshow
17.956055 0.000000 m /slash glyphshow
20.988281 0.000000 m /two glyphshow
grestore
1.000 0.000 0.000 setrgbcolor
gsave
342.828 250.976 m
287.568 250.976 l
280.902 250.976 277.568 254.309 277.568 260.976 c
277.568 325.129 l
stroke
grestore
gsave
275.768 321.529 m
277.568 325.129 l
279.368 321.529 l
stroke
grestore
gsave
346.834375 253.535375 translate
0.000000 rotate
0.000000 0.000000 m /k glyphshow
5.211914 0.000000 m /equal glyphshow
12.752930 0.000000 m /parenleft glyphshow
16.264160 0.000000 m /zero glyphshow
21.990234 0.000000 m /comma glyphshow
24.851074 0.000000 m /zero glyphshow
30.577148 0.000000 m /parenright glyphshow
grestore
gsave
354.662500 243.447875 translate
0.000000 rotate
0.000000 0.000000 m /s glyphshow
4.688965 0.000000 m /equal glyphshow
12.229980 0.000000 m /zero glyphshow
grestore
0.000 0.000 1.000 setrgbcolor
gsave
153.362 363.976 m
267.568 363.976 l
274.235 363.976 277.568 360.643 277.568 353.976 c
277.568 333.599 l
stroke
grestore
gsave
279.368 337.199 m
277.568 333.599 l
275.768 337.199 l
stroke
grestore
gsave
116.834375 366.535375 translate
0.000000 rotate
0.000000 0.000000 m /k glyphshow
5.211914 0.000000 m /equal glyphshow
12.752930 0.000000 m /parenleft glyphshow
16.264160 0.000000 m /one glyphshow
21.990234 0.000000 m /comma glyphshow
24.851074 0.000000 m /zero glyphshow
30.577148 0.000000 m /parenright glyphshow
grestore
gsave
124.662500 356.447875 translate
0.000000 rotate
0.000000 0.000000 m /s glyphshow
4.688965 0.000000 m /equal glyphshow
12.229980 0.000000 m /zero glyphshow
grestore
1.000 0.000 0.000 setrgbcolor
gsave
293.691 271.327 m
292.919 272.824 292.533 274.707 292.533 276.976 c
292.533 338.663 l
stroke
grestore
gsave
290.733 335.063 m
292.533 338.663 l
294.333 335.063 l
stroke
grestore
gsave
296.834375 269.535375 translate
0.000000 rotate
0.000000 0.000000 m /k glyphshow
5.211914 0.000000 m /equal glyphshow
12.752930 0.000000 m /parenleft glyphshow
16.264160 0.000000 m /one glyphshow
21.990234 0.000000 m /comma glyphshow
24.851074 0.000000 m /one glyphshow
30.577148 0.000000 m /parenright glyphshow
grestore
gsave
300.428125 259.447875 translate
0.000000 rotate
0.000000 0.000000 m /s glyphshow
4.688965 0.000000 m /equal glyphshow
12.229980 0.000000 m /one glyphshow
17.956055 0.000000 m /slash glyphshow
20.988281 0.000000 m /two glyphshow
grestore
0.000 0.000 1.000 setrgbcolor
gsave
112.134 379.976 m
282.533 379.976 l
289.199 379.976 292.533 376.643 292.533 369.976 c
292.533 347.135 l
stroke
grestore
gsave
294.333 350.735 m
292.533 347.135 l
290.733 350.735 l
stroke
grestore
gsave
58.068750 382.535375 translate
0.000000 rotate
0.000000 0.000000 m /k glyphshow
5.211914 0.000000 m /equal glyphshow
12.752930 0.000000 m /parenleft glyphshow
16.264160 0.000000 m /one glyphshow
21.990234 0.000000 m /slash glyphshow
25.022461 0.000000 m /two glyphshow
30.748535 0.000000 m /comma glyphshow
33.609375 0.000000 m /one glyphshow
39.335449 0.000000 m /slash glyphshow
42.367676 0.000000 m /two glyphshow
48.093750 0.000000 m /parenright glyphshow
grestore
gsave
70.428125 372.447875 translate
0.000000 rotate
0.000000 0.000000 m /s glyphshow
4.688965 0.000000 m /equal glyphshow
12.229980 0.000000 m /one glyphshow
17.956055 0.000000 m /slash glyphshow
20.988281 0.000000 m /two glyphshow
grestore
1.000 0.000 0.000 setrgbcolor
gsave
342.834 282.976 m
317.497 282.976 l
310.831 282.976 307.497 286.309 307.497 292.976 c
307.497 346.312 l
stroke
grestore
gsave
305.697 342.712 m
307.497 346.312 l
309.297 342.712 l
stroke
grestore
gsave
346.834375 285.535375 translate
0.000000 rotate
0.000000 0.000000 m /k glyphshow
5.211914 0.000000 m /equal glyphshow
12.752930 0.000000 m /parenleft glyphshow
16.264160 0.000000 m /one glyphshow
21.990234 0.000000 m /comma glyphshow
24.851074 0.000000 m /zero glyphshow
30.577148 0.000000 m /parenright glyphshow
grestore
gsave
354.662500 275.447875 translate
0.000000 rotate
0.000000 0.000000 m /s glyphshow
4.688965 0.000000 m /equal glyphshow
12.229980 0.000000 m /zero glyphshow
grestore
0.000 0.000 1.000 setrgbcolor
gsave
153.367 395.976 m
297.497 395.976 l
304.164 395.976 307.497 392.643 307.497 385.976 c
307.497 354.786 l
stroke
grestore
gsave
309.297 358.386 m
307.497 354.786 l
305.697 358.386 l
stroke
grestore
gsave
116.834375 398.535375 translate
0.000000 rotate
0.000000 0.000000 m /k glyphshow
5.211914 0.000000 m /equal glyphshow
12.752930 0.000000 m /parenleft glyphshow
16.264160 0.000000 m /zero glyphshow
21.990234 0.000000 m /comma glyphshow
24.851074 0.000000 m /zero glyphshow
30.577148 0.000000 m /parenright glyphshow
grestore
gsave
124.662500 388.447875 translate
0.000000 rotate
0.000000 0.000000 m /s glyphshow
4.688965 0.000000 m /equal glyphshow
12.229980 0.000000 m /zero glyphshow
grestore
1.000 0.000 0.000 setrgbcolor
gsave
322.462 312.379 m
322.462 356.083 l
stroke
grestore
gsave
320.662 352.483 m
322.462 356.083 l
324.262 352.483 l
stroke
grestore
gsave
296.834375 301.535375 translate
0.000000 rotate
0.000000 0.000000 m /k glyphshow
5.211914 0.000000 m /equal glyphshow
12.752930 0.000000 m /parenleft glyphshow
16.264160 0.000000 m /one glyphshow
21.990234 0.000000 m /comma glyphshow
24.851074 0.000000 m /zero glyphshow
30.577148 0.000000 m /parenright glyphshow
grestore
gsave
300.428125 291.447875 translate
0.000000 rotate
0.000000 0.000000 m /s glyphshow
4.688965 0.000000 m /equal glyphshow
12.229980 0.000000 m /one glyphshow
17.956055 0.000000 m /slash glyphshow
20.988281 0.000000 m /two glyphshow
grestore
0.000 0.000 1.000 setrgbcolor
gsave
112.126 411.976 m
312.462 411.976 l
319.128 411.976 322.462 408.643 322.462 401.976 c
322.462 364.554 l
stroke
grestore
gsave
324.262 368.154 m
322.462 364.554 l
320.662 368.154 l
stroke
grestore
gsave
58.068750 414.535375 translate
0.000000 rotate
0.000000 0.000000 m /k glyphshow
5.211914 0.000000 m /equal glyphshow
12.752930 0.000000 m /parenleft glyphshow
16.264160 0.000000 m /one glyphshow
21.990234 0.000000 m /slash glyphshow
25.022461 0.000000 m /two glyphshow
30.748535 0.000000 m /comma glyphshow
33.609375 0.000000 m /one glyphshow
39.335449 0.000000 m /slash glyphshow
42.367676 0.000000 m /two glyphshow
48.093750 0.000000 m /parenright glyphshow
grestore
gsave
70.428125 404.447875 translate
0.000000 rotate
0.000000 0.000000 m /s glyphshow
4.688965 0.000000 m /equal glyphshow
12.229980 0.000000 m /one glyphshow
17.956055 0.000000 m /slash glyphshow
20.988281 0.000000 m /two glyphshow
grestore
0.000 setgray
/BitstreamVeraSans-Roman findfont
12.000 scalefont
setfont
gsave
166.913125 433.976000 translate
0.000000 rotate
0.000000 0.000000 m /E glyphshow
7.582031 0.000000 m /n glyphshow
15.187500 0.000000 m /e glyphshow
22.570312 0.000000 m /r glyphshow
27.253906 0.000000 m /g glyphshow
34.871094 0.000000 m /y glyphshow
41.972656 0.000000 m /space glyphshow
45.787109 0.000000 m /s glyphshow
52.039062 0.000000 m /p glyphshow
59.656250 0.000000 m /e glyphshow
67.039062 0.000000 m /c glyphshow
73.636719 0.000000 m /t glyphshow
78.341797 0.000000 m /r glyphshow
83.275391 0.000000 m /u glyphshow
90.880859 0.000000 m /m glyphshow
grestore
1.000 setlinewidth
0 setlinejoin
0 setlinecap
gsave
58.1 52.664 m
222.584 52.664 l
222.584 85.0077 l
58.1 85.0077 l
cl
gsave
1.000 setgray
fill
grestore
stroke
grestore
4.000 setlinewidth
1 setlinejoin
2 setlinecap
1.000 0.000 0.000 setrgbcolor
gsave
65.1 76.914 m
79.1 76.914 l
stroke
grestore
0.000 setgray
/BitstreamVeraSans-Roman findfont
10.000 scalefont
setfont
gsave
90.100000 73.414000 translate
0.000000 rotate
0.000000 0.000000 m /G glyphshow
7.749023 0.000000 m /r glyphshow
11.610352 0.000000 m /o glyphshow
17.728516 0.000000 m /u glyphshow
24.066406 0.000000 m /n glyphshow
30.404297 0.000000 m /d glyphshow
36.751953 0.000000 m /space glyphshow
39.930664 0.000000 m /S glyphshow
46.278320 0.000000 m /t glyphshow
50.199219 0.000000 m /a glyphshow
56.327148 0.000000 m /t glyphshow
60.248047 0.000000 m /e glyphshow
66.400391 0.000000 m /space glyphshow
69.579102 0.000000 m /E glyphshow
75.897461 0.000000 m /n glyphshow
82.235352 0.000000 m /e glyphshow
88.387695 0.000000 m /r glyphshow
92.374023 0.000000 m /g glyphshow
98.721680 0.000000 m /y glyphshow
grestore
2.000 setlinewidth
0.000 0.000 1.000 setrgbcolor
gsave
65.1 62.2421 m
79.1 62.2421 l
stroke
grestore
0.000 setgray
gsave
90.100000 58.742125 translate
0.000000 rotate
0.000000 0.000000 m /F glyphshow
5.001953 0.000000 m /i glyphshow
7.780273 0.000000 m /r glyphshow
11.891602 0.000000 m /s glyphshow
17.101562 0.000000 m /t glyphshow
21.022461 0.000000 m /space glyphshow
24.201172 0.000000 m /E glyphshow
30.519531 0.000000 m /x glyphshow
36.437500 0.000000 m /s glyphshow
41.647461 0.000000 m /i glyphshow
44.425781 0.000000 m /t glyphshow
48.346680 0.000000 m /e glyphshow
54.499023 0.000000 m /d glyphshow
60.846680 0.000000 m /space glyphshow
64.025391 0.000000 m /S glyphshow
70.373047 0.000000 m /t glyphshow
74.293945 0.000000 m /a glyphshow
80.421875 0.000000 m /t glyphshow
84.342773 0.000000 m /e glyphshow
90.495117 0.000000 m /space glyphshow
93.673828 0.000000 m /E glyphshow
99.992188 0.000000 m /n glyphshow
106.330078 0.000000 m /e glyphshow
112.482422 0.000000 m /r glyphshow
116.468750 0.000000 m /g glyphshow
122.816406 0.000000 m /y glyphshow
grestore

end
showpage
