%!PS-Adobe-3.0 EPSF-3.0
%%Title: ../../../LocalData/Figures/lattice_null1.eps
%%Creator: matplotlib version 1.4.3, http://matplotlib.org/
%%CreationDate: Sat Apr 23 16:48:59 2016
%%Orientation: portrait
%%BoundingBox: 93 183 518 608
%%EndComments
%%BeginProlog
/mpldict 11 dict def
mpldict begin
/m { moveto } bind def
/l { lineto } bind def
/r { rlineto } bind def
/c { curveto } bind def
/cl { closepath } bind def
/box {
m
1 index 0 r
0 exch r
neg 0 r
cl
} bind def
/clipbox {
box
clip
newpath
} bind def
%!PS-Adobe-3.0 Resource-Font
%%Title: cmmi10
%%Copyright: Copyright (C) 1994, Basil K. Malyshev. All Rights Reserved.012BaKoMa Fonts Collection, Level-B.
%%Creator: Converted from TrueType to type 3 by PPR
25 dict begin
/_d{bind def}bind def
/_m{moveto}_d
/_l{lineto}_d
/_cl{closepath eofill}_d
/_c{curveto}_d
/_sc{7 -1 roll{setcachedevice}{pop pop pop pop pop pop}ifelse}_d
/_e{exec}_d
/FontName /Cmmi10 def
/PaintType 0 def
/FontMatrix[.001 0 0 .001 0 0]def
/FontBBox[-34 -250 1048 750]def
/FontType 3 def
/Encoding [ /pi /comma /period /i /x /y /n ] def
/FontInfo 10 dict dup begin
/FamilyName (cmmi10) def
/FullName (cmmi10) def
/Notice (Copyright (C) 1994, Basil K. Malyshev. All Rights Reserved.012BaKoMa Fonts Collection, Level-B. ) def
/Weight (Regular) def
/Version (1.1/12-Nov-94) def
/ItalicAngle 0.0 def
/isFixedPitch false def
/UnderlinePosition -133 def
/UnderlineThickness 20 def
end readonly def
/CharStrings 7 dict dup begin
/pi{{570 0 24 -10 568 431 _sc
101 17 _m
101 20 102 25 105 33 _c
123 71 141 109 157 147 _c
173 184 187 220 200 256 _c
213 291 225 329 236 369 _c
172 369 _l
147 369 124 361 103 346 _c
82 330 65 311 51 288 _c
49 285 47 284 45 284 _c
33 284 _l
27 284 24 287 24 294 _c
24 295 24 297 26 300 _c
48 336 71 367 96 393 _c
120 418 148 431 180 431 _c
543 431 _l
}_e{549 431 555 428 560 424 _c
565 419 568 413 568 406 _c
568 396 564 387 557 380 _c
550 372 542 369 532 369 _c
405 369 _l
394 317 388 266 387 216 _c
387 152 398 94 421 42 _c
423 38 424 34 424 30 _c
424 22 421 15 417 9 _c
413 3 407 -1 401 -5 _c
394 -8 387 -10 380 -10 _c
362 -10 350 4 344 32 _c
337 60 334 88 334 115 _c
334 153 337 189 344 225 _c
}_e{350 260 361 308 375 369 _c
266 369 _l
213 155 181 38 171 16 _c
161 -1 148 -10 132 -10 _c
124 -10 116 -7 110 -2 _c
104 2 101 9 101 17 _c
_cl}_e}_d
/comma{277 0 84 -193 205 110 _sc
99 -179 _m
99 -176 100 -173 103 -171 _c
127 -147 145 -120 159 -90 _c
172 -60 179 -28 179 4 _c
179 16 _l
168 5 155 0 139 0 _c
123 0 110 5 100 16 _c
89 26 84 39 84 55 _c
84 71 89 84 100 94 _c
110 104 123 110 139 110 _c
163 110 180 99 190 77 _c
200 55 205 30 205 4 _c
205 -32 197 -67 183 -101 _c
168 -134 147 -164 120 -191 _c
117 -192 115 -193 114 -193 _c
110 -193 107 -191 104 -188 _c
100 -185 99 -182 99 -179 _c
_cl}_d
/period{277 0 84 0 194 110 _sc
84 55 _m
84 70 89 83 100 94 _c
111 104 124 110 139 110 _c
148 110 157 107 166 102 _c
174 97 181 90 186 82 _c
191 73 194 64 194 55 _c
194 40 188 27 178 16 _c
167 5 154 0 139 0 _c
124 0 111 5 100 16 _c
89 27 84 40 84 55 _c
_cl}_d
/i{{344 0 27 -10 296 661 _sc
78 72 _m
78 84 80 97 86 111 _c
167 326 _l
175 350 180 370 180 386 _c
180 406 172 416 158 416 _c
132 416 110 402 93 375 _c
75 347 63 317 55 284 _c
53 280 51 278 47 278 _c
35 278 _l
29 278 27 281 27 287 _c
27 290 _l
37 330 54 365 76 396 _c
98 426 126 442 160 442 _c
184 442 204 434 220 418 _c
236 402 245 383 245 359 _c
}_e{245 346 242 333 237 320 _c
156 105 _l
146 83 142 63 142 45 _c
142 25 149 15 165 15 _c
191 15 212 29 230 57 _c
247 85 259 115 267 147 _c
268 151 271 153 275 153 _c
287 153 _l
289 153 291 152 293 150 _c
295 148 296 146 296 144 _c
296 143 295 142 295 141 _c
285 103 269 68 247 37 _c
224 5 196 -10 163 -10 _c
139 -10 119 -2 103 13 _c
86 29 78 48 78 72 _c
}_e{191 606 _m
191 620 196 632 208 644 _c
220 655 233 661 247 661 _c
258 661 267 657 275 650 _c
282 643 286 634 286 624 _c
286 609 280 596 268 585 _c
256 573 243 568 229 568 _c
218 568 209 571 202 579 _c
194 586 191 595 191 606 _c
_cl}_e}_d
/x{{571 0 31 -10 526 442 _sc
78 29 _m
90 19 106 15 128 15 _c
148 15 167 25 183 45 _c
199 65 210 87 216 111 _c
261 288 _l
268 320 272 342 272 354 _c
272 370 267 385 258 397 _c
248 409 235 416 219 416 _c
198 416 178 409 160 396 _c
141 382 125 365 113 345 _c
100 325 91 304 86 284 _c
84 280 82 278 78 278 _c
66 278 _l
60 278 58 281 58 287 _c
58 290 _l
}_e{64 314 75 338 91 362 _c
107 386 126 405 149 420 _c
171 434 195 442 221 442 _c
245 442 267 435 287 422 _c
307 409 321 391 329 369 _c
340 389 354 407 372 421 _c
390 435 409 442 431 442 _c
445 442 460 439 475 434 _c
490 429 502 421 512 411 _c
521 401 526 388 526 372 _c
526 355 520 340 509 328 _c
498 316 484 310 468 310 _c
457 310 448 313 441 320 _c
}_e{433 327 430 336 430 346 _c
430 360 434 372 444 383 _c
454 393 465 400 479 402 _c
467 411 450 416 429 416 _c
407 416 389 406 373 386 _c
357 366 346 344 340 320 _c
296 143 _l
288 116 285 94 285 77 _c
285 60 289 45 299 33 _c
309 21 322 15 338 15 _c
369 15 397 28 421 56 _c
445 84 462 114 470 147 _c
471 151 474 153 478 153 _c
490 153 _l
492 153 494 152 496 150 _c
}_e{498 148 499 146 499 144 _c
499 143 498 142 498 141 _c
488 101 468 66 438 36 _c
408 5 374 -10 336 -10 _c
311 -10 289 -3 269 9 _c
249 21 236 39 228 62 _c
217 42 202 25 184 11 _c
166 -3 146 -10 126 -10 _c
111 -10 96 -7 81 -3 _c
66 1 54 9 45 19 _c
35 29 31 43 31 59 _c
31 75 36 89 47 102 _c
57 114 71 121 88 121 _c
}_e{98 121 107 117 115 111 _c
123 104 127 95 127 85 _c
127 71 122 58 113 48 _c
103 38 92 31 78 29 _c
_cl}_e}_d
/y{{490 0 27 -204 492 442 _sc
84 -142 _m
98 -166 122 -178 157 -178 _c
189 -178 216 -167 239 -145 _c
262 -123 281 -96 295 -65 _c
309 -33 320 -1 328 31 _c
298 3 266 -10 232 -10 _c
205 -10 182 -5 164 3 _c
146 11 131 25 121 43 _c
111 61 106 83 106 109 _c
106 131 109 153 115 176 _c
121 198 129 224 139 252 _c
149 280 159 305 167 326 _c
175 350 180 370 180 386 _c
}_e{180 406 172 416 158 416 _c
132 416 110 402 93 375 _c
75 347 63 317 55 284 _c
53 280 51 278 47 278 _c
35 278 _l
29 278 27 281 27 287 _c
27 290 _l
37 330 54 365 76 396 _c
98 426 126 442 160 442 _c
184 442 204 434 220 418 _c
236 402 245 383 245 359 _c
245 346 242 333 237 320 _c
233 312 226 294 216 267 _c
206 239 198 217 193 199 _c
187 181 183 163 179 146 _c
}_e{175 128 174 111 174 94 _c
174 72 178 53 188 38 _c
197 22 212 15 233 15 _c
274 15 311 40 344 91 _c
420 399 _l
422 407 427 415 435 421 _c
443 427 452 431 462 431 _c
470 431 477 428 483 423 _c
489 418 492 411 492 403 _c
492 399 491 396 491 395 _c
392 -2 _l
383 -36 367 -68 344 -100 _c
320 -131 292 -156 259 -175 _c
225 -194 191 -204 156 -204 _c
138 -204 121 -200 104 -194 _c
}_e{87 -187 73 -177 63 -164 _c
53 -150 48 -135 48 -117 _c
48 -99 53 -83 64 -70 _c
74 -56 89 -50 107 -50 _c
117 -50 126 -53 134 -60 _c
141 -66 145 -75 145 -86 _c
145 -101 139 -114 128 -126 _c
116 -137 103 -143 88 -143 _c
87 -143 86 -142 86 -142 _c
85 -142 84 -142 84 -142 _c
_cl}_e}_d
/n{{600 0 27 -10 574 442 _sc
77 17 _m
77 21 77 24 78 26 _c
153 324 _l
157 342 160 359 160 373 _c
160 401 150 416 131 416 _c
110 416 94 403 84 378 _c
74 353 64 322 55 284 _c
55 282 54 280 52 279 _c
50 278 48 278 47 278 _c
35 278 _l
33 278 31 279 29 281 _c
27 283 27 286 27 288 _c
34 317 41 342 48 362 _c
54 382 65 400 79 417 _c
}_e{93 433 110 442 132 442 _c
156 442 178 434 198 418 _c
217 402 227 382 227 358 _c
247 384 270 404 297 419 _c
323 434 352 442 382 442 _c
405 442 425 437 443 429 _c
460 421 473 408 483 392 _c
493 376 498 356 498 334 _c
498 306 491 273 479 235 _c
467 196 452 153 434 105 _c
424 83 420 63 420 45 _c
420 25 427 15 443 15 _c
469 15 490 29 508 57 _c
}_e{525 85 537 115 545 147 _c
546 151 549 153 553 153 _c
565 153 _l
567 153 569 152 571 150 _c
573 148 574 146 574 144 _c
574 143 573 142 573 141 _c
564 103 548 68 526 37 _c
503 5 475 -10 441 -10 _c
417 -10 397 -2 381 13 _c
364 29 356 48 356 72 _c
356 84 358 97 364 111 _c
372 133 381 159 392 189 _c
403 219 412 247 419 275 _c
426 303 430 327 430 349 _c
}_e{430 367 426 383 418 396 _c
410 409 398 416 380 416 _c
355 416 332 410 312 400 _c
292 389 274 375 259 357 _c
243 339 229 318 217 294 _c
149 22 _l
147 12 142 5 134 -1 _c
126 -7 117 -10 107 -10 _c
99 -10 92 -7 86 -3 _c
80 1 77 8 77 17 _c
_cl}_e}_d
end readonly def

/BuildGlyph
 {exch begin
 CharStrings exch
 2 copy known not{pop /.notdef}if
 true 3 1 roll get exec
 end}_d

/BuildChar {
 1 index /Encoding get exch get
 1 index /BuildGlyph get exec
}_d

FontName currentdict end definefont pop
%!PS-Adobe-3.0 Resource-Font
%%Title: cmsy10
%%Copyright: Copyright (C) 1994, Basil K. Malyshev. All Rights Reserved.012BaKoMa Fonts Collection, Level-B.
%%Creator: Converted from TrueType to type 3 by PPR
25 dict begin
/_d{bind def}bind def
/_m{moveto}_d
/_l{lineto}_d
/_cl{closepath eofill}_d
/_c{curveto}_d
/_sc{7 -1 roll{setcachedevice}{pop pop pop pop pop pop}ifelse}_d
/_e{exec}_d
/FontName /Cmsy10 def
/PaintType 0 def
/FontMatrix[.001 0 0 .001 0 0]def
/FontBBox[-29 -960 1123 779]def
/FontType 3 def
/Encoding [ /periodcentered ] def
/FontInfo 10 dict dup begin
/FamilyName (cmsy10) def
/FullName (cmsy10) def
/Notice (Copyright (C) 1994, Basil K. Malyshev. All Rights Reserved.012BaKoMa Fonts Collection, Level-B. ) def
/Weight (Regular) def
/Version (1.1/12-Nov-94) def
/ItalicAngle 0.0 def
/isFixedPitch false def
/UnderlinePosition -133 def
/UnderlineThickness 20 def
end readonly def
/CharStrings 1 dict dup begin
/periodcentered{277 0 84 195 194 305 _sc
84 250 _m
84 259 86 268 91 277 _c
96 285 103 292 112 297 _c
120 302 129 305 139 305 _c
148 305 157 302 166 297 _c
174 292 181 285 186 277 _c
191 268 194 259 194 250 _c
194 235 188 222 178 211 _c
167 200 154 195 139 195 _c
124 195 111 200 100 211 _c
89 222 84 235 84 250 _c
_cl}_d
end readonly def

/BuildGlyph
 {exch begin
 CharStrings exch
 2 copy known not{pop /.notdef}if
 true 3 1 roll get exec
 end}_d

/BuildChar {
 1 index /Encoding get exch get
 1 index /BuildGlyph get exec
}_d

FontName currentdict end definefont pop
%!PS-Adobe-3.0 Resource-Font
%%Title: Bitstream Vera Sans
%%Copyright: Copyright (c) 2003 by Bitstream, Inc. All Rights Reserved.
%%Creator: Converted from TrueType to type 3 by PPR
25 dict begin
/_d{bind def}bind def
/_m{moveto}_d
/_l{lineto}_d
/_cl{closepath eofill}_d
/_c{curveto}_d
/_sc{7 -1 roll{setcachedevice}{pop pop pop pop pop pop}ifelse}_d
/_e{exec}_d
/FontName /BitstreamVeraSans-Roman def
/PaintType 0 def
/FontMatrix[.001 0 0 .001 0 0]def
/FontBBox[-183 -236 1287 928]def
/FontType 3 def
/Encoding [ /zero /one /two /three /X /Y ] def
/FontInfo 10 dict dup begin
/FamilyName (Bitstream Vera Sans) def
/FullName (Bitstream Vera Sans) def
/Notice (Copyright (c) 2003 by Bitstream, Inc. All Rights Reserved. Bitstream Vera is a trademark of Bitstream, Inc.) def
/Weight (Roman) def
/Version (Release 1.10) def
/ItalicAngle 0.0 def
/isFixedPitch false def
/UnderlinePosition -213 def
/UnderlineThickness 143 def
end readonly def
/CharStrings 6 dict dup begin
/zero{636 0 66 -13 570 742 _sc
318 664 _m
267 664 229 639 203 589 _c
177 539 165 464 165 364 _c
165 264 177 189 203 139 _c
229 89 267 64 318 64 _c
369 64 407 89 433 139 _c
458 189 471 264 471 364 _c
471 464 458 539 433 589 _c
407 639 369 664 318 664 _c
318 742 _m
399 742 461 709 505 645 _c
548 580 570 486 570 364 _c
570 241 548 147 505 83 _c
461 19 399 -13 318 -13 _c
236 -13 173 19 130 83 _c
87 147 66 241 66 364 _c
66 486 87 580 130 645 _c
173 709 236 742 318 742 _c
_cl}_d
/one{636 0 110 0 544 729 _sc
124 83 _m
285 83 _l
285 639 _l
110 604 _l
110 694 _l
284 729 _l
383 729 _l
383 83 _l
544 83 _l
544 0 _l
124 0 _l
124 83 _l
_cl}_d
/two{{636 0 73 0 536 742 _sc
192 83 _m
536 83 _l
536 0 _l
73 0 _l
73 83 _l
110 121 161 173 226 239 _c
290 304 331 346 348 365 _c
380 400 402 430 414 455 _c
426 479 433 504 433 528 _c
433 566 419 598 392 622 _c
365 646 330 659 286 659 _c
255 659 222 653 188 643 _c
154 632 117 616 78 594 _c
78 694 _l
118 710 155 722 189 730 _c
223 738 255 742 284 742 _c
}_e{359 742 419 723 464 685 _c
509 647 532 597 532 534 _c
532 504 526 475 515 449 _c
504 422 484 390 454 354 _c
446 344 420 317 376 272 _c
332 227 271 164 192 83 _c
_cl}_e}_d
/three{{636 0 76 -13 556 742 _sc
406 393 _m
453 383 490 362 516 330 _c
542 298 556 258 556 212 _c
556 140 531 84 482 45 _c
432 6 362 -13 271 -13 _c
240 -13 208 -10 176 -4 _c
144 1 110 10 76 22 _c
76 117 _l
103 101 133 89 166 81 _c
198 73 232 69 268 69 _c
330 69 377 81 409 105 _c
441 129 458 165 458 212 _c
458 254 443 288 413 312 _c
383 336 341 349 287 349 _c
}_e{202 349 _l
202 430 _l
291 430 _l
339 430 376 439 402 459 _c
428 478 441 506 441 543 _c
441 580 427 609 401 629 _c
374 649 336 659 287 659 _c
260 659 231 656 200 650 _c
169 644 135 635 98 623 _c
98 711 _l
135 721 170 729 203 734 _c
235 739 266 742 296 742 _c
370 742 429 725 473 691 _c
517 657 539 611 539 553 _c
539 513 527 479 504 451 _c
481 423 448 403 406 393 _c
_cl}_e}_d
/X{685 0 30 0 654 729 _sc
63 729 _m
169 729 _l
350 458 _l
532 729 _l
638 729 _l
404 379 _l
654 0 _l
548 0 _l
343 310 _l
136 0 _l
30 0 _l
290 389 _l
63 729 _l
_cl}_d
/Y{611 0 -1 0 613 729 _sc
-1 729 _m
104 729 _l
306 429 _l
507 729 _l
613 729 _l
355 347 _l
355 0 _l
256 0 _l
256 347 _l
-1 729 _l
_cl}_d
end readonly def

/BuildGlyph
 {exch begin
 CharStrings exch
 2 copy known not{pop /.notdef}if
 true 3 1 roll get exec
 end}_d

/BuildChar {
 1 index /Encoding get exch get
 1 index /BuildGlyph get exec
}_d

FontName currentdict end definefont pop
%!PS-Adobe-3.0 Resource-Font
%%Title: cmr10
%%Copyright: Copyright (C) 1994, Basil K. Malyshev. All Rights Reserved.012BaKoMa Fonts Collection, Level-B.
%%Creator: Converted from TrueType to type 3 by PPR
25 dict begin
/_d{bind def}bind def
/_m{moveto}_d
/_l{lineto}_d
/_cl{closepath eofill}_d
/_c{curveto}_d
/_sc{7 -1 roll{setcachedevice}{pop pop pop pop pop pop}ifelse}_d
/_e{exec}_d
/FontName /Cmr10 def
/PaintType 0 def
/FontMatrix[.001 0 0 .001 0 0]def
/FontBBox[-44 -250 1009 750]def
/FontType 3 def
/Encoding [ /nine /zero /two /four /parenright /six /one /three /parenleft /five ] def
/FontInfo 10 dict dup begin
/FamilyName (cmr10) def
/FullName (cmr10) def
/Notice (Copyright (C) 1994, Basil K. Malyshev. All Rights Reserved.012BaKoMa Fonts Collection, Level-B. ) def
/Weight (Regular) def
/Version (1.1/12-Nov-94) def
/ItalicAngle 0.0 def
/isFixedPitch false def
/UnderlinePosition -133 def
/UnderlineThickness 20 def
end readonly def
/CharStrings 10 dict dup begin
/nine{{500 0 42 -21 457 666 _sc
113 42 _m
131 20 162 10 208 10 _c
233 10 257 18 279 36 _c
301 53 318 74 330 99 _c
344 127 353 158 357 190 _c
361 222 363 261 363 309 _c
351 282 335 260 314 243 _c
292 225 268 217 240 217 _c
201 217 166 227 136 248 _c
106 269 82 297 66 331 _c
50 365 42 402 42 441 _c
42 481 51 518 69 553 _c
87 587 113 615 145 635 _c
}_e{177 655 213 666 255 666 _c
295 666 328 655 356 633 _c
383 611 404 582 418 548 _c
432 513 442 476 448 438 _c
454 399 457 361 457 323 _c
457 271 447 219 428 165 _c
409 111 381 67 344 32 _c
306 -3 261 -21 208 -21 _c
168 -21 135 -12 108 6 _c
80 24 67 52 67 90 _c
67 103 71 114 81 124 _c
90 133 101 138 115 138 _c
128 138 139 133 149 124 _c
}_e{158 114 163 103 163 90 _c
163 76 158 65 149 56 _c
139 46 128 42 115 42 _c
113 42 _l
244 243 _m
271 243 293 252 311 270 _c
328 288 341 311 349 339 _c
357 366 361 393 361 421 _c
361 440 _l
361 444 _l
361 494 353 538 339 578 _c
324 617 296 637 255 637 _c
228 637 206 631 190 620 _c
174 608 162 593 154 574 _c
146 554 141 534 139 512 _c
137 490 136 466 136 441 _c
}_e{136 403 137 370 141 344 _c
145 317 155 293 171 273 _c
187 253 211 243 244 243 _c
_cl}_e}_d
/zero{{500 0 39 -21 460 666 _sc
250 -21 _m
168 -21 112 12 83 79 _c
53 146 39 226 39 319 _c
39 377 44 431 55 482 _c
65 533 86 576 118 612 _c
149 648 193 666 250 666 _c
294 666 330 655 358 634 _c
386 612 407 585 422 551 _c
436 517 446 480 452 441 _c
457 402 460 361 460 319 _c
460 261 454 208 444 158 _c
433 108 412 65 381 31 _c
350 -3 306 -21 250 -21 _c
250 4 _m
}_e{287 4 315 23 333 61 _c
351 99 362 141 366 187 _c
370 233 373 283 373 335 _c
373 385 370 431 366 473 _c
362 515 351 554 333 588 _c
315 622 287 640 250 640 _c
212 640 184 622 166 588 _c
148 554 136 515 132 473 _c
128 431 126 385 126 335 _c
126 297 126 262 128 230 _c
130 197 135 163 143 128 _c
151 93 163 64 181 40 _c
198 16 221 4 250 4 _c
_cl}_e}_d
/two{{500 0 50 0 449 666 _sc
50 0 _m
50 27 _l
50 28 50 30 52 32 _c
207 204 _l
230 229 249 250 264 268 _c
278 285 293 305 307 327 _c
321 349 333 372 341 396 _c
349 419 354 444 354 470 _c
354 497 349 523 339 548 _c
329 573 314 593 294 608 _c
274 623 249 631 221 631 _c
192 631 166 622 143 605 _c
119 587 103 565 94 537 _c
96 537 100 538 105 538 _c
}_e{119 538 132 533 143 523 _c
153 513 159 500 159 484 _c
159 468 153 455 143 445 _c
132 434 119 429 105 429 _c
89 429 76 434 66 445 _c
55 456 50 469 50 484 _c
50 508 54 532 64 554 _c
73 576 86 595 104 613 _c
122 630 142 643 164 652 _c
186 661 210 666 236 666 _c
274 666 309 658 342 642 _c
375 626 401 603 420 573 _c
439 543 449 509 449 470 _c
}_e{449 441 442 414 430 388 _c
417 362 401 338 381 317 _c
361 295 336 271 305 244 _c
274 217 254 199 244 190 _c
131 81 _l
227 81 _l
274 81 313 81 345 82 _c
377 82 394 84 396 86 _c
404 94 412 125 420 178 _c
449 178 _l
421 0 _l
50 0 _l
_cl}_e}_d
/four{{500 0 28 0 471 666 _sc
28 165 _m
28 200 _l
337 661 _l
339 664 342 666 347 666 _c
362 666 _l
369 666 373 662 373 655 _c
373 200 _l
471 200 _l
471 165 _l
373 165 _l
373 67 _l
373 53 382 44 402 40 _c
422 36 444 35 470 35 _c
470 0 _l
195 0 _l
195 35 _l
220 35 242 36 262 40 _c
282 44 292 53 292 67 _c
292 165 _l
28 165 _l
61 200 _m
298 200 _l
}_e{298 554 _l
61 200 _l
_cl}_e}_d
/parenright{{388 0 56 -249 291 750 _sc
65 -249 _m
59 -249 56 -246 56 -240 _c
56 -237 56 -235 58 -234 _c
172 -122 229 38 229 250 _c
229 462 172 623 60 733 _c
57 734 56 737 56 741 _c
56 743 57 745 59 747 _c
61 749 63 750 65 750 _c
74 750 _l
76 750 77 749 79 748 _c
127 710 167 664 199 610 _c
231 556 254 498 269 437 _c
283 376 291 314 291 250 _c
291 202 287 156 279 110 _c
}_e{271 64 258 20 241 -24 _c
223 -68 201 -108 175 -146 _c
148 -184 116 -217 79 -247 _c
77 -248 76 -249 74 -249 _c
65 -249 _l
_cl}_e}_d
/six{{500 0 42 -21 457 666 _sc
250 -21 _m
208 -21 174 -10 146 11 _c
118 33 97 61 82 96 _c
67 131 57 168 51 206 _c
45 244 42 283 42 323 _c
42 375 52 428 73 482 _c
93 535 123 579 163 614 _c
203 648 250 666 305 666 _c
327 666 348 661 368 653 _c
388 644 403 631 415 615 _c
426 598 432 578 432 554 _c
432 540 427 529 418 520 _c
408 510 397 506 384 506 _c
}_e{370 506 359 510 350 520 _c
340 529 336 540 336 554 _c
336 567 340 578 350 588 _c
359 597 370 602 384 602 _c
389 602 _l
380 614 368 622 353 628 _c
337 634 321 637 305 637 _c
285 637 266 632 249 624 _c
232 615 217 603 203 588 _c
189 573 178 557 169 539 _c
159 521 152 500 147 477 _c
142 453 139 432 138 412 _c
136 392 136 366 136 336 _c
148 363 164 385 186 403 _c
}_e{207 420 231 429 259 429 _c
288 429 315 423 339 411 _c
363 399 384 382 402 361 _c
420 339 433 315 443 288 _c
452 260 457 233 457 205 _c
457 165 448 128 431 93 _c
413 58 389 30 357 10 _c
325 -10 290 -21 250 -21 _c
250 10 _m
276 10 296 15 312 27 _c
327 39 338 54 346 74 _c
353 93 358 112 360 132 _c
362 152 363 176 363 205 _c
363 243 361 275 357 302 _c
}_e{353 328 344 352 328 372 _c
312 392 287 403 255 403 _c
227 403 205 393 188 375 _c
170 357 158 334 150 306 _c
142 278 138 252 138 226 _c
138 217 138 210 139 206 _c
139 205 139 204 139 204 _c
139 203 138 202 138 201 _c
138 172 141 143 147 114 _c
153 84 164 60 181 40 _c
197 20 220 10 250 10 _c
_cl}_e}_d
/one{500 0 87 0 421 666 _sc
93 0 _m
93 35 _l
176 35 218 45 218 67 _c
218 592 _l
183 575 139 567 87 567 _c
87 602 _l
168 602 230 623 272 666 _c
286 666 _l
288 666 291 665 293 663 _c
295 661 296 659 296 657 _c
296 67 _l
296 45 337 35 421 35 _c
421 0 _l
93 0 _l
_cl}_d
/three{{500 0 42 -21 457 666 _sc
95 77 _m
111 54 132 37 158 26 _c
184 15 213 10 243 10 _c
281 10 309 26 325 59 _c
341 92 350 130 350 172 _c
350 190 348 209 345 228 _c
341 247 335 265 327 281 _c
319 297 308 310 294 320 _c
280 330 262 335 242 335 _c
176 335 _l
170 335 167 338 167 344 _c
167 353 _l
167 358 170 361 176 361 _c
231 365 _l
254 365 273 373 289 391 _c
}_e{305 409 316 430 323 456 _c
330 481 334 505 334 528 _c
334 560 326 586 311 606 _c
296 626 273 637 243 637 _c
217 637 193 632 170 622 _c
147 612 129 598 115 579 _c
116 579 117 580 118 580 _c
119 580 120 580 122 580 _c
137 580 150 574 160 564 _c
170 554 175 541 175 527 _c
175 512 170 499 160 489 _c
150 479 137 474 122 474 _c
107 474 94 479 84 489 _c
}_e{74 499 69 512 69 527 _c
69 555 77 580 95 601 _c
112 622 134 638 161 649 _c
188 660 215 666 243 666 _c
263 666 284 663 307 657 _c
329 651 350 642 368 631 _c
386 619 401 605 413 588 _c
424 570 430 550 430 528 _c
430 500 423 474 411 450 _c
399 426 382 406 360 389 _c
338 371 314 358 288 350 _c
317 344 345 333 371 317 _c
397 301 417 280 433 255 _c
}_e{449 229 457 202 457 173 _c
457 136 446 103 426 73 _c
406 43 379 19 347 3 _c
314 -13 279 -21 243 -21 _c
211 -21 180 -15 149 -3 _c
117 8 92 25 72 49 _c
52 73 42 101 42 135 _c
42 151 47 165 58 176 _c
69 187 83 193 100 193 _c
110 193 120 190 129 185 _c
138 180 145 173 150 164 _c
155 154 158 145 158 135 _c
158 118 152 104 141 93 _c
}_e{129 82 116 77 100 77 _c
95 77 _l
_cl}_e}_d
/parenleft{{388 0 97 -249 332 750 _sc
310 -247 _m
272 -217 240 -184 214 -146 _c
187 -108 165 -67 148 -25 _c
131 17 118 62 110 109 _c
101 155 97 202 97 250 _c
97 298 101 345 110 392 _c
118 438 131 483 149 527 _c
166 570 188 611 215 649 _c
242 687 274 720 310 748 _c
310 749 311 750 315 750 _c
324 750 _l
326 750 327 749 329 747 _c
331 745 332 743 332 741 _c
332 738 331 736 330 735 _c
}_e{297 703 270 668 248 632 _c
226 596 209 557 196 516 _c
183 474 174 432 168 388 _c
162 344 159 298 159 250 _c
159 38 215 -122 329 -232 _c
331 -234 332 -236 332 -240 _c
332 -242 331 -244 329 -246 _c
327 -248 326 -249 324 -249 _c
315 -249 _l
311 -249 310 -248 310 -247 _c
_cl}_e}_d
/five{{500 0 50 -21 449 666 _sc
87 114 _m
93 94 104 76 118 60 _c
132 44 149 32 169 23 _c
188 14 208 10 229 10 _c
277 10 310 28 328 66 _c
346 103 356 148 356 202 _c
356 225 355 244 355 260 _c
354 276 352 291 348 306 _c
342 329 331 349 315 367 _c
299 385 281 394 259 394 _c
236 394 217 390 201 384 _c
185 377 171 369 161 360 _c
151 350 142 341 134 331 _c
}_e{126 321 122 315 120 315 _c
109 315 _l
107 315 104 316 102 318 _c
100 320 99 322 99 324 _c
99 658 _l
99 660 100 661 102 663 _c
104 665 106 666 109 666 _c
112 666 _l
156 644 204 634 255 634 _c
304 634 352 644 398 666 _c
401 666 _l
403 666 405 665 407 663 _c
409 661 410 660 410 658 _c
410 649 _l
410 645 409 644 408 644 _c
385 614 356 590 322 573 _c
}_e{288 556 252 548 216 548 _c
189 548 162 551 134 559 _c
134 370 _l
156 388 175 400 193 408 _c
210 416 232 420 260 420 _c
296 420 329 409 358 388 _c
387 366 409 339 425 305 _c
441 271 449 236 449 201 _c
449 161 439 124 419 90 _c
399 56 373 29 339 9 _c
305 -11 269 -21 229 -21 _c
196 -21 166 -12 138 4 _c
110 20 89 43 73 72 _c
57 100 50 131 50 163 _c
}_e{50 178 54 190 64 200 _c
74 209 86 214 101 214 _c
115 214 128 209 138 199 _c
148 189 153 177 153 163 _c
153 149 148 137 138 127 _c
128 117 115 112 101 112 _c
99 112 96 112 93 112 _c
90 112 88 113 87 114 _c
_cl}_e}_d
end readonly def

/BuildGlyph
 {exch begin
 CharStrings exch
 2 copy known not{pop /.notdef}if
 true 3 1 roll get exec
 end}_d

/BuildChar {
 1 index /Encoding get exch get
 1 index /BuildGlyph get exec
}_d

FontName currentdict end definefont pop
end
%%EndProlog
mpldict begin
93.6 183.6 translate
424.8 424.8 0 0 clipbox
gsave
0 0 m
424.8 0 l
424.8 424.8 l
0 424.8 l
cl
1.000 setgray
fill
grestore
gsave
53.1 42.48 m
382.32 42.48 l
382.32 382.32 l
53.1 382.32 l
cl
1.000 setgray
fill
grestore
4.000 setlinewidth
1 setlinejoin
0 setlinecap
[6 6] 0 setdash
0.800 setgray
gsave
329.2 339.8 53.1 42.48 clipbox
71.39 23.6 m
71.39 401.2 l
stroke
grestore
gsave
329.2 339.8 53.1 42.48 clipbox
364.03 23.6 m
364.03 401.2 l
stroke
grestore
gsave
329.2 339.8 53.1 42.48 clipbox
34.81 61.36 m
400.61 61.36 l
stroke
grestore
gsave
329.2 339.8 53.1 42.48 clipbox
34.81 363.44 m
400.61 363.44 l
stroke
grestore
1.000 setlinewidth
2 setlinecap
[] 0 setdash
0.100 setgray
gsave
329.2 339.8 53.1 42.48 clipbox
107.97 23.6 m
107.97 401.2 l
stroke
grestore
gsave
329.2 339.8 53.1 42.48 clipbox
181.13 23.6 m
181.13 401.2 l
stroke
grestore
gsave
329.2 339.8 53.1 42.48 clipbox
254.29 23.6 m
254.29 401.2 l
stroke
grestore
gsave
329.2 339.8 53.1 42.48 clipbox
327.45 23.6 m
327.45 401.2 l
stroke
grestore
gsave
329.2 339.8 53.1 42.48 clipbox
34.81 99.12 m
400.61 99.12 l
stroke
grestore
gsave
329.2 339.8 53.1 42.48 clipbox
34.81 174.64 m
400.61 174.64 l
stroke
grestore
gsave
329.2 339.8 53.1 42.48 clipbox
34.81 250.16 m
400.61 250.16 l
stroke
grestore
gsave
329.2 339.8 53.1 42.48 clipbox
34.81 325.68 m
400.61 325.68 l
stroke
grestore
/p0_0 {
newpath
translate
0 -5 m
1.32602 -5 2.5979 -4.47317 3.53553 -3.53553 c
4.47317 -2.5979 5 -1.32602 5 0 c
5 1.32602 4.47317 2.5979 3.53553 3.53553 c
2.5979 4.47317 1.32602 5 0 5 c
-1.32602 5 -2.5979 4.47317 -3.53553 3.53553 c
-4.47317 2.5979 -5 1.32602 -5 0 c
-5 -1.32602 -4.47317 -2.5979 -3.53553 -3.53553 c
-2.5979 -4.47317 -1.32602 -5 0 -5 c
cl
} bind def
0 setlinecap
0.000 setgray
gsave
329.2 339.8 53.1 42.48 clipbox
107.97 99.12 p0_0
gsave
1.000 0.000 0.000 setrgbcolor
fill
grestore
stroke
grestore
gsave
329.2 339.8 53.1 42.48 clipbox
181.13 99.12 p0_0
gsave
1.000 0.000 0.000 setrgbcolor
fill
grestore
stroke
grestore
gsave
329.2 339.8 53.1 42.48 clipbox
254.29 99.12 p0_0
gsave
1.000 0.000 0.000 setrgbcolor
fill
grestore
stroke
grestore
gsave
329.2 339.8 53.1 42.48 clipbox
327.45 99.12 p0_0
gsave
1.000 0.000 0.000 setrgbcolor
fill
grestore
stroke
grestore
gsave
329.2 339.8 53.1 42.48 clipbox
107.97 174.64 p0_0
gsave
1.000 0.000 0.000 setrgbcolor
fill
grestore
stroke
grestore
gsave
329.2 339.8 53.1 42.48 clipbox
181.13 174.64 p0_0
gsave
1.000 0.000 0.000 setrgbcolor
fill
grestore
stroke
grestore
gsave
329.2 339.8 53.1 42.48 clipbox
254.29 174.64 p0_0
gsave
1.000 0.000 0.000 setrgbcolor
fill
grestore
stroke
grestore
gsave
329.2 339.8 53.1 42.48 clipbox
327.45 174.64 p0_0
gsave
1.000 0.000 0.000 setrgbcolor
fill
grestore
stroke
grestore
gsave
329.2 339.8 53.1 42.48 clipbox
107.97 250.16 p0_0
gsave
1.000 0.000 0.000 setrgbcolor
fill
grestore
stroke
grestore
gsave
329.2 339.8 53.1 42.48 clipbox
181.13 250.16 p0_0
gsave
1.000 0.000 0.000 setrgbcolor
fill
grestore
stroke
grestore
gsave
329.2 339.8 53.1 42.48 clipbox
254.29 250.16 p0_0
gsave
1.000 0.000 0.000 setrgbcolor
fill
grestore
stroke
grestore
gsave
329.2 339.8 53.1 42.48 clipbox
327.45 250.16 p0_0
gsave
1.000 0.000 0.000 setrgbcolor
fill
grestore
stroke
grestore
gsave
329.2 339.8 53.1 42.48 clipbox
107.97 325.68 p0_0
gsave
1.000 0.000 0.000 setrgbcolor
fill
grestore
stroke
grestore
gsave
329.2 339.8 53.1 42.48 clipbox
181.13 325.68 p0_0
gsave
1.000 0.000 0.000 setrgbcolor
fill
grestore
stroke
grestore
gsave
329.2 339.8 53.1 42.48 clipbox
254.29 325.68 p0_0
gsave
1.000 0.000 0.000 setrgbcolor
fill
grestore
stroke
grestore
gsave
329.2 339.8 53.1 42.48 clipbox
327.45 325.68 p0_0
gsave
1.000 0.000 0.000 setrgbcolor
fill
grestore
stroke
grestore
gsave
329.2 339.8 53.1 42.48 clipbox
141.121 99.8059 m
141.806 99.8059 l
141.121 104.607 l
147.979 99.12 l
141.121 93.633 l
141.806 98.4341 l
141.121 98.4341 l
141.121 99.8059 l
0.000 0.000 0.400 setrgbcolor
fill
grestore
gsave
329.2 339.8 53.1 42.48 clipbox
214.281 99.8059 m
214.966 99.8059 l
214.281 104.607 l
221.139 99.12 l
214.281 93.633 l
214.966 98.4341 l
214.281 98.4341 l
214.281 99.8059 l
0.000 0.000 0.400 setrgbcolor
fill
grestore
gsave
329.2 339.8 53.1 42.48 clipbox
287.441 99.8059 m
288.126 99.8059 l
287.441 104.607 l
294.299 99.12 l
287.441 93.633 l
288.126 98.4341 l
287.441 98.4341 l
287.441 99.8059 l
0.000 0.000 0.400 setrgbcolor
fill
grestore
gsave
329.2 339.8 53.1 42.48 clipbox
378.891 98.0048 m
359.207 98.0048 l
360.322 90.1981 l
349.169 99.12 l
360.322 108.042 l
359.207 100.235 l
378.891 100.235 l
378.891 98.0048 l
0.000 0.000 0.400 setrgbcolor
fill
grestore
gsave
329.2 339.8 53.1 42.48 clipbox
141.121 175.326 m
141.806 175.326 l
141.121 180.127 l
147.979 174.64 l
141.121 169.153 l
141.806 173.954 l
141.121 173.954 l
141.121 175.326 l
0.000 0.000 0.400 setrgbcolor
fill
grestore
gsave
329.2 339.8 53.1 42.48 clipbox
214.281 175.326 m
214.966 175.326 l
214.281 180.127 l
221.139 174.64 l
214.281 169.153 l
214.966 173.954 l
214.281 173.954 l
214.281 175.326 l
0.000 0.000 0.400 setrgbcolor
fill
grestore
gsave
329.2 339.8 53.1 42.48 clipbox
287.441 175.326 m
288.126 175.326 l
287.441 180.127 l
294.299 174.64 l
287.441 169.153 l
288.126 173.954 l
287.441 173.954 l
287.441 175.326 l
0.000 0.000 0.400 setrgbcolor
fill
grestore
gsave
329.2 339.8 53.1 42.48 clipbox
351.456 175.755 m
366.567 175.755 l
365.452 183.562 l
376.604 174.64 l
365.452 165.718 l
366.567 173.525 l
351.456 173.525 l
351.456 175.755 l
0.000 0.000 0.400 setrgbcolor
fill
grestore
gsave
329.2 339.8 53.1 42.48 clipbox
141.121 250.846 m
141.806 250.846 l
141.121 255.647 l
147.979 250.16 l
141.121 244.673 l
141.806 249.474 l
141.121 249.474 l
141.121 250.846 l
0.000 0.000 0.400 setrgbcolor
fill
grestore
gsave
329.2 339.8 53.1 42.48 clipbox
214.281 250.846 m
214.966 250.846 l
214.281 255.647 l
221.139 250.16 l
214.281 244.673 l
214.966 249.474 l
214.281 249.474 l
214.281 250.846 l
0.000 0.000 0.400 setrgbcolor
fill
grestore
gsave
329.2 339.8 53.1 42.48 clipbox
287.441 250.846 m
288.126 250.846 l
287.441 255.647 l
294.299 250.16 l
287.441 244.673 l
288.126 249.474 l
287.441 249.474 l
287.441 250.846 l
0.000 0.000 0.400 setrgbcolor
fill
grestore
gsave
329.2 339.8 53.1 42.48 clipbox
360.601 250.846 m
361.286 250.846 l
360.601 255.647 l
367.459 250.16 l
360.601 244.673 l
361.286 249.474 l
360.601 249.474 l
360.601 250.846 l
0.000 0.000 0.400 setrgbcolor
fill
grestore
gsave
329.2 339.8 53.1 42.48 clipbox
141.121 326.366 m
141.806 326.366 l
141.121 331.167 l
147.979 325.68 l
141.121 320.193 l
141.806 324.994 l
141.121 324.994 l
141.121 326.366 l
0.000 0.000 0.400 setrgbcolor
fill
grestore
gsave
329.2 339.8 53.1 42.48 clipbox
214.281 326.366 m
214.966 326.366 l
214.281 331.167 l
221.139 325.68 l
214.281 320.193 l
214.966 324.994 l
214.281 324.994 l
214.281 326.366 l
0.000 0.000 0.400 setrgbcolor
fill
grestore
gsave
329.2 339.8 53.1 42.48 clipbox
287.441 326.366 m
288.126 326.366 l
287.441 331.167 l
294.299 325.68 l
287.441 320.193 l
288.126 324.994 l
287.441 324.994 l
287.441 326.366 l
0.000 0.000 0.400 setrgbcolor
fill
grestore
gsave
329.2 339.8 53.1 42.48 clipbox
369.746 324.565 m
368.352 324.565 l
369.467 316.758 l
358.314 325.68 l
369.467 334.602 l
368.352 326.795 l
369.746 326.795 l
369.746 324.565 l
0.000 0.000 0.400 setrgbcolor
fill
grestore
gsave
329.2 339.8 53.1 42.48 clipbox
109.085 145.14 m
109.085 138.657 l
116.892 139.772 l
107.97 128.62 l
99.0481 139.772 l
106.855 138.657 l
106.855 145.14 l
109.085 145.14 l
0.000 0.000 0.400 setrgbcolor
fill
grestore
gsave
329.2 339.8 53.1 42.48 clipbox
182.245 142.78 m
182.245 141.017 l
190.052 142.132 l
181.13 130.98 l
172.208 142.132 l
180.015 141.017 l
180.015 142.78 l
182.245 142.78 l
0.000 0.000 0.400 setrgbcolor
fill
grestore
gsave
329.2 339.8 53.1 42.48 clipbox
254.998 140.42 m
254.998 139.712 l
259.954 140.42 l
254.29 133.34 l
248.626 140.42 l
253.582 139.712 l
253.582 140.42 l
254.998 140.42 l
0.000 0.000 0.400 setrgbcolor
fill
grestore
gsave
329.2 339.8 53.1 42.48 clipbox
327.686 138.06 m
327.686 137.824 l
329.338 138.06 l
327.45 135.7 l
325.562 138.06 l
327.214 137.824 l
327.214 138.06 l
327.686 138.06 l
0.000 0.000 0.400 setrgbcolor
fill
grestore
gsave
329.2 339.8 53.1 42.48 clipbox
109.085 220.66 m
109.085 214.177 l
116.892 215.292 l
107.97 204.14 l
99.0481 215.292 l
106.855 214.177 l
106.855 220.66 l
109.085 220.66 l
0.000 0.000 0.400 setrgbcolor
fill
grestore
gsave
329.2 339.8 53.1 42.48 clipbox
182.245 218.3 m
182.245 216.537 l
190.052 217.652 l
181.13 206.5 l
172.208 217.652 l
180.015 216.537 l
180.015 218.3 l
182.245 218.3 l
0.000 0.000 0.400 setrgbcolor
fill
grestore
gsave
329.2 339.8 53.1 42.48 clipbox
254.998 215.94 m
254.998 215.232 l
259.954 215.94 l
254.29 208.86 l
248.626 215.94 l
253.582 215.232 l
253.582 215.94 l
254.998 215.94 l
0.000 0.000 0.400 setrgbcolor
fill
grestore
gsave
329.2 339.8 53.1 42.48 clipbox
327.686 213.58 m
327.686 213.344 l
329.338 213.58 l
327.45 211.22 l
325.562 213.58 l
327.214 213.344 l
327.214 213.58 l
327.686 213.58 l
0.000 0.000 0.400 setrgbcolor
fill
grestore
gsave
329.2 339.8 53.1 42.48 clipbox
109.085 296.18 m
109.085 289.697 l
116.892 290.812 l
107.97 279.66 l
99.0481 290.812 l
106.855 289.697 l
106.855 296.18 l
109.085 296.18 l
0.000 0.000 0.400 setrgbcolor
fill
grestore
gsave
329.2 339.8 53.1 42.48 clipbox
182.245 293.82 m
182.245 292.057 l
190.052 293.172 l
181.13 282.02 l
172.208 293.172 l
180.015 292.057 l
180.015 293.82 l
182.245 293.82 l
0.000 0.000 0.400 setrgbcolor
fill
grestore
gsave
329.2 339.8 53.1 42.48 clipbox
254.998 291.46 m
254.998 290.752 l
259.954 291.46 l
254.29 284.38 l
248.626 291.46 l
253.582 290.752 l
253.582 291.46 l
254.998 291.46 l
0.000 0.000 0.400 setrgbcolor
fill
grestore
gsave
329.2 339.8 53.1 42.48 clipbox
327.686 289.1 m
327.686 288.864 l
329.338 289.1 l
327.45 286.74 l
325.562 289.1 l
327.214 288.864 l
327.214 289.1 l
327.686 289.1 l
0.000 0.000 0.400 setrgbcolor
fill
grestore
gsave
329.2 339.8 53.1 42.48 clipbox
109.085 371.7 m
109.085 365.217 l
116.892 366.332 l
107.97 355.18 l
99.0481 366.332 l
106.855 365.217 l
106.855 371.7 l
109.085 371.7 l
0.000 0.000 0.400 setrgbcolor
fill
grestore
gsave
329.2 339.8 53.1 42.48 clipbox
182.245 369.34 m
182.245 367.577 l
190.052 368.692 l
181.13 357.54 l
172.208 368.692 l
180.015 367.577 l
180.015 369.34 l
182.245 369.34 l
0.000 0.000 0.400 setrgbcolor
fill
grestore
gsave
329.2 339.8 53.1 42.48 clipbox
254.998 366.98 m
254.998 366.272 l
259.954 366.98 l
254.29 359.9 l
248.626 366.98 l
253.582 366.272 l
253.582 366.98 l
254.998 366.98 l
0.000 0.000 0.400 setrgbcolor
fill
grestore
gsave
329.2 339.8 53.1 42.48 clipbox
327.686 364.62 m
327.686 364.384 l
329.338 364.62 l
327.45 362.26 l
325.562 364.62 l
327.214 364.384 l
327.214 364.62 l
327.686 364.62 l
0.000 0.000 0.400 setrgbcolor
fill
grestore
0.500 setlinewidth
1.000 0.000 0.000 setrgbcolor
gsave
329.2 339.8 53.1 42.48 clipbox
/o {
gsave
newpath
translate
0.5 setlinewidth
1 setlinejoin
0 setlinecap
-3 -3 m
3 3 l
-3 3 m
3 -3 l
gsave
1.000 0.000 0.000 setrgbcolor
fill
grestore
stroke
grestore
} bind def
217.71 212.4 o
grestore
2.000 setlinewidth
0.000 0.000 0.300 setrgbcolor
gsave
329.2 339.8 53.1 42.48 clipbox
/o {
gsave
newpath
translate
2.0 setlinewidth
1 setlinejoin
0 setlinecap
-7.5 -7.5 m
7.5 7.5 l
-7.5 7.5 m
7.5 -7.5 l
gsave
0.000 0.000 0.300 setrgbcolor
fill
grestore
stroke
grestore
} bind def
217.71 212.4 o
grestore
1.000 setlinewidth
0 setlinejoin
2 setlinecap
0.000 setgray
gsave
53.1 382.32 m
382.32 382.32 l
stroke
grestore
gsave
382.32 42.48 m
382.32 382.32 l
stroke
grestore
gsave
53.1 42.48 m
382.32 42.48 l
stroke
grestore
gsave
53.1 42.48 m
53.1 382.32 l
stroke
grestore
0.500 setlinewidth
1 setlinejoin
0 setlinecap
gsave
/o {
gsave
newpath
translate
0.5 setlinewidth
1 setlinejoin
0 setlinecap
0 0 m
0 4 l
gsave
0.000 setgray
fill
grestore
stroke
grestore
} bind def
107.97 42.48 o
grestore
gsave
/o {
gsave
newpath
translate
0.5 setlinewidth
1 setlinejoin
0 setlinecap
0 0 m
0 -4 l
gsave
0.000 setgray
fill
grestore
stroke
grestore
} bind def
107.97 382.32 o
grestore
/BitstreamVeraSans-Roman findfont
10.000 scalefont
setfont
gsave
105.446562 30.886250 translate
0.000000 rotate
0.000000 0.000000 m /zero glyphshow
grestore
gsave
/o {
gsave
newpath
translate
0.5 setlinewidth
1 setlinejoin
0 setlinecap
0 0 m
0 4 l
gsave
0.000 setgray
fill
grestore
stroke
grestore
} bind def
181.13 42.48 o
grestore
gsave
/o {
gsave
newpath
translate
0.5 setlinewidth
1 setlinejoin
0 setlinecap
0 0 m
0 -4 l
gsave
0.000 setgray
fill
grestore
stroke
grestore
} bind def
181.13 382.32 o
grestore
gsave
178.958125 30.886250 translate
0.000000 rotate
0.000000 0.000000 m /one glyphshow
grestore
gsave
/o {
gsave
newpath
translate
0.5 setlinewidth
1 setlinejoin
0 setlinecap
0 0 m
0 4 l
gsave
0.000 setgray
fill
grestore
stroke
grestore
} bind def
254.29 42.48 o
grestore
gsave
/o {
gsave
newpath
translate
0.5 setlinewidth
1 setlinejoin
0 setlinecap
0 0 m
0 -4 l
gsave
0.000 setgray
fill
grestore
stroke
grestore
} bind def
254.29 382.32 o
grestore
gsave
251.977500 30.886250 translate
0.000000 rotate
0.000000 0.000000 m /two glyphshow
grestore
gsave
/o {
gsave
newpath
translate
0.5 setlinewidth
1 setlinejoin
0 setlinecap
0 0 m
0 4 l
gsave
0.000 setgray
fill
grestore
stroke
grestore
} bind def
327.45 42.48 o
grestore
gsave
/o {
gsave
newpath
translate
0.5 setlinewidth
1 setlinejoin
0 setlinecap
0 0 m
0 -4 l
gsave
0.000 setgray
fill
grestore
stroke
grestore
} bind def
327.45 382.32 o
grestore
gsave
325.051562 30.886250 translate
0.000000 rotate
0.000000 0.000000 m /three glyphshow
grestore
gsave
214.585000 16.214375 translate
0.000000 rotate
0.000000 0.000000 m /X glyphshow
grestore
gsave
/o {
gsave
newpath
translate
0.5 setlinewidth
1 setlinejoin
0 setlinecap
0 0 m
4 0 l
gsave
0.000 setgray
fill
grestore
stroke
grestore
} bind def
53.1 99.12 o
grestore
gsave
/o {
gsave
newpath
translate
0.5 setlinewidth
1 setlinejoin
0 setlinecap
0 0 m
-4 0 l
gsave
0.000 setgray
fill
grestore
stroke
grestore
} bind def
382.32 99.12 o
grestore
gsave
44.053125 96.362187 translate
0.000000 rotate
0.000000 0.000000 m /zero glyphshow
grestore
gsave
/o {
gsave
newpath
translate
0.5 setlinewidth
1 setlinejoin
0 setlinecap
0 0 m
4 0 l
gsave
0.000 setgray
fill
grestore
stroke
grestore
} bind def
53.1 174.64 o
grestore
gsave
/o {
gsave
newpath
translate
0.5 setlinewidth
1 setlinejoin
0 setlinecap
0 0 m
-4 0 l
gsave
0.000 setgray
fill
grestore
stroke
grestore
} bind def
382.32 174.64 o
grestore
gsave
44.756250 171.882187 translate
0.000000 rotate
0.000000 0.000000 m /one glyphshow
grestore
gsave
/o {
gsave
newpath
translate
0.5 setlinewidth
1 setlinejoin
0 setlinecap
0 0 m
4 0 l
gsave
0.000 setgray
fill
grestore
stroke
grestore
} bind def
53.1 250.16 o
grestore
gsave
/o {
gsave
newpath
translate
0.5 setlinewidth
1 setlinejoin
0 setlinecap
0 0 m
-4 0 l
gsave
0.000 setgray
fill
grestore
stroke
grestore
} bind def
382.32 250.16 o
grestore
gsave
44.475000 247.402187 translate
0.000000 rotate
0.000000 0.000000 m /two glyphshow
grestore
gsave
/o {
gsave
newpath
translate
0.5 setlinewidth
1 setlinejoin
0 setlinecap
0 0 m
4 0 l
gsave
0.000 setgray
fill
grestore
stroke
grestore
} bind def
53.1 325.68 o
grestore
gsave
/o {
gsave
newpath
translate
0.5 setlinewidth
1 setlinejoin
0 setlinecap
0 0 m
-4 0 l
gsave
0.000 setgray
fill
grestore
stroke
grestore
} bind def
382.32 325.68 o
grestore
gsave
44.303125 322.922188 translate
0.000000 rotate
0.000000 0.000000 m /three glyphshow
grestore
gsave
36.975000 209.329688 translate
90.000000 rotate
0.000000 0.000000 m /Y glyphshow
grestore
gsave
125.050000 109.509500 translate
0.000000 rotate
/Cmr10 findfont
10.0 scalefont
setfont
0.000000 0.343750 moveto
/zero glyphshow

/Cmmi10 findfont
10.0 scalefont
setfont
5.000000 0.343750 moveto
/period glyphshow

/Cmr10 findfont
10.0 scalefont
setfont
7.849609 0.343750 moveto
/zero glyphshow

12.849609 0.343750 moveto
/nine glyphshow

17.849609 0.343750 moveto
/four glyphshow

/Cmsy10 findfont
10.0 scalefont
setfont
24.605469 0.343750 moveto
/periodcentered glyphshow

/Cmr10 findfont
10.0 scalefont
setfont
27.455078 0.343750 moveto
/two glyphshow

/Cmmi10 findfont
10.0 scalefont
setfont
32.455078 0.343750 moveto
/pi glyphshow


grestore
gsave
144.550000 98.318875 translate
0.000000 rotate

grestore
gsave
198.210000 109.509500 translate
0.000000 rotate
/Cmr10 findfont
10.0 scalefont
setfont
0.000000 0.343750 moveto
/zero glyphshow

/Cmmi10 findfont
10.0 scalefont
setfont
5.000000 0.343750 moveto
/period glyphshow

/Cmr10 findfont
10.0 scalefont
setfont
7.849609 0.343750 moveto
/zero glyphshow

12.849609 0.343750 moveto
/nine glyphshow

17.849609 0.343750 moveto
/four glyphshow

/Cmsy10 findfont
10.0 scalefont
setfont
24.605469 0.343750 moveto
/periodcentered glyphshow

/Cmr10 findfont
10.0 scalefont
setfont
27.455078 0.343750 moveto
/two glyphshow

/Cmmi10 findfont
10.0 scalefont
setfont
32.455078 0.343750 moveto
/pi glyphshow


grestore
gsave
217.710000 98.318875 translate
0.000000 rotate

grestore
gsave
271.370000 109.509500 translate
0.000000 rotate
/Cmr10 findfont
10.0 scalefont
setfont
0.000000 0.343750 moveto
/zero glyphshow

/Cmmi10 findfont
10.0 scalefont
setfont
5.000000 0.343750 moveto
/period glyphshow

/Cmr10 findfont
10.0 scalefont
setfont
7.849609 0.343750 moveto
/zero glyphshow

12.849609 0.343750 moveto
/nine glyphshow

17.849609 0.343750 moveto
/four glyphshow

/Cmsy10 findfont
10.0 scalefont
setfont
24.605469 0.343750 moveto
/periodcentered glyphshow

/Cmr10 findfont
10.0 scalefont
setfont
27.455078 0.343750 moveto
/two glyphshow

/Cmmi10 findfont
10.0 scalefont
setfont
32.455078 0.343750 moveto
/pi glyphshow


grestore
gsave
290.870000 98.318875 translate
0.000000 rotate

grestore
gsave
344.530000 109.509500 translate
0.000000 rotate
/Cmr10 findfont
10.0 scalefont
setfont
0.000000 0.343750 moveto
/zero glyphshow

/Cmmi10 findfont
10.0 scalefont
setfont
5.000000 0.343750 moveto
/period glyphshow

/Cmr10 findfont
10.0 scalefont
setfont
7.849609 0.343750 moveto
/four glyphshow

12.849609 0.343750 moveto
/zero glyphshow

17.849609 0.343750 moveto
/six glyphshow

/Cmsy10 findfont
10.0 scalefont
setfont
24.605469 0.343750 moveto
/periodcentered glyphshow

/Cmr10 findfont
10.0 scalefont
setfont
27.455078 0.343750 moveto
/two glyphshow

/Cmmi10 findfont
10.0 scalefont
setfont
32.455078 0.343750 moveto
/pi glyphshow


grestore
gsave
364.030000 98.318875 translate
0.000000 rotate

grestore
gsave
125.050000 185.029500 translate
0.000000 rotate
/Cmr10 findfont
10.0 scalefont
setfont
0.000000 0.343750 moveto
/zero glyphshow

/Cmmi10 findfont
10.0 scalefont
setfont
5.000000 0.343750 moveto
/period glyphshow

/Cmr10 findfont
10.0 scalefont
setfont
7.849609 0.343750 moveto
/zero glyphshow

12.849609 0.343750 moveto
/nine glyphshow

17.849609 0.343750 moveto
/four glyphshow

/Cmsy10 findfont
10.0 scalefont
setfont
24.605469 0.343750 moveto
/periodcentered glyphshow

/Cmr10 findfont
10.0 scalefont
setfont
27.455078 0.343750 moveto
/two glyphshow

/Cmmi10 findfont
10.0 scalefont
setfont
32.455078 0.343750 moveto
/pi glyphshow


grestore
gsave
144.550000 173.838875 translate
0.000000 rotate

grestore
gsave
198.210000 185.029500 translate
0.000000 rotate
/Cmr10 findfont
10.0 scalefont
setfont
0.000000 0.343750 moveto
/zero glyphshow

/Cmmi10 findfont
10.0 scalefont
setfont
5.000000 0.343750 moveto
/period glyphshow

/Cmr10 findfont
10.0 scalefont
setfont
7.849609 0.343750 moveto
/zero glyphshow

12.849609 0.343750 moveto
/nine glyphshow

17.849609 0.343750 moveto
/four glyphshow

/Cmsy10 findfont
10.0 scalefont
setfont
24.605469 0.343750 moveto
/periodcentered glyphshow

/Cmr10 findfont
10.0 scalefont
setfont
27.455078 0.343750 moveto
/two glyphshow

/Cmmi10 findfont
10.0 scalefont
setfont
32.455078 0.343750 moveto
/pi glyphshow


grestore
gsave
217.710000 173.838875 translate
0.000000 rotate

grestore
gsave
271.370000 185.029500 translate
0.000000 rotate
/Cmr10 findfont
10.0 scalefont
setfont
0.000000 0.343750 moveto
/zero glyphshow

/Cmmi10 findfont
10.0 scalefont
setfont
5.000000 0.343750 moveto
/period glyphshow

/Cmr10 findfont
10.0 scalefont
setfont
7.849609 0.343750 moveto
/zero glyphshow

12.849609 0.343750 moveto
/nine glyphshow

17.849609 0.343750 moveto
/four glyphshow

/Cmsy10 findfont
10.0 scalefont
setfont
24.605469 0.343750 moveto
/periodcentered glyphshow

/Cmr10 findfont
10.0 scalefont
setfont
27.455078 0.343750 moveto
/two glyphshow

/Cmmi10 findfont
10.0 scalefont
setfont
32.455078 0.343750 moveto
/pi glyphshow


grestore
gsave
290.870000 173.838875 translate
0.000000 rotate

grestore
gsave
344.530000 185.029500 translate
0.000000 rotate
/Cmr10 findfont
10.0 scalefont
setfont
0.000000 0.343750 moveto
/zero glyphshow

/Cmmi10 findfont
10.0 scalefont
setfont
5.000000 0.343750 moveto
/period glyphshow

/Cmr10 findfont
10.0 scalefont
setfont
7.849609 0.343750 moveto
/three glyphshow

12.849609 0.343750 moveto
/four glyphshow

17.849609 0.343750 moveto
/four glyphshow

/Cmsy10 findfont
10.0 scalefont
setfont
24.605469 0.343750 moveto
/periodcentered glyphshow

/Cmr10 findfont
10.0 scalefont
setfont
27.455078 0.343750 moveto
/two glyphshow

/Cmmi10 findfont
10.0 scalefont
setfont
32.455078 0.343750 moveto
/pi glyphshow


grestore
gsave
364.030000 173.838875 translate
0.000000 rotate

grestore
gsave
125.050000 260.549500 translate
0.000000 rotate
/Cmr10 findfont
10.0 scalefont
setfont
0.000000 0.343750 moveto
/zero glyphshow

/Cmmi10 findfont
10.0 scalefont
setfont
5.000000 0.343750 moveto
/period glyphshow

/Cmr10 findfont
10.0 scalefont
setfont
7.849609 0.343750 moveto
/zero glyphshow

12.849609 0.343750 moveto
/nine glyphshow

17.849609 0.343750 moveto
/four glyphshow

/Cmsy10 findfont
10.0 scalefont
setfont
24.605469 0.343750 moveto
/periodcentered glyphshow

/Cmr10 findfont
10.0 scalefont
setfont
27.455078 0.343750 moveto
/two glyphshow

/Cmmi10 findfont
10.0 scalefont
setfont
32.455078 0.343750 moveto
/pi glyphshow


grestore
gsave
144.550000 249.358875 translate
0.000000 rotate

grestore
gsave
198.210000 260.549500 translate
0.000000 rotate
/Cmr10 findfont
10.0 scalefont
setfont
0.000000 0.343750 moveto
/zero glyphshow

/Cmmi10 findfont
10.0 scalefont
setfont
5.000000 0.343750 moveto
/period glyphshow

/Cmr10 findfont
10.0 scalefont
setfont
7.849609 0.343750 moveto
/zero glyphshow

12.849609 0.343750 moveto
/nine glyphshow

17.849609 0.343750 moveto
/four glyphshow

/Cmsy10 findfont
10.0 scalefont
setfont
24.605469 0.343750 moveto
/periodcentered glyphshow

/Cmr10 findfont
10.0 scalefont
setfont
27.455078 0.343750 moveto
/two glyphshow

/Cmmi10 findfont
10.0 scalefont
setfont
32.455078 0.343750 moveto
/pi glyphshow


grestore
gsave
217.710000 249.358875 translate
0.000000 rotate

grestore
gsave
271.370000 260.549500 translate
0.000000 rotate
/Cmr10 findfont
10.0 scalefont
setfont
0.000000 0.343750 moveto
/zero glyphshow

/Cmmi10 findfont
10.0 scalefont
setfont
5.000000 0.343750 moveto
/period glyphshow

/Cmr10 findfont
10.0 scalefont
setfont
7.849609 0.343750 moveto
/zero glyphshow

12.849609 0.343750 moveto
/nine glyphshow

17.849609 0.343750 moveto
/four glyphshow

/Cmsy10 findfont
10.0 scalefont
setfont
24.605469 0.343750 moveto
/periodcentered glyphshow

/Cmr10 findfont
10.0 scalefont
setfont
27.455078 0.343750 moveto
/two glyphshow

/Cmmi10 findfont
10.0 scalefont
setfont
32.455078 0.343750 moveto
/pi glyphshow


grestore
gsave
290.870000 249.358875 translate
0.000000 rotate

grestore
gsave
344.530000 260.549500 translate
0.000000 rotate
/Cmr10 findfont
10.0 scalefont
setfont
0.000000 0.343750 moveto
/zero glyphshow

/Cmmi10 findfont
10.0 scalefont
setfont
5.000000 0.343750 moveto
/period glyphshow

/Cmr10 findfont
10.0 scalefont
setfont
7.849609 0.343750 moveto
/zero glyphshow

12.849609 0.343750 moveto
/nine glyphshow

17.849609 0.343750 moveto
/four glyphshow

/Cmsy10 findfont
10.0 scalefont
setfont
24.605469 0.343750 moveto
/periodcentered glyphshow

/Cmr10 findfont
10.0 scalefont
setfont
27.455078 0.343750 moveto
/two glyphshow

/Cmmi10 findfont
10.0 scalefont
setfont
32.455078 0.343750 moveto
/pi glyphshow


grestore
gsave
364.030000 249.358875 translate
0.000000 rotate

grestore
gsave
125.050000 336.069500 translate
0.000000 rotate
/Cmr10 findfont
10.0 scalefont
setfont
0.000000 0.343750 moveto
/zero glyphshow

/Cmmi10 findfont
10.0 scalefont
setfont
5.000000 0.343750 moveto
/period glyphshow

/Cmr10 findfont
10.0 scalefont
setfont
7.849609 0.343750 moveto
/zero glyphshow

12.849609 0.343750 moveto
/nine glyphshow

17.849609 0.343750 moveto
/four glyphshow

/Cmsy10 findfont
10.0 scalefont
setfont
24.605469 0.343750 moveto
/periodcentered glyphshow

/Cmr10 findfont
10.0 scalefont
setfont
27.455078 0.343750 moveto
/two glyphshow

/Cmmi10 findfont
10.0 scalefont
setfont
32.455078 0.343750 moveto
/pi glyphshow


grestore
gsave
144.550000 324.878875 translate
0.000000 rotate

grestore
gsave
198.210000 336.069500 translate
0.000000 rotate
/Cmr10 findfont
10.0 scalefont
setfont
0.000000 0.343750 moveto
/zero glyphshow

/Cmmi10 findfont
10.0 scalefont
setfont
5.000000 0.343750 moveto
/period glyphshow

/Cmr10 findfont
10.0 scalefont
setfont
7.849609 0.343750 moveto
/zero glyphshow

12.849609 0.343750 moveto
/nine glyphshow

17.849609 0.343750 moveto
/four glyphshow

/Cmsy10 findfont
10.0 scalefont
setfont
24.605469 0.343750 moveto
/periodcentered glyphshow

/Cmr10 findfont
10.0 scalefont
setfont
27.455078 0.343750 moveto
/two glyphshow

/Cmmi10 findfont
10.0 scalefont
setfont
32.455078 0.343750 moveto
/pi glyphshow


grestore
gsave
217.710000 324.878875 translate
0.000000 rotate

grestore
gsave
271.370000 336.069500 translate
0.000000 rotate
/Cmr10 findfont
10.0 scalefont
setfont
0.000000 0.343750 moveto
/zero glyphshow

/Cmmi10 findfont
10.0 scalefont
setfont
5.000000 0.343750 moveto
/period glyphshow

/Cmr10 findfont
10.0 scalefont
setfont
7.849609 0.343750 moveto
/zero glyphshow

12.849609 0.343750 moveto
/nine glyphshow

17.849609 0.343750 moveto
/four glyphshow

/Cmsy10 findfont
10.0 scalefont
setfont
24.605469 0.343750 moveto
/periodcentered glyphshow

/Cmr10 findfont
10.0 scalefont
setfont
27.455078 0.343750 moveto
/two glyphshow

/Cmmi10 findfont
10.0 scalefont
setfont
32.455078 0.343750 moveto
/pi glyphshow


grestore
gsave
290.870000 324.878875 translate
0.000000 rotate

grestore
gsave
344.530000 336.069500 translate
0.000000 rotate
/Cmr10 findfont
10.0 scalefont
setfont
0.000000 0.343750 moveto
/zero glyphshow

/Cmmi10 findfont
10.0 scalefont
setfont
5.000000 0.343750 moveto
/period glyphshow

/Cmr10 findfont
10.0 scalefont
setfont
7.849609 0.343750 moveto
/one glyphshow

12.849609 0.343750 moveto
/five glyphshow

17.849609 0.343750 moveto
/six glyphshow

/Cmsy10 findfont
10.0 scalefont
setfont
24.605469 0.343750 moveto
/periodcentered glyphshow

/Cmr10 findfont
10.0 scalefont
setfont
27.455078 0.343750 moveto
/two glyphshow

/Cmmi10 findfont
10.0 scalefont
setfont
32.455078 0.343750 moveto
/pi glyphshow


grestore
gsave
364.030000 324.878875 translate
0.000000 rotate

grestore
gsave
118.123500 156.380000 translate
270.000000 rotate
/Cmr10 findfont
10.0 scalefont
setfont
0.000000 0.343750 moveto
/zero glyphshow

/Cmmi10 findfont
10.0 scalefont
setfont
5.000000 0.343750 moveto
/period glyphshow

/Cmr10 findfont
10.0 scalefont
setfont
7.849609 0.343750 moveto
/two glyphshow

12.849609 0.343750 moveto
/one glyphshow

17.849609 0.343750 moveto
/nine glyphshow

/Cmsy10 findfont
10.0 scalefont
setfont
24.605469 0.343750 moveto
/periodcentered glyphshow

/Cmr10 findfont
10.0 scalefont
setfont
27.455078 0.343750 moveto
/two glyphshow

/Cmmi10 findfont
10.0 scalefont
setfont
32.455078 0.343750 moveto
/pi glyphshow


grestore
gsave
106.932875 136.880000 translate
270.000000 rotate

grestore
gsave
191.283500 156.380000 translate
270.000000 rotate
/Cmr10 findfont
10.0 scalefont
setfont
0.000000 0.343750 moveto
/zero glyphshow

/Cmmi10 findfont
10.0 scalefont
setfont
5.000000 0.343750 moveto
/period glyphshow

/Cmr10 findfont
10.0 scalefont
setfont
7.849609 0.343750 moveto
/one glyphshow

12.849609 0.343750 moveto
/five glyphshow

17.849609 0.343750 moveto
/six glyphshow

/Cmsy10 findfont
10.0 scalefont
setfont
24.605469 0.343750 moveto
/periodcentered glyphshow

/Cmr10 findfont
10.0 scalefont
setfont
27.455078 0.343750 moveto
/two glyphshow

/Cmmi10 findfont
10.0 scalefont
setfont
32.455078 0.343750 moveto
/pi glyphshow


grestore
gsave
180.092875 136.880000 translate
270.000000 rotate

grestore
gsave
264.443500 156.380000 translate
270.000000 rotate
/Cmr10 findfont
10.0 scalefont
setfont
0.000000 0.343750 moveto
/zero glyphshow

/Cmmi10 findfont
10.0 scalefont
setfont
5.000000 0.343750 moveto
/period glyphshow

/Cmr10 findfont
10.0 scalefont
setfont
7.849609 0.343750 moveto
/zero glyphshow

12.849609 0.343750 moveto
/nine glyphshow

17.849609 0.343750 moveto
/four glyphshow

/Cmsy10 findfont
10.0 scalefont
setfont
24.605469 0.343750 moveto
/periodcentered glyphshow

/Cmr10 findfont
10.0 scalefont
setfont
27.455078 0.343750 moveto
/two glyphshow

/Cmmi10 findfont
10.0 scalefont
setfont
32.455078 0.343750 moveto
/pi glyphshow


grestore
gsave
253.252875 136.880000 translate
270.000000 rotate

grestore
gsave
337.603500 156.380000 translate
270.000000 rotate
/Cmr10 findfont
10.0 scalefont
setfont
0.000000 0.343750 moveto
/zero glyphshow

/Cmmi10 findfont
10.0 scalefont
setfont
5.000000 0.343750 moveto
/period glyphshow

/Cmr10 findfont
10.0 scalefont
setfont
7.849609 0.343750 moveto
/zero glyphshow

12.849609 0.343750 moveto
/three glyphshow

17.849609 0.343750 moveto
/one glyphshow

/Cmsy10 findfont
10.0 scalefont
setfont
24.605469 0.343750 moveto
/periodcentered glyphshow

/Cmr10 findfont
10.0 scalefont
setfont
27.455078 0.343750 moveto
/two glyphshow

/Cmmi10 findfont
10.0 scalefont
setfont
32.455078 0.343750 moveto
/pi glyphshow


grestore
gsave
326.412875 136.880000 translate
270.000000 rotate

grestore
gsave
118.123500 231.900000 translate
270.000000 rotate
/Cmr10 findfont
10.0 scalefont
setfont
0.000000 0.343750 moveto
/zero glyphshow

/Cmmi10 findfont
10.0 scalefont
setfont
5.000000 0.343750 moveto
/period glyphshow

/Cmr10 findfont
10.0 scalefont
setfont
7.849609 0.343750 moveto
/two glyphshow

12.849609 0.343750 moveto
/one glyphshow

17.849609 0.343750 moveto
/nine glyphshow

/Cmsy10 findfont
10.0 scalefont
setfont
24.605469 0.343750 moveto
/periodcentered glyphshow

/Cmr10 findfont
10.0 scalefont
setfont
27.455078 0.343750 moveto
/two glyphshow

/Cmmi10 findfont
10.0 scalefont
setfont
32.455078 0.343750 moveto
/pi glyphshow


grestore
gsave
106.932875 212.400000 translate
270.000000 rotate

grestore
gsave
191.283500 231.900000 translate
270.000000 rotate
/Cmr10 findfont
10.0 scalefont
setfont
0.000000 0.343750 moveto
/zero glyphshow

/Cmmi10 findfont
10.0 scalefont
setfont
5.000000 0.343750 moveto
/period glyphshow

/Cmr10 findfont
10.0 scalefont
setfont
7.849609 0.343750 moveto
/one glyphshow

12.849609 0.343750 moveto
/five glyphshow

17.849609 0.343750 moveto
/six glyphshow

/Cmsy10 findfont
10.0 scalefont
setfont
24.605469 0.343750 moveto
/periodcentered glyphshow

/Cmr10 findfont
10.0 scalefont
setfont
27.455078 0.343750 moveto
/two glyphshow

/Cmmi10 findfont
10.0 scalefont
setfont
32.455078 0.343750 moveto
/pi glyphshow


grestore
gsave
180.092875 212.400000 translate
270.000000 rotate

grestore
gsave
264.443500 231.900000 translate
270.000000 rotate
/Cmr10 findfont
10.0 scalefont
setfont
0.000000 0.343750 moveto
/zero glyphshow

/Cmmi10 findfont
10.0 scalefont
setfont
5.000000 0.343750 moveto
/period glyphshow

/Cmr10 findfont
10.0 scalefont
setfont
7.849609 0.343750 moveto
/zero glyphshow

12.849609 0.343750 moveto
/nine glyphshow

17.849609 0.343750 moveto
/four glyphshow

/Cmsy10 findfont
10.0 scalefont
setfont
24.605469 0.343750 moveto
/periodcentered glyphshow

/Cmr10 findfont
10.0 scalefont
setfont
27.455078 0.343750 moveto
/two glyphshow

/Cmmi10 findfont
10.0 scalefont
setfont
32.455078 0.343750 moveto
/pi glyphshow


grestore
gsave
253.252875 212.400000 translate
270.000000 rotate

grestore
gsave
337.603500 231.900000 translate
270.000000 rotate
/Cmr10 findfont
10.0 scalefont
setfont
0.000000 0.343750 moveto
/zero glyphshow

/Cmmi10 findfont
10.0 scalefont
setfont
5.000000 0.343750 moveto
/period glyphshow

/Cmr10 findfont
10.0 scalefont
setfont
7.849609 0.343750 moveto
/zero glyphshow

12.849609 0.343750 moveto
/three glyphshow

17.849609 0.343750 moveto
/one glyphshow

/Cmsy10 findfont
10.0 scalefont
setfont
24.605469 0.343750 moveto
/periodcentered glyphshow

/Cmr10 findfont
10.0 scalefont
setfont
27.455078 0.343750 moveto
/two glyphshow

/Cmmi10 findfont
10.0 scalefont
setfont
32.455078 0.343750 moveto
/pi glyphshow


grestore
gsave
326.412875 212.400000 translate
270.000000 rotate

grestore
gsave
118.123500 307.420000 translate
270.000000 rotate
/Cmr10 findfont
10.0 scalefont
setfont
0.000000 0.343750 moveto
/zero glyphshow

/Cmmi10 findfont
10.0 scalefont
setfont
5.000000 0.343750 moveto
/period glyphshow

/Cmr10 findfont
10.0 scalefont
setfont
7.849609 0.343750 moveto
/two glyphshow

12.849609 0.343750 moveto
/one glyphshow

17.849609 0.343750 moveto
/nine glyphshow

/Cmsy10 findfont
10.0 scalefont
setfont
24.605469 0.343750 moveto
/periodcentered glyphshow

/Cmr10 findfont
10.0 scalefont
setfont
27.455078 0.343750 moveto
/two glyphshow

/Cmmi10 findfont
10.0 scalefont
setfont
32.455078 0.343750 moveto
/pi glyphshow


grestore
gsave
106.932875 287.920000 translate
270.000000 rotate

grestore
gsave
191.283500 307.420000 translate
270.000000 rotate
/Cmr10 findfont
10.0 scalefont
setfont
0.000000 0.343750 moveto
/zero glyphshow

/Cmmi10 findfont
10.0 scalefont
setfont
5.000000 0.343750 moveto
/period glyphshow

/Cmr10 findfont
10.0 scalefont
setfont
7.849609 0.343750 moveto
/one glyphshow

12.849609 0.343750 moveto
/five glyphshow

17.849609 0.343750 moveto
/six glyphshow

/Cmsy10 findfont
10.0 scalefont
setfont
24.605469 0.343750 moveto
/periodcentered glyphshow

/Cmr10 findfont
10.0 scalefont
setfont
27.455078 0.343750 moveto
/two glyphshow

/Cmmi10 findfont
10.0 scalefont
setfont
32.455078 0.343750 moveto
/pi glyphshow


grestore
gsave
180.092875 287.920000 translate
270.000000 rotate

grestore
gsave
264.443500 307.420000 translate
270.000000 rotate
/Cmr10 findfont
10.0 scalefont
setfont
0.000000 0.343750 moveto
/zero glyphshow

/Cmmi10 findfont
10.0 scalefont
setfont
5.000000 0.343750 moveto
/period glyphshow

/Cmr10 findfont
10.0 scalefont
setfont
7.849609 0.343750 moveto
/zero glyphshow

12.849609 0.343750 moveto
/nine glyphshow

17.849609 0.343750 moveto
/four glyphshow

/Cmsy10 findfont
10.0 scalefont
setfont
24.605469 0.343750 moveto
/periodcentered glyphshow

/Cmr10 findfont
10.0 scalefont
setfont
27.455078 0.343750 moveto
/two glyphshow

/Cmmi10 findfont
10.0 scalefont
setfont
32.455078 0.343750 moveto
/pi glyphshow


grestore
gsave
253.252875 287.920000 translate
270.000000 rotate

grestore
gsave
337.603500 307.420000 translate
270.000000 rotate
/Cmr10 findfont
10.0 scalefont
setfont
0.000000 0.343750 moveto
/zero glyphshow

/Cmmi10 findfont
10.0 scalefont
setfont
5.000000 0.343750 moveto
/period glyphshow

/Cmr10 findfont
10.0 scalefont
setfont
7.849609 0.343750 moveto
/zero glyphshow

12.849609 0.343750 moveto
/three glyphshow

17.849609 0.343750 moveto
/one glyphshow

/Cmsy10 findfont
10.0 scalefont
setfont
24.605469 0.343750 moveto
/periodcentered glyphshow

/Cmr10 findfont
10.0 scalefont
setfont
27.455078 0.343750 moveto
/two glyphshow

/Cmmi10 findfont
10.0 scalefont
setfont
32.455078 0.343750 moveto
/pi glyphshow


grestore
gsave
326.412875 287.920000 translate
270.000000 rotate

grestore
gsave
118.123500 382.940000 translate
270.000000 rotate
/Cmr10 findfont
10.0 scalefont
setfont
0.000000 0.343750 moveto
/zero glyphshow

/Cmmi10 findfont
10.0 scalefont
setfont
5.000000 0.343750 moveto
/period glyphshow

/Cmr10 findfont
10.0 scalefont
setfont
7.849609 0.343750 moveto
/two glyphshow

12.849609 0.343750 moveto
/one glyphshow

17.849609 0.343750 moveto
/nine glyphshow

/Cmsy10 findfont
10.0 scalefont
setfont
24.605469 0.343750 moveto
/periodcentered glyphshow

/Cmr10 findfont
10.0 scalefont
setfont
27.455078 0.343750 moveto
/two glyphshow

/Cmmi10 findfont
10.0 scalefont
setfont
32.455078 0.343750 moveto
/pi glyphshow


grestore
gsave
106.932875 363.440000 translate
270.000000 rotate

grestore
gsave
191.283500 382.940000 translate
270.000000 rotate
/Cmr10 findfont
10.0 scalefont
setfont
0.000000 0.343750 moveto
/zero glyphshow

/Cmmi10 findfont
10.0 scalefont
setfont
5.000000 0.343750 moveto
/period glyphshow

/Cmr10 findfont
10.0 scalefont
setfont
7.849609 0.343750 moveto
/one glyphshow

12.849609 0.343750 moveto
/five glyphshow

17.849609 0.343750 moveto
/six glyphshow

/Cmsy10 findfont
10.0 scalefont
setfont
24.605469 0.343750 moveto
/periodcentered glyphshow

/Cmr10 findfont
10.0 scalefont
setfont
27.455078 0.343750 moveto
/two glyphshow

/Cmmi10 findfont
10.0 scalefont
setfont
32.455078 0.343750 moveto
/pi glyphshow


grestore
gsave
180.092875 363.440000 translate
270.000000 rotate

grestore
gsave
264.443500 382.940000 translate
270.000000 rotate
/Cmr10 findfont
10.0 scalefont
setfont
0.000000 0.343750 moveto
/zero glyphshow

/Cmmi10 findfont
10.0 scalefont
setfont
5.000000 0.343750 moveto
/period glyphshow

/Cmr10 findfont
10.0 scalefont
setfont
7.849609 0.343750 moveto
/zero glyphshow

12.849609 0.343750 moveto
/nine glyphshow

17.849609 0.343750 moveto
/four glyphshow

/Cmsy10 findfont
10.0 scalefont
setfont
24.605469 0.343750 moveto
/periodcentered glyphshow

/Cmr10 findfont
10.0 scalefont
setfont
27.455078 0.343750 moveto
/two glyphshow

/Cmmi10 findfont
10.0 scalefont
setfont
32.455078 0.343750 moveto
/pi glyphshow


grestore
gsave
253.252875 363.440000 translate
270.000000 rotate

grestore
gsave
337.603500 382.940000 translate
270.000000 rotate
/Cmr10 findfont
10.0 scalefont
setfont
0.000000 0.343750 moveto
/zero glyphshow

/Cmmi10 findfont
10.0 scalefont
setfont
5.000000 0.343750 moveto
/period glyphshow

/Cmr10 findfont
10.0 scalefont
setfont
7.849609 0.343750 moveto
/zero glyphshow

12.849609 0.343750 moveto
/three glyphshow

17.849609 0.343750 moveto
/one glyphshow

/Cmsy10 findfont
10.0 scalefont
setfont
24.605469 0.343750 moveto
/periodcentered glyphshow

/Cmr10 findfont
10.0 scalefont
setfont
27.455078 0.343750 moveto
/two glyphshow

/Cmmi10 findfont
10.0 scalefont
setfont
32.455078 0.343750 moveto
/pi glyphshow


grestore
gsave
326.412875 363.440000 translate
270.000000 rotate

grestore
gsave
201.210000 238.832000 translate
0.000000 rotate
/Cmr10 findfont
7.049375 scalefont
setfont
0.000000 -0.283750 moveto
/parenleft glyphshow

/Cmmi10 findfont
10.0 scalefont
setfont
2.735474 0.578125 moveto
/x glyphshow

/Cmmi10 findfont
7.0 scalefont
setfont
8.443481 -1.972812 moveto
/i glyphshow

10.853149 -1.972812 moveto
/n glyphshow

/Cmmi10 findfont
10.0 scalefont
setfont
15.053833 0.578125 moveto
/comma glyphshow

18.012817 0.578125 moveto
/y glyphshow

/Cmmi10 findfont
7.0 scalefont
setfont
22.915161 -1.972812 moveto
/i glyphshow

25.324829 -1.972812 moveto
/n glyphshow

/Cmr10 findfont
7.049375 scalefont
setfont
29.525513 -0.283750 moveto
/parenright glyphshow


grestore

end
showpage
