%!PS-Adobe-3.0 EPSF-3.0
%%Title: D:\MyWorkspace\Projects\Master2\LocalData\Figures\theta_path.eps
%%Creator: matplotlib version 1.4.3, http://matplotlib.org/
%%CreationDate: Sat Apr 23 21:47:19 2016
%%Orientation: portrait
%%BoundingBox: 164 254 447 537
%%EndComments
%%BeginProlog
/mpldict 10 dict def
mpldict begin
/m { moveto } bind def
/l { lineto } bind def
/r { rlineto } bind def
/c { curveto } bind def
/cl { closepath } bind def
/box {
m
1 index 0 r
0 exch r
neg 0 r
cl
} bind def
/clipbox {
box
clip
newpath
} bind def
%!PS-Adobe-3.0 Resource-Font
%%Title: cmmi10
%%Copyright: Copyright (C) 1994, Basil K. Malyshev. All Rights Reserved.012BaKoMa Fonts Collection, Level-B.
%%Creator: Converted from TrueType to type 3 by PPR
25 dict begin
/_d{bind def}bind def
/_m{moveto}_d
/_l{lineto}_d
/_cl{closepath eofill}_d
/_c{curveto}_d
/_sc{7 -1 roll{setcachedevice}{pop pop pop pop pop pop}ifelse}_d
/_e{exec}_d
/FontName /Cmmi10 def
/PaintType 0 def
/FontMatrix[.001 0 0 .001 0 0]def
/FontBBox[-34 -250 1048 750]def
/FontType 3 def
/Encoding [ /x /d /y ] def
/FontInfo 10 dict dup begin
/FamilyName (cmmi10) def
/FullName (cmmi10) def
/Notice (Copyright (C) 1994, Basil K. Malyshev. All Rights Reserved.012BaKoMa Fonts Collection, Level-B. ) def
/Weight (Regular) def
/Version (1.1/12-Nov-94) def
/ItalicAngle 0.0 def
/isFixedPitch false def
/UnderlinePosition -133 def
/UnderlineThickness 20 def
end readonly def
/CharStrings 3 dict dup begin
/x{{571 0 31 -10 526 442 _sc
78 29 _m
90 19 106 15 128 15 _c
148 15 167 25 183 45 _c
199 65 210 87 216 111 _c
261 288 _l
268 320 272 342 272 354 _c
272 370 267 385 258 397 _c
248 409 235 416 219 416 _c
198 416 178 409 160 396 _c
141 382 125 365 113 345 _c
100 325 91 304 86 284 _c
84 280 82 278 78 278 _c
66 278 _l
60 278 58 281 58 287 _c
58 290 _l
}_e{64 314 75 338 91 362 _c
107 386 126 405 149 420 _c
171 434 195 442 221 442 _c
245 442 267 435 287 422 _c
307 409 321 391 329 369 _c
340 389 354 407 372 421 _c
390 435 409 442 431 442 _c
445 442 460 439 475 434 _c
490 429 502 421 512 411 _c
521 401 526 388 526 372 _c
526 355 520 340 509 328 _c
498 316 484 310 468 310 _c
457 310 448 313 441 320 _c
}_e{433 327 430 336 430 346 _c
430 360 434 372 444 383 _c
454 393 465 400 479 402 _c
467 411 450 416 429 416 _c
407 416 389 406 373 386 _c
357 366 346 344 340 320 _c
296 143 _l
288 116 285 94 285 77 _c
285 60 289 45 299 33 _c
309 21 322 15 338 15 _c
369 15 397 28 421 56 _c
445 84 462 114 470 147 _c
471 151 474 153 478 153 _c
490 153 _l
492 153 494 152 496 150 _c
}_e{498 148 499 146 499 144 _c
499 143 498 142 498 141 _c
488 101 468 66 438 36 _c
408 5 374 -10 336 -10 _c
311 -10 289 -3 269 9 _c
249 21 236 39 228 62 _c
217 42 202 25 184 11 _c
166 -3 146 -10 126 -10 _c
111 -10 96 -7 81 -3 _c
66 1 54 9 45 19 _c
35 29 31 43 31 59 _c
31 75 36 89 47 102 _c
57 114 71 121 88 121 _c
}_e{98 121 107 117 115 111 _c
123 104 127 95 127 85 _c
127 71 122 58 113 48 _c
103 38 92 31 78 29 _c
_cl}_e}_d
/d{{520 0 38 -10 519 694 _sc
174 -10 _m
132 -10 98 5 74 37 _c
50 68 38 105 38 149 _c
38 191 49 236 71 282 _c
93 328 122 366 160 396 _c
198 426 238 442 282 442 _c
302 442 319 436 335 425 _c
351 414 363 400 372 382 _c
428 605 _l
430 616 432 625 433 632 _c
433 642 411 648 368 648 _c
361 648 358 652 358 661 _c
358 663 358 666 360 670 _c
361 674 362 677 364 679 _c
}_e{366 681 368 683 372 683 _c
507 694 _l
515 694 519 689 519 681 _c
375 106 _l
370 94 368 78 368 58 _c
368 29 377 15 397 15 _c
417 15 433 28 444 55 _c
455 81 464 112 472 147 _c
473 151 476 153 480 153 _c
492 153 _l
494 153 496 151 498 149 _c
500 147 501 145 501 143 _c
489 96 476 59 462 31 _c
448 3 426 -10 395 -10 _c
372 -10 352 -3 335 9 _c
}_e{318 21 307 39 303 61 _c
260 13 217 -10 174 -10 _c
175 15 _m
199 15 222 24 245 42 _c
267 60 287 81 303 106 _c
303 106 304 108 304 110 _c
359 330 _l
355 353 346 373 333 390 _c
319 407 302 416 280 416 _c
257 416 236 406 217 388 _c
197 370 181 348 168 323 _c
154 296 142 259 130 213 _c
118 167 113 131 113 105 _c
113 81 118 60 128 42 _c
138 24 153 15 175 15 _c
}_e{_cl}_e}_d
/y{{490 0 27 -204 492 442 _sc
84 -142 _m
98 -166 122 -178 157 -178 _c
189 -178 216 -167 239 -145 _c
262 -123 281 -96 295 -65 _c
309 -33 320 -1 328 31 _c
298 3 266 -10 232 -10 _c
205 -10 182 -5 164 3 _c
146 11 131 25 121 43 _c
111 61 106 83 106 109 _c
106 131 109 153 115 176 _c
121 198 129 224 139 252 _c
149 280 159 305 167 326 _c
175 350 180 370 180 386 _c
}_e{180 406 172 416 158 416 _c
132 416 110 402 93 375 _c
75 347 63 317 55 284 _c
53 280 51 278 47 278 _c
35 278 _l
29 278 27 281 27 287 _c
27 290 _l
37 330 54 365 76 396 _c
98 426 126 442 160 442 _c
184 442 204 434 220 418 _c
236 402 245 383 245 359 _c
245 346 242 333 237 320 _c
233 312 226 294 216 267 _c
206 239 198 217 193 199 _c
187 181 183 163 179 146 _c
}_e{175 128 174 111 174 94 _c
174 72 178 53 188 38 _c
197 22 212 15 233 15 _c
274 15 311 40 344 91 _c
420 399 _l
422 407 427 415 435 421 _c
443 427 452 431 462 431 _c
470 431 477 428 483 423 _c
489 418 492 411 492 403 _c
492 399 491 396 491 395 _c
392 -2 _l
383 -36 367 -68 344 -100 _c
320 -131 292 -156 259 -175 _c
225 -194 191 -204 156 -204 _c
138 -204 121 -200 104 -194 _c
}_e{87 -187 73 -177 63 -164 _c
53 -150 48 -135 48 -117 _c
48 -99 53 -83 64 -70 _c
74 -56 89 -50 107 -50 _c
117 -50 126 -53 134 -60 _c
141 -66 145 -75 145 -86 _c
145 -101 139 -114 128 -126 _c
116 -137 103 -143 88 -143 _c
87 -143 86 -142 86 -142 _c
85 -142 84 -142 84 -142 _c
_cl}_e}_d
end readonly def

/BuildGlyph
 {exch begin
 CharStrings exch
 2 copy known not{pop /.notdef}if
 true 3 1 roll get exec
 end}_d

/BuildChar {
 1 index /Encoding get exch get
 1 index /BuildGlyph get exec
}_d

FontName currentdict end definefont pop
%!PS-Adobe-3.0 Resource-Font
%%Title: Bitstream Vera Sans
%%Copyright: Copyright (c) 2003 by Bitstream, Inc. All Rights Reserved.
%%Creator: Converted from TrueType to type 3 by PPR
25 dict begin
/_d{bind def}bind def
/_m{moveto}_d
/_l{lineto}_d
/_cl{closepath eofill}_d
/_c{curveto}_d
/_sc{7 -1 roll{setcachedevice}{pop pop pop pop pop pop}ifelse}_d
/_e{exec}_d
/FontName /BitstreamVeraSans-Roman def
/PaintType 0 def
/FontMatrix[.001 0 0 .001 0 0]def
/FontBBox[-183 -236 1287 928]def
/FontType 3 def
/Encoding [ /period /zero /one /two /three /four /minus ] def
/FontInfo 10 dict dup begin
/FamilyName (Bitstream Vera Sans) def
/FullName (Bitstream Vera Sans) def
/Notice (Copyright (c) 2003 by Bitstream, Inc. All Rights Reserved. Bitstream Vera is a trademark of Bitstream, Inc.) def
/Weight (Roman) def
/Version (Release 1.10) def
/ItalicAngle 0.0 def
/isFixedPitch false def
/UnderlinePosition -213 def
/UnderlineThickness 143 def
end readonly def
/CharStrings 7 dict dup begin
/period{318 0 107 0 210 124 _sc
107 124 _m
210 124 _l
210 0 _l
107 0 _l
107 124 _l
_cl}_d
/zero{636 0 66 -13 570 742 _sc
318 664 _m
267 664 229 639 203 589 _c
177 539 165 464 165 364 _c
165 264 177 189 203 139 _c
229 89 267 64 318 64 _c
369 64 407 89 433 139 _c
458 189 471 264 471 364 _c
471 464 458 539 433 589 _c
407 639 369 664 318 664 _c
318 742 _m
399 742 461 709 505 645 _c
548 580 570 486 570 364 _c
570 241 548 147 505 83 _c
461 19 399 -13 318 -13 _c
236 -13 173 19 130 83 _c
87 147 66 241 66 364 _c
66 486 87 580 130 645 _c
173 709 236 742 318 742 _c
_cl}_d
/one{636 0 110 0 544 729 _sc
124 83 _m
285 83 _l
285 639 _l
110 604 _l
110 694 _l
284 729 _l
383 729 _l
383 83 _l
544 83 _l
544 0 _l
124 0 _l
124 83 _l
_cl}_d
/two{{636 0 73 0 536 742 _sc
192 83 _m
536 83 _l
536 0 _l
73 0 _l
73 83 _l
110 121 161 173 226 239 _c
290 304 331 346 348 365 _c
380 400 402 430 414 455 _c
426 479 433 504 433 528 _c
433 566 419 598 392 622 _c
365 646 330 659 286 659 _c
255 659 222 653 188 643 _c
154 632 117 616 78 594 _c
78 694 _l
118 710 155 722 189 730 _c
223 738 255 742 284 742 _c
}_e{359 742 419 723 464 685 _c
509 647 532 597 532 534 _c
532 504 526 475 515 449 _c
504 422 484 390 454 354 _c
446 344 420 317 376 272 _c
332 227 271 164 192 83 _c
_cl}_e}_d
/three{{636 0 76 -13 556 742 _sc
406 393 _m
453 383 490 362 516 330 _c
542 298 556 258 556 212 _c
556 140 531 84 482 45 _c
432 6 362 -13 271 -13 _c
240 -13 208 -10 176 -4 _c
144 1 110 10 76 22 _c
76 117 _l
103 101 133 89 166 81 _c
198 73 232 69 268 69 _c
330 69 377 81 409 105 _c
441 129 458 165 458 212 _c
458 254 443 288 413 312 _c
383 336 341 349 287 349 _c
}_e{202 349 _l
202 430 _l
291 430 _l
339 430 376 439 402 459 _c
428 478 441 506 441 543 _c
441 580 427 609 401 629 _c
374 649 336 659 287 659 _c
260 659 231 656 200 650 _c
169 644 135 635 98 623 _c
98 711 _l
135 721 170 729 203 734 _c
235 739 266 742 296 742 _c
370 742 429 725 473 691 _c
517 657 539 611 539 553 _c
539 513 527 479 504 451 _c
481 423 448 403 406 393 _c
_cl}_e}_d
/four{636 0 49 0 580 729 _sc
378 643 _m
129 254 _l
378 254 _l
378 643 _l
352 729 _m
476 729 _l
476 254 _l
580 254 _l
580 172 _l
476 172 _l
476 0 _l
378 0 _l
378 172 _l
49 172 _l
49 267 _l
352 729 _l
_cl}_d
/minus{838 0 106 272 732 355 _sc
106 355 _m
732 355 _l
732 272 _l
106 272 _l
106 355 _l
_cl}_d
end readonly def

/BuildGlyph
 {exch begin
 CharStrings exch
 2 copy known not{pop /.notdef}if
 true 3 1 roll get exec
 end}_d

/BuildChar {
 1 index /Encoding get exch get
 1 index /BuildGlyph get exec
}_d

FontName currentdict end definefont pop
%!PS-Adobe-3.0 Resource-Font
%%Title: cmr10
%%Copyright: Copyright (C) 1994, Basil K. Malyshev. All Rights Reserved.012BaKoMa Fonts Collection, Level-B.
%%Creator: Converted from TrueType to type 3 by PPR
25 dict begin
/_d{bind def}bind def
/_m{moveto}_d
/_l{lineto}_d
/_cl{closepath eofill}_d
/_c{curveto}_d
/_sc{7 -1 roll{setcachedevice}{pop pop pop pop pop pop}ifelse}_d
/_e{exec}_d
/FontName /Cmr10 def
/PaintType 0 def
/FontMatrix[.001 0 0 .001 0 0]def
/FontBBox[-44 -250 1009 750]def
/FontType 3 def
/Encoding [ /Theta /two /four /one /three ] def
/FontInfo 10 dict dup begin
/FamilyName (cmr10) def
/FullName (cmr10) def
/Notice (Copyright (C) 1994, Basil K. Malyshev. All Rights Reserved.012BaKoMa Fonts Collection, Level-B. ) def
/Weight (Regular) def
/Version (1.1/12-Nov-94) def
/ItalicAngle 0.0 def
/isFixedPitch false def
/UnderlinePosition -133 def
/UnderlineThickness 20 def
end readonly def
/CharStrings 5 dict dup begin
/Theta{{777 0 56 -21 721 705 _sc
389 -21 _m
325 -21 268 -4 218 29 _c
167 62 127 107 99 163 _c
70 219 56 277 56 339 _c
56 384 64 429 80 474 _c
96 518 119 558 149 593 _c
179 627 214 655 256 675 _c
297 695 341 705 389 705 _c
436 705 480 694 522 674 _c
563 654 598 626 628 592 _c
658 557 681 518 697 475 _c
713 431 721 386 721 339 _c
721 277 706 219 678 163 _c
}_e{649 107 609 62 559 29 _c
508 -4 451 -21 389 -21 _c
219 101 _m
231 82 246 65 264 51 _c
282 37 301 25 322 17 _c
343 9 365 5 389 5 _c
422 5 453 13 483 31 _c
513 48 538 71 558 101 _c
599 160 620 239 620 339 _c
620 439 599 519 558 581 _c
538 610 513 634 484 652 _c
454 670 423 679 389 679 _c
354 679 322 670 293 652 _c
263 634 239 610 219 581 _c
}_e{197 547 181 510 171 470 _c
161 429 157 385 157 339 _c
157 308 158 279 162 252 _c
166 224 172 198 182 172 _c
191 146 203 123 219 101 _c
214 268 _m
214 416 _l
243 416 _l
243 382 _l
534 382 _l
534 416 _l
563 416 _l
563 268 _l
534 268 _l
534 302 _l
243 302 _l
243 268 _l
214 268 _l
_cl}_e}_d
/two{{500 0 50 0 449 666 _sc
50 0 _m
50 27 _l
50 28 50 30 52 32 _c
207 204 _l
230 229 249 250 264 268 _c
278 285 293 305 307 327 _c
321 349 333 372 341 396 _c
349 419 354 444 354 470 _c
354 497 349 523 339 548 _c
329 573 314 593 294 608 _c
274 623 249 631 221 631 _c
192 631 166 622 143 605 _c
119 587 103 565 94 537 _c
96 537 100 538 105 538 _c
}_e{119 538 132 533 143 523 _c
153 513 159 500 159 484 _c
159 468 153 455 143 445 _c
132 434 119 429 105 429 _c
89 429 76 434 66 445 _c
55 456 50 469 50 484 _c
50 508 54 532 64 554 _c
73 576 86 595 104 613 _c
122 630 142 643 164 652 _c
186 661 210 666 236 666 _c
274 666 309 658 342 642 _c
375 626 401 603 420 573 _c
439 543 449 509 449 470 _c
}_e{449 441 442 414 430 388 _c
417 362 401 338 381 317 _c
361 295 336 271 305 244 _c
274 217 254 199 244 190 _c
131 81 _l
227 81 _l
274 81 313 81 345 82 _c
377 82 394 84 396 86 _c
404 94 412 125 420 178 _c
449 178 _l
421 0 _l
50 0 _l
_cl}_e}_d
/four{{500 0 28 0 471 666 _sc
28 165 _m
28 200 _l
337 661 _l
339 664 342 666 347 666 _c
362 666 _l
369 666 373 662 373 655 _c
373 200 _l
471 200 _l
471 165 _l
373 165 _l
373 67 _l
373 53 382 44 402 40 _c
422 36 444 35 470 35 _c
470 0 _l
195 0 _l
195 35 _l
220 35 242 36 262 40 _c
282 44 292 53 292 67 _c
292 165 _l
28 165 _l
61 200 _m
298 200 _l
}_e{298 554 _l
61 200 _l
_cl}_e}_d
/one{500 0 87 0 421 666 _sc
93 0 _m
93 35 _l
176 35 218 45 218 67 _c
218 592 _l
183 575 139 567 87 567 _c
87 602 _l
168 602 230 623 272 666 _c
286 666 _l
288 666 291 665 293 663 _c
295 661 296 659 296 657 _c
296 67 _l
296 45 337 35 421 35 _c
421 0 _l
93 0 _l
_cl}_d
/three{{500 0 42 -21 457 666 _sc
95 77 _m
111 54 132 37 158 26 _c
184 15 213 10 243 10 _c
281 10 309 26 325 59 _c
341 92 350 130 350 172 _c
350 190 348 209 345 228 _c
341 247 335 265 327 281 _c
319 297 308 310 294 320 _c
280 330 262 335 242 335 _c
176 335 _l
170 335 167 338 167 344 _c
167 353 _l
167 358 170 361 176 361 _c
231 365 _l
254 365 273 373 289 391 _c
}_e{305 409 316 430 323 456 _c
330 481 334 505 334 528 _c
334 560 326 586 311 606 _c
296 626 273 637 243 637 _c
217 637 193 632 170 622 _c
147 612 129 598 115 579 _c
116 579 117 580 118 580 _c
119 580 120 580 122 580 _c
137 580 150 574 160 564 _c
170 554 175 541 175 527 _c
175 512 170 499 160 489 _c
150 479 137 474 122 474 _c
107 474 94 479 84 489 _c
}_e{74 499 69 512 69 527 _c
69 555 77 580 95 601 _c
112 622 134 638 161 649 _c
188 660 215 666 243 666 _c
263 666 284 663 307 657 _c
329 651 350 642 368 631 _c
386 619 401 605 413 588 _c
424 570 430 550 430 528 _c
430 500 423 474 411 450 _c
399 426 382 406 360 389 _c
338 371 314 358 288 350 _c
317 344 345 333 371 317 _c
397 301 417 280 433 255 _c
}_e{449 229 457 202 457 173 _c
457 136 446 103 426 73 _c
406 43 379 19 347 3 _c
314 -13 279 -21 243 -21 _c
211 -21 180 -15 149 -3 _c
117 8 92 25 72 49 _c
52 73 42 101 42 135 _c
42 151 47 165 58 176 _c
69 187 83 193 100 193 _c
110 193 120 190 129 185 _c
138 180 145 173 150 164 _c
155 154 158 145 158 135 _c
158 118 152 104 141 93 _c
}_e{129 82 116 77 100 77 _c
95 77 _l
_cl}_e}_d
end readonly def

/BuildGlyph
 {exch begin
 CharStrings exch
 2 copy known not{pop /.notdef}if
 true 3 1 roll get exec
 end}_d

/BuildChar {
 1 index /Encoding get exch get
 1 index /BuildGlyph get exec
}_d

FontName currentdict end definefont pop
end
%%EndProlog
mpldict begin
164.52 254.52 translate
282.96 282.96 0 0 clipbox
gsave
0 0 m
282.96 0 l
282.96 282.96 l
0 282.96 l
cl
1.000 setgray
fill
grestore
gsave
55.4214 41.7909 m
264.819 41.7909 l
264.819 267.12 l
55.4214 267.12 l
cl
1.000 setgray
fill
grestore
4.000 setlinewidth
1 setlinejoin
0 setlinecap
[6 6] 0 setdash
0.800 setgray
gsave
209.4 225.3 55.42 41.79 clipbox
-112.097 -363.801 m
stroke
grestore
gsave
209.4 225.3 55.42 41.79 clipbox
1563.09 -363.801 m
stroke
grestore
gsave
209.4 225.3 55.42 41.79 clipbox
-321.495 -138.472 m
stroke
grestore
gsave
209.4 225.3 55.42 41.79 clipbox
-321.495 1664.16 m
stroke
grestore
1.000 setlinewidth
2 setlinecap
[] 0 setdash
0.100 setgray
gsave
209.4 225.3 55.42 41.79 clipbox
97.301 -363.801 m
97.301 -1 m
97.301 283.96 l
stroke
grestore
gsave
209.4 225.3 55.42 41.79 clipbox
516.097 -363.801 m
stroke
grestore
gsave
209.4 225.3 55.42 41.79 clipbox
934.893 -363.801 m
stroke
grestore
gsave
209.4 225.3 55.42 41.79 clipbox
1353.69 -363.801 m
stroke
grestore
gsave
209.4 225.3 55.42 41.79 clipbox
-321.495 86.8568 m
-1 86.8568 m
283.96 86.8568 l
stroke
grestore
gsave
209.4 225.3 55.42 41.79 clipbox
-321.495 537.515 m
stroke
grestore
gsave
209.4 225.3 55.42 41.79 clipbox
-321.495 988.173 m
stroke
grestore
gsave
209.4 225.3 55.42 41.79 clipbox
-321.495 1438.83 m
stroke
grestore
/p0_0 {
newpath
translate
0 -5 m
1.32602 -5 2.5979 -4.47317 3.53553 -3.53553 c
4.47317 -2.5979 5 -1.32602 5 0 c
5 1.32602 4.47317 2.5979 3.53553 3.53553 c
2.5979 4.47317 1.32602 5 0 5 c
-1.32602 5 -2.5979 4.47317 -3.53553 3.53553 c
-4.47317 2.5979 -5 1.32602 -5 0 c
-5 -1.32602 -4.47317 -2.5979 -3.53553 -3.53553 c
-2.5979 -4.47317 -1.32602 -5 0 -5 c
cl
} bind def
0 setlinecap
0.000 setgray
gsave
209.4 225.3 55.42 41.79 clipbox
97.301 86.8568 p0_0
gsave
1.000 0.000 0.000 setrgbcolor
fill
grestore
stroke
grestore
gsave
209.4 225.3 55.42 41.79 clipbox
516.097 86.8568 p0_0
gsave
1.000 0.000 0.000 setrgbcolor
fill
grestore
stroke
grestore
gsave
209.4 225.3 55.42 41.79 clipbox
934.893 86.8568 p0_0
gsave
1.000 0.000 0.000 setrgbcolor
fill
grestore
stroke
grestore
gsave
209.4 225.3 55.42 41.79 clipbox
1353.69 86.8568 p0_0
gsave
1.000 0.000 0.000 setrgbcolor
fill
grestore
stroke
grestore
gsave
209.4 225.3 55.42 41.79 clipbox
97.301 537.515 p0_0
gsave
1.000 0.000 0.000 setrgbcolor
fill
grestore
stroke
grestore
gsave
209.4 225.3 55.42 41.79 clipbox
516.097 537.515 p0_0
gsave
1.000 0.000 0.000 setrgbcolor
fill
grestore
stroke
grestore
gsave
209.4 225.3 55.42 41.79 clipbox
934.893 537.515 p0_0
gsave
1.000 0.000 0.000 setrgbcolor
fill
grestore
stroke
grestore
gsave
209.4 225.3 55.42 41.79 clipbox
1353.69 537.515 p0_0
gsave
1.000 0.000 0.000 setrgbcolor
fill
grestore
stroke
grestore
gsave
209.4 225.3 55.42 41.79 clipbox
97.301 988.173 p0_0
gsave
1.000 0.000 0.000 setrgbcolor
fill
grestore
stroke
grestore
gsave
209.4 225.3 55.42 41.79 clipbox
516.097 988.173 p0_0
gsave
1.000 0.000 0.000 setrgbcolor
fill
grestore
stroke
grestore
gsave
209.4 225.3 55.42 41.79 clipbox
934.893 988.173 p0_0
gsave
1.000 0.000 0.000 setrgbcolor
fill
grestore
stroke
grestore
gsave
209.4 225.3 55.42 41.79 clipbox
1353.69 988.173 p0_0
gsave
1.000 0.000 0.000 setrgbcolor
fill
grestore
stroke
grestore
gsave
209.4 225.3 55.42 41.79 clipbox
97.301 1438.83 p0_0
gsave
1.000 0.000 0.000 setrgbcolor
fill
grestore
stroke
grestore
gsave
209.4 225.3 55.42 41.79 clipbox
516.097 1438.83 p0_0
gsave
1.000 0.000 0.000 setrgbcolor
fill
grestore
stroke
grestore
gsave
209.4 225.3 55.42 41.79 clipbox
934.893 1438.83 p0_0
gsave
1.000 0.000 0.000 setrgbcolor
fill
grestore
stroke
grestore
gsave
209.4 225.3 55.42 41.79 clipbox
1353.69 1438.83 p0_0
gsave
1.000 0.000 0.000 setrgbcolor
fill
grestore
stroke
grestore
0 setlinejoin
0.500 setgray
gsave
209.4 225.3 55.42 41.79 clipbox
214.564 131.923 m
206.188 127.416 l
206.188 131.472 l
151.744 131.472 l
151.744 132.373 l
206.188 132.373 l
206.188 136.429 l
cl
gsave
fill
grestore
stroke
grestore
gsave
209.4 225.3 55.42 41.79 clipbox
222.94 213.041 m
227.128 204.028 l
223.359 204.028 l
223.359 145.442 l
222.521 145.442 l
222.521 204.028 l
218.752 204.028 l
cl
gsave
fill
grestore
stroke
grestore
gsave
209.4 225.3 55.42 41.79 clipbox
147.557 222.054 m
155.932 226.561 l
155.932 222.505 l
210.376 222.505 l
210.376 221.604 l
155.932 221.604 l
155.932 217.548 l
cl
gsave
fill
grestore
stroke
grestore
gsave
209.4 225.3 55.42 41.79 clipbox
139.181 140.936 m
134.993 149.949 l
138.762 149.949 l
138.762 208.534 l
139.599 208.534 l
139.599 149.949 l
143.369 149.949 l
cl
gsave
fill
grestore
stroke
grestore
1 setlinejoin
0.000 setgray
gsave
209.4 225.3 55.42 41.79 clipbox
/o {
gsave
newpath
translate
1.0 setlinewidth
1 setlinejoin
0 setlinecap
-7.5 -7.5 m
7.5 7.5 l
-7.5 7.5 m
7.5 -7.5 l
gsave
0.000 setgray
fill
grestore
stroke
grestore
} bind def
139.181 131.923 o
grestore
gsave
209.4 225.3 55.42 41.79 clipbox
/o {
gsave
newpath
translate
1.0 setlinewidth
1 setlinejoin
0 setlinecap
-7.5 -7.5 m
7.5 7.5 l
-7.5 7.5 m
7.5 -7.5 l
gsave
0.000 setgray
fill
grestore
stroke
grestore
} bind def
222.94 131.923 o
grestore
gsave
209.4 225.3 55.42 41.79 clipbox
/o {
gsave
newpath
translate
1.0 setlinewidth
1 setlinejoin
0 setlinecap
-7.5 -7.5 m
7.5 7.5 l
-7.5 7.5 m
7.5 -7.5 l
gsave
0.000 setgray
fill
grestore
stroke
grestore
} bind def
222.94 222.054 o
grestore
gsave
209.4 225.3 55.42 41.79 clipbox
/o {
gsave
newpath
translate
1.0 setlinewidth
1 setlinejoin
0 setlinecap
-7.5 -7.5 m
7.5 7.5 l
-7.5 7.5 m
7.5 -7.5 l
gsave
0.000 setgray
fill
grestore
stroke
grestore
} bind def
139.181 222.054 o
grestore
0 setlinejoin
2 setlinecap
gsave
55.4214 267.12 m
264.819 267.12 l
stroke
grestore
gsave
264.819 41.7909 m
264.819 267.12 l
stroke
grestore
gsave
55.4214 41.7909 m
264.819 41.7909 l
stroke
grestore
gsave
55.4214 41.7909 m
55.4214 267.12 l
stroke
grestore
0.500 setlinewidth
1 setlinejoin
0 setlinecap
gsave
/o {
gsave
newpath
translate
0.5 setlinewidth
1 setlinejoin
0 setlinecap
0 0 m
0 4 l
gsave
0.000 setgray
fill
grestore
stroke
grestore
} bind def
55.4214 41.7909 o
grestore
gsave
/o {
gsave
newpath
translate
0.5 setlinewidth
1 setlinejoin
0 setlinecap
0 0 m
0 -4 l
gsave
0.000 setgray
fill
grestore
stroke
grestore
} bind def
55.4214 267.12 o
grestore
/BitstreamVeraSans-Roman findfont
10.000 scalefont
setfont
gsave
44.273000 30.197188 translate
0.000000 rotate
0.000000 0.000000 m /minus glyphshow
8.378906 0.000000 m /zero glyphshow
14.741211 0.000000 m /period glyphshow
17.919922 0.000000 m /one glyphshow
grestore
gsave
/o {
gsave
newpath
translate
0.5 setlinewidth
1 setlinejoin
0 setlinecap
0 0 m
0 4 l
gsave
0.000 setgray
fill
grestore
stroke
grestore
} bind def
97.301 41.7909 o
grestore
gsave
/o {
gsave
newpath
translate
0.5 setlinewidth
1 setlinejoin
0 setlinecap
0 0 m
0 -4 l
gsave
0.000 setgray
fill
grestore
stroke
grestore
} bind def
97.301 267.12 o
grestore
gsave
90.004150 30.197188 translate
0.000000 rotate
0.000000 0.000000 m /zero glyphshow
6.362305 0.000000 m /period glyphshow
9.541016 0.000000 m /zero glyphshow
grestore
gsave
/o {
gsave
newpath
translate
0.5 setlinewidth
1 setlinejoin
0 setlinecap
0 0 m
0 4 l
gsave
0.000 setgray
fill
grestore
stroke
grestore
} bind def
139.181 41.7909 o
grestore
gsave
/o {
gsave
newpath
translate
0.5 setlinewidth
1 setlinejoin
0 setlinecap
0 0 m
0 -4 l
gsave
0.000 setgray
fill
grestore
stroke
grestore
} bind def
139.181 267.12 o
grestore
gsave
132.016550 30.197188 translate
0.000000 rotate
0.000000 0.000000 m /zero glyphshow
6.362305 0.000000 m /period glyphshow
9.541016 0.000000 m /one glyphshow
grestore
gsave
/o {
gsave
newpath
translate
0.5 setlinewidth
1 setlinejoin
0 setlinecap
0 0 m
0 4 l
gsave
0.000 setgray
fill
grestore
stroke
grestore
} bind def
181.06 41.7909 o
grestore
gsave
/o {
gsave
newpath
translate
0.5 setlinewidth
1 setlinejoin
0 setlinecap
0 0 m
0 -4 l
gsave
0.000 setgray
fill
grestore
stroke
grestore
} bind def
181.06 267.12 o
grestore
gsave
173.935200 30.197188 translate
0.000000 rotate
0.000000 0.000000 m /zero glyphshow
6.362305 0.000000 m /period glyphshow
9.541016 0.000000 m /two glyphshow
grestore
gsave
/o {
gsave
newpath
translate
0.5 setlinewidth
1 setlinejoin
0 setlinecap
0 0 m
0 4 l
gsave
0.000 setgray
fill
grestore
stroke
grestore
} bind def
222.94 41.7909 o
grestore
gsave
/o {
gsave
newpath
translate
0.5 setlinewidth
1 setlinejoin
0 setlinecap
0 0 m
0 -4 l
gsave
0.000 setgray
fill
grestore
stroke
grestore
} bind def
222.94 267.12 o
grestore
gsave
215.713225 30.197188 translate
0.000000 rotate
0.000000 0.000000 m /zero glyphshow
6.362305 0.000000 m /period glyphshow
9.541016 0.000000 m /three glyphshow
grestore
gsave
/o {
gsave
newpath
translate
0.5 setlinewidth
1 setlinejoin
0 setlinecap
0 0 m
0 4 l
gsave
0.000 setgray
fill
grestore
stroke
grestore
} bind def
264.819 41.7909 o
grestore
gsave
/o {
gsave
newpath
translate
0.5 setlinewidth
1 setlinejoin
0 setlinecap
0 0 m
0 -4 l
gsave
0.000 setgray
fill
grestore
stroke
grestore
} bind def
264.819 267.12 o
grestore
gsave
257.475625 30.197188 translate
0.000000 rotate
0.000000 0.000000 m /zero glyphshow
6.362305 0.000000 m /period glyphshow
9.541016 0.000000 m /four glyphshow
grestore
gsave
153.120406 15.119063 translate
0.000000 rotate
/Cmr10 findfont
10.0 scalefont
setfont
0.000000 0.953125 moveto
/Theta glyphshow

/Cmmi10 findfont
7.0 scalefont
setfont
7.768555 -1.597812 moveto
/x glyphshow


grestore
gsave
/o {
gsave
newpath
translate
0.5 setlinewidth
1 setlinejoin
0 setlinecap
0 0 m
4 0 l
gsave
0.000 setgray
fill
grestore
stroke
grestore
} bind def
55.4214 41.7909 o
grestore
gsave
/o {
gsave
newpath
translate
0.5 setlinewidth
1 setlinejoin
0 setlinecap
0 0 m
-4 0 l
gsave
0.000 setgray
fill
grestore
stroke
grestore
} bind def
264.819 41.7909 o
grestore
gsave
29.124563 39.033125 translate
0.000000 rotate
0.000000 0.000000 m /minus glyphshow
8.378906 0.000000 m /zero glyphshow
14.741211 0.000000 m /period glyphshow
17.919922 0.000000 m /one glyphshow
grestore
gsave
/o {
gsave
newpath
translate
0.5 setlinewidth
1 setlinejoin
0 setlinecap
0 0 m
4 0 l
gsave
0.000 setgray
fill
grestore
stroke
grestore
} bind def
55.4214 86.8568 o
grestore
gsave
/o {
gsave
newpath
translate
0.5 setlinewidth
1 setlinejoin
0 setlinecap
0 0 m
-4 0 l
gsave
0.000 setgray
fill
grestore
stroke
grestore
} bind def
264.819 86.8568 o
grestore
gsave
36.827688 84.098938 translate
0.000000 rotate
0.000000 0.000000 m /zero glyphshow
6.362305 0.000000 m /period glyphshow
9.541016 0.000000 m /zero glyphshow
grestore
gsave
/o {
gsave
newpath
translate
0.5 setlinewidth
1 setlinejoin
0 setlinecap
0 0 m
4 0 l
gsave
0.000 setgray
fill
grestore
stroke
grestore
} bind def
55.4214 131.923 o
grestore
gsave
/o {
gsave
newpath
translate
0.5 setlinewidth
1 setlinejoin
0 setlinecap
0 0 m
-4 0 l
gsave
0.000 setgray
fill
grestore
stroke
grestore
} bind def
264.819 131.923 o
grestore
gsave
37.093313 129.164750 translate
0.000000 rotate
0.000000 0.000000 m /zero glyphshow
6.362305 0.000000 m /period glyphshow
9.541016 0.000000 m /one glyphshow
grestore
gsave
/o {
gsave
newpath
translate
0.5 setlinewidth
1 setlinejoin
0 setlinecap
0 0 m
4 0 l
gsave
0.000 setgray
fill
grestore
stroke
grestore
} bind def
55.4214 176.988 o
grestore
gsave
/o {
gsave
newpath
translate
0.5 setlinewidth
1 setlinejoin
0 setlinecap
0 0 m
-4 0 l
gsave
0.000 setgray
fill
grestore
stroke
grestore
} bind def
264.819 176.988 o
grestore
gsave
37.171438 174.230563 translate
0.000000 rotate
0.000000 0.000000 m /zero glyphshow
6.362305 0.000000 m /period glyphshow
9.541016 0.000000 m /two glyphshow
grestore
gsave
/o {
gsave
newpath
translate
0.5 setlinewidth
1 setlinejoin
0 setlinecap
0 0 m
4 0 l
gsave
0.000 setgray
fill
grestore
stroke
grestore
} bind def
55.4214 222.054 o
grestore
gsave
/o {
gsave
newpath
translate
0.5 setlinewidth
1 setlinejoin
0 setlinecap
0 0 m
-4 0 l
gsave
0.000 setgray
fill
grestore
stroke
grestore
} bind def
264.819 222.054 o
grestore
gsave
36.968313 219.296375 translate
0.000000 rotate
0.000000 0.000000 m /zero glyphshow
6.362305 0.000000 m /period glyphshow
9.541016 0.000000 m /three glyphshow
grestore
gsave
/o {
gsave
newpath
translate
0.5 setlinewidth
1 setlinejoin
0 setlinecap
0 0 m
4 0 l
gsave
0.000 setgray
fill
grestore
stroke
grestore
} bind def
55.4214 267.12 o
grestore
gsave
/o {
gsave
newpath
translate
0.5 setlinewidth
1 setlinejoin
0 setlinecap
0 0 m
-4 0 l
gsave
0.000 setgray
fill
grestore
stroke
grestore
} bind def
264.819 267.12 o
grestore
gsave
36.733938 264.362188 translate
0.000000 rotate
0.000000 0.000000 m /zero glyphshow
6.362305 0.000000 m /period glyphshow
9.541016 0.000000 m /four glyphshow
grestore
gsave
20.124563 147.955469 translate
90.000000 rotate
/Cmr10 findfont
10.0 scalefont
setfont
0.000000 0.953125 moveto
/Theta glyphshow

/Cmmi10 findfont
7.0 scalefont
setfont
7.768555 -1.597812 moveto
/y glyphshow


grestore
gsave
120.116736 115.902819 translate
0.000000 rotate
/Cmr10 findfont
10.0 scalefont
setfont
0.000000 0.953125 moveto
/Theta glyphshow

/Cmr10 findfont
7.0 scalefont
setfont
7.768555 -1.597812 moveto
/one glyphshow


grestore
gsave
172.060200 120.409400 translate
0.000000 rotate
/Cmmi10 findfont
10.0 scalefont
setfont
0.000000 0.953125 moveto
/d glyphshow

/Cmr10 findfont
10.0 scalefont
setfont
5.200195 0.953125 moveto
/Theta glyphshow

/Cmr10 findfont
7.0 scalefont
setfont
12.968750 -1.597812 moveto
/one glyphshow


grestore
gsave
229.003664 115.902819 translate
0.000000 rotate
/Cmr10 findfont
10.0 scalefont
setfont
0.000000 0.953125 moveto
/Theta glyphshow

/Cmr10 findfont
7.0 scalefont
setfont
7.768555 -1.597812 moveto
/two glyphshow


grestore
gsave
226.503664 174.488375 translate
0.000000 rotate
/Cmmi10 findfont
10.0 scalefont
setfont
0.000000 0.953125 moveto
/d glyphshow

/Cmr10 findfont
10.0 scalefont
setfont
5.200195 0.953125 moveto
/Theta glyphshow

/Cmr10 findfont
7.0 scalefont
setfont
12.968750 -1.597812 moveto
/two glyphshow


grestore
gsave
229.003664 233.073931 translate
0.000000 rotate
/Cmr10 findfont
10.0 scalefont
setfont
0.000000 0.953125 moveto
/Theta glyphshow

/Cmr10 findfont
7.0 scalefont
setfont
7.768555 -1.597812 moveto
/three glyphshow


grestore
gsave
172.060200 228.567350 translate
0.000000 rotate
/Cmmi10 findfont
10.0 scalefont
setfont
0.000000 0.953125 moveto
/d glyphshow

/Cmr10 findfont
10.0 scalefont
setfont
5.200195 0.953125 moveto
/Theta glyphshow

/Cmr10 findfont
7.0 scalefont
setfont
12.968750 -1.597812 moveto
/three glyphshow


grestore
gsave
120.116736 233.073931 translate
0.000000 rotate
/Cmr10 findfont
10.0 scalefont
setfont
0.000000 0.953125 moveto
/Theta glyphshow

/Cmr10 findfont
7.0 scalefont
setfont
7.768555 -1.597812 moveto
/four glyphshow


grestore
gsave
117.616736 174.488375 translate
0.000000 rotate
/Cmmi10 findfont
10.0 scalefont
setfont
0.000000 0.953125 moveto
/d glyphshow

/Cmr10 findfont
10.0 scalefont
setfont
5.200195 0.953125 moveto
/Theta glyphshow

/Cmr10 findfont
7.0 scalefont
setfont
12.968750 -1.597812 moveto
/four glyphshow


grestore

end
showpage
