%!PS-Adobe-3.0 EPSF-3.0
%%Title: D:\MyWorkspace\Projects\Master2\LocalData\Figures\theta_path3.eps
%%Creator: matplotlib version 1.4.3, http://matplotlib.org/
%%CreationDate: Sat Apr 23 21:47:23 2016
%%Orientation: portrait
%%BoundingBox: 164 254 447 537
%%EndComments
%%BeginProlog
/mpldict 10 dict def
mpldict begin
/m { moveto } bind def
/l { lineto } bind def
/r { rlineto } bind def
/c { curveto } bind def
/cl { closepath } bind def
/box {
m
1 index 0 r
0 exch r
neg 0 r
cl
} bind def
/clipbox {
box
clip
newpath
} bind def
%!PS-Adobe-3.0 Resource-Font
%%Title: cmmi10
%%Copyright: Copyright (C) 1994, Basil K. Malyshev. All Rights Reserved.012BaKoMa Fonts Collection, Level-B.
%%Creator: Converted from TrueType to type 3 by PPR
25 dict begin
/_d{bind def}bind def
/_m{moveto}_d
/_l{lineto}_d
/_cl{closepath eofill}_d
/_c{curveto}_d
/_sc{7 -1 roll{setcachedevice}{pop pop pop pop pop pop}ifelse}_d
/_e{exec}_d
/FontName /Cmmi10 def
/PaintType 0 def
/FontMatrix[.001 0 0 .001 0 0]def
/FontBBox[-34 -250 1048 750]def
/FontType 3 def
/Encoding [ /x /y ] def
/FontInfo 10 dict dup begin
/FamilyName (cmmi10) def
/FullName (cmmi10) def
/Notice (Copyright (C) 1994, Basil K. Malyshev. All Rights Reserved.012BaKoMa Fonts Collection, Level-B. ) def
/Weight (Regular) def
/Version (1.1/12-Nov-94) def
/ItalicAngle 0.0 def
/isFixedPitch false def
/UnderlinePosition -133 def
/UnderlineThickness 20 def
end readonly def
/CharStrings 2 dict dup begin
/x{{571 0 31 -10 526 442 _sc
78 29 _m
90 19 106 15 128 15 _c
148 15 167 25 183 45 _c
199 65 210 87 216 111 _c
261 288 _l
268 320 272 342 272 354 _c
272 370 267 385 258 397 _c
248 409 235 416 219 416 _c
198 416 178 409 160 396 _c
141 382 125 365 113 345 _c
100 325 91 304 86 284 _c
84 280 82 278 78 278 _c
66 278 _l
60 278 58 281 58 287 _c
58 290 _l
}_e{64 314 75 338 91 362 _c
107 386 126 405 149 420 _c
171 434 195 442 221 442 _c
245 442 267 435 287 422 _c
307 409 321 391 329 369 _c
340 389 354 407 372 421 _c
390 435 409 442 431 442 _c
445 442 460 439 475 434 _c
490 429 502 421 512 411 _c
521 401 526 388 526 372 _c
526 355 520 340 509 328 _c
498 316 484 310 468 310 _c
457 310 448 313 441 320 _c
}_e{433 327 430 336 430 346 _c
430 360 434 372 444 383 _c
454 393 465 400 479 402 _c
467 411 450 416 429 416 _c
407 416 389 406 373 386 _c
357 366 346 344 340 320 _c
296 143 _l
288 116 285 94 285 77 _c
285 60 289 45 299 33 _c
309 21 322 15 338 15 _c
369 15 397 28 421 56 _c
445 84 462 114 470 147 _c
471 151 474 153 478 153 _c
490 153 _l
492 153 494 152 496 150 _c
}_e{498 148 499 146 499 144 _c
499 143 498 142 498 141 _c
488 101 468 66 438 36 _c
408 5 374 -10 336 -10 _c
311 -10 289 -3 269 9 _c
249 21 236 39 228 62 _c
217 42 202 25 184 11 _c
166 -3 146 -10 126 -10 _c
111 -10 96 -7 81 -3 _c
66 1 54 9 45 19 _c
35 29 31 43 31 59 _c
31 75 36 89 47 102 _c
57 114 71 121 88 121 _c
}_e{98 121 107 117 115 111 _c
123 104 127 95 127 85 _c
127 71 122 58 113 48 _c
103 38 92 31 78 29 _c
_cl}_e}_d
/y{{490 0 27 -204 492 442 _sc
84 -142 _m
98 -166 122 -178 157 -178 _c
189 -178 216 -167 239 -145 _c
262 -123 281 -96 295 -65 _c
309 -33 320 -1 328 31 _c
298 3 266 -10 232 -10 _c
205 -10 182 -5 164 3 _c
146 11 131 25 121 43 _c
111 61 106 83 106 109 _c
106 131 109 153 115 176 _c
121 198 129 224 139 252 _c
149 280 159 305 167 326 _c
175 350 180 370 180 386 _c
}_e{180 406 172 416 158 416 _c
132 416 110 402 93 375 _c
75 347 63 317 55 284 _c
53 280 51 278 47 278 _c
35 278 _l
29 278 27 281 27 287 _c
27 290 _l
37 330 54 365 76 396 _c
98 426 126 442 160 442 _c
184 442 204 434 220 418 _c
236 402 245 383 245 359 _c
245 346 242 333 237 320 _c
233 312 226 294 216 267 _c
206 239 198 217 193 199 _c
187 181 183 163 179 146 _c
}_e{175 128 174 111 174 94 _c
174 72 178 53 188 38 _c
197 22 212 15 233 15 _c
274 15 311 40 344 91 _c
420 399 _l
422 407 427 415 435 421 _c
443 427 452 431 462 431 _c
470 431 477 428 483 423 _c
489 418 492 411 492 403 _c
492 399 491 396 491 395 _c
392 -2 _l
383 -36 367 -68 344 -100 _c
320 -131 292 -156 259 -175 _c
225 -194 191 -204 156 -204 _c
138 -204 121 -200 104 -194 _c
}_e{87 -187 73 -177 63 -164 _c
53 -150 48 -135 48 -117 _c
48 -99 53 -83 64 -70 _c
74 -56 89 -50 107 -50 _c
117 -50 126 -53 134 -60 _c
141 -66 145 -75 145 -86 _c
145 -101 139 -114 128 -126 _c
116 -137 103 -143 88 -143 _c
87 -143 86 -142 86 -142 _c
85 -142 84 -142 84 -142 _c
_cl}_e}_d
end readonly def

/BuildGlyph
 {exch begin
 CharStrings exch
 2 copy known not{pop /.notdef}if
 true 3 1 roll get exec
 end}_d

/BuildChar {
 1 index /Encoding get exch get
 1 index /BuildGlyph get exec
}_d

FontName currentdict end definefont pop
%!PS-Adobe-3.0 Resource-Font
%%Title: Bitstream Vera Sans
%%Copyright: Copyright (c) 2003 by Bitstream, Inc. All Rights Reserved.
%%Creator: Converted from TrueType to type 3 by PPR
25 dict begin
/_d{bind def}bind def
/_m{moveto}_d
/_l{lineto}_d
/_cl{closepath eofill}_d
/_c{curveto}_d
/_sc{7 -1 roll{setcachedevice}{pop pop pop pop pop pop}ifelse}_d
/_e{exec}_d
/FontName /BitstreamVeraSans-Roman def
/PaintType 0 def
/FontMatrix[.001 0 0 .001 0 0]def
/FontBBox[-183 -236 1287 928]def
/FontType 3 def
/Encoding [ /zero /one /two /three ] def
/FontInfo 10 dict dup begin
/FamilyName (Bitstream Vera Sans) def
/FullName (Bitstream Vera Sans) def
/Notice (Copyright (c) 2003 by Bitstream, Inc. All Rights Reserved. Bitstream Vera is a trademark of Bitstream, Inc.) def
/Weight (Roman) def
/Version (Release 1.10) def
/ItalicAngle 0.0 def
/isFixedPitch false def
/UnderlinePosition -213 def
/UnderlineThickness 143 def
end readonly def
/CharStrings 4 dict dup begin
/zero{636 0 66 -13 570 742 _sc
318 664 _m
267 664 229 639 203 589 _c
177 539 165 464 165 364 _c
165 264 177 189 203 139 _c
229 89 267 64 318 64 _c
369 64 407 89 433 139 _c
458 189 471 264 471 364 _c
471 464 458 539 433 589 _c
407 639 369 664 318 664 _c
318 742 _m
399 742 461 709 505 645 _c
548 580 570 486 570 364 _c
570 241 548 147 505 83 _c
461 19 399 -13 318 -13 _c
236 -13 173 19 130 83 _c
87 147 66 241 66 364 _c
66 486 87 580 130 645 _c
173 709 236 742 318 742 _c
_cl}_d
/one{636 0 110 0 544 729 _sc
124 83 _m
285 83 _l
285 639 _l
110 604 _l
110 694 _l
284 729 _l
383 729 _l
383 83 _l
544 83 _l
544 0 _l
124 0 _l
124 83 _l
_cl}_d
/two{{636 0 73 0 536 742 _sc
192 83 _m
536 83 _l
536 0 _l
73 0 _l
73 83 _l
110 121 161 173 226 239 _c
290 304 331 346 348 365 _c
380 400 402 430 414 455 _c
426 479 433 504 433 528 _c
433 566 419 598 392 622 _c
365 646 330 659 286 659 _c
255 659 222 653 188 643 _c
154 632 117 616 78 594 _c
78 694 _l
118 710 155 722 189 730 _c
223 738 255 742 284 742 _c
}_e{359 742 419 723 464 685 _c
509 647 532 597 532 534 _c
532 504 526 475 515 449 _c
504 422 484 390 454 354 _c
446 344 420 317 376 272 _c
332 227 271 164 192 83 _c
_cl}_e}_d
/three{{636 0 76 -13 556 742 _sc
406 393 _m
453 383 490 362 516 330 _c
542 298 556 258 556 212 _c
556 140 531 84 482 45 _c
432 6 362 -13 271 -13 _c
240 -13 208 -10 176 -4 _c
144 1 110 10 76 22 _c
76 117 _l
103 101 133 89 166 81 _c
198 73 232 69 268 69 _c
330 69 377 81 409 105 _c
441 129 458 165 458 212 _c
458 254 443 288 413 312 _c
383 336 341 349 287 349 _c
}_e{202 349 _l
202 430 _l
291 430 _l
339 430 376 439 402 459 _c
428 478 441 506 441 543 _c
441 580 427 609 401 629 _c
374 649 336 659 287 659 _c
260 659 231 656 200 650 _c
169 644 135 635 98 623 _c
98 711 _l
135 721 170 729 203 734 _c
235 739 266 742 296 742 _c
370 742 429 725 473 691 _c
517 657 539 611 539 553 _c
539 513 527 479 504 451 _c
481 423 448 403 406 393 _c
_cl}_e}_d
end readonly def

/BuildGlyph
 {exch begin
 CharStrings exch
 2 copy known not{pop /.notdef}if
 true 3 1 roll get exec
 end}_d

/BuildChar {
 1 index /Encoding get exch get
 1 index /BuildGlyph get exec
}_d

FontName currentdict end definefont pop
%!PS-Adobe-3.0 Resource-Font
%%Title: cmr10
%%Copyright: Copyright (C) 1994, Basil K. Malyshev. All Rights Reserved.012BaKoMa Fonts Collection, Level-B.
%%Creator: Converted from TrueType to type 3 by PPR
25 dict begin
/_d{bind def}bind def
/_m{moveto}_d
/_l{lineto}_d
/_cl{closepath eofill}_d
/_c{curveto}_d
/_sc{7 -1 roll{setcachedevice}{pop pop pop pop pop pop}ifelse}_d
/_e{exec}_d
/FontName /Cmr10 def
/PaintType 0 def
/FontMatrix[.001 0 0 .001 0 0]def
/FontBBox[-44 -250 1009 750]def
/FontType 3 def
/Encoding [ /Theta ] def
/FontInfo 10 dict dup begin
/FamilyName (cmr10) def
/FullName (cmr10) def
/Notice (Copyright (C) 1994, Basil K. Malyshev. All Rights Reserved.012BaKoMa Fonts Collection, Level-B. ) def
/Weight (Regular) def
/Version (1.1/12-Nov-94) def
/ItalicAngle 0.0 def
/isFixedPitch false def
/UnderlinePosition -133 def
/UnderlineThickness 20 def
end readonly def
/CharStrings 1 dict dup begin
/Theta{{777 0 56 -21 721 705 _sc
389 -21 _m
325 -21 268 -4 218 29 _c
167 62 127 107 99 163 _c
70 219 56 277 56 339 _c
56 384 64 429 80 474 _c
96 518 119 558 149 593 _c
179 627 214 655 256 675 _c
297 695 341 705 389 705 _c
436 705 480 694 522 674 _c
563 654 598 626 628 592 _c
658 557 681 518 697 475 _c
713 431 721 386 721 339 _c
721 277 706 219 678 163 _c
}_e{649 107 609 62 559 29 _c
508 -4 451 -21 389 -21 _c
219 101 _m
231 82 246 65 264 51 _c
282 37 301 25 322 17 _c
343 9 365 5 389 5 _c
422 5 453 13 483 31 _c
513 48 538 71 558 101 _c
599 160 620 239 620 339 _c
620 439 599 519 558 581 _c
538 610 513 634 484 652 _c
454 670 423 679 389 679 _c
354 679 322 670 293 652 _c
263 634 239 610 219 581 _c
}_e{197 547 181 510 171 470 _c
161 429 157 385 157 339 _c
157 308 158 279 162 252 _c
166 224 172 198 182 172 _c
191 146 203 123 219 101 _c
214 268 _m
214 416 _l
243 416 _l
243 382 _l
534 382 _l
534 416 _l
563 416 _l
563 268 _l
534 268 _l
534 302 _l
243 302 _l
243 268 _l
214 268 _l
_cl}_e}_d
end readonly def

/BuildGlyph
 {exch begin
 CharStrings exch
 2 copy known not{pop /.notdef}if
 true 3 1 roll get exec
 end}_d

/BuildChar {
 1 index /Encoding get exch get
 1 index /BuildGlyph get exec
}_d

FontName currentdict end definefont pop
end
%%EndProlog
mpldict begin
164.52 254.52 translate
282.96 282.96 0 0 clipbox
gsave
0 0 m
282.96 0 l
282.96 282.96 l
0 282.96 l
cl
1.000 setgray
fill
grestore
gsave
38.0739 41.7909 m
272.16 41.7909 l
272.16 272.16 l
38.0739 272.16 l
cl
1.000 setgray
fill
grestore
4.000 setlinewidth
1 setlinejoin
0 setlinecap
[6 6] 0 setdash
0.800 setgray
gsave
234.1 230.4 38.07 41.79 clipbox
51.0787 28.9927 m
51.0787 283.96 l
stroke
grestore
gsave
234.1 230.4 38.07 41.79 clipbox
259.155 28.9927 m
259.155 283.96 l
stroke
grestore
gsave
234.1 230.4 38.07 41.79 clipbox
25.0692 54.5892 m
283.96 54.5892 l
stroke
grestore
gsave
234.1 230.4 38.07 41.79 clipbox
25.0692 259.362 m
283.96 259.362 l
stroke
grestore
1.000 setlinewidth
2 setlinecap
[] 0 setdash
0.100 setgray
gsave
234.1 230.4 38.07 41.79 clipbox
77.0883 28.9927 m
77.0883 283.96 l
stroke
grestore
gsave
234.1 230.4 38.07 41.79 clipbox
129.107 28.9927 m
129.107 283.96 l
stroke
grestore
gsave
234.1 230.4 38.07 41.79 clipbox
181.127 28.9927 m
181.127 283.96 l
stroke
grestore
gsave
234.1 230.4 38.07 41.79 clipbox
233.146 28.9927 m
233.146 283.96 l
stroke
grestore
gsave
234.1 230.4 38.07 41.79 clipbox
25.0692 80.1858 m
283.96 80.1858 l
stroke
grestore
gsave
234.1 230.4 38.07 41.79 clipbox
25.0692 131.379 m
283.96 131.379 l
stroke
grestore
gsave
234.1 230.4 38.07 41.79 clipbox
25.0692 182.572 m
283.96 182.572 l
stroke
grestore
gsave
234.1 230.4 38.07 41.79 clipbox
25.0692 233.765 m
283.96 233.765 l
stroke
grestore
/p0_0 {
newpath
translate
0 -5 m
1.32602 -5 2.5979 -4.47317 3.53553 -3.53553 c
4.47317 -2.5979 5 -1.32602 5 0 c
5 1.32602 4.47317 2.5979 3.53553 3.53553 c
2.5979 4.47317 1.32602 5 0 5 c
-1.32602 5 -2.5979 4.47317 -3.53553 3.53553 c
-4.47317 2.5979 -5 1.32602 -5 0 c
-5 -1.32602 -4.47317 -2.5979 -3.53553 -3.53553 c
-2.5979 -4.47317 -1.32602 -5 0 -5 c
cl
} bind def
0 setlinecap
0.000 setgray
gsave
234.1 230.4 38.07 41.79 clipbox
77.0883 80.1858 p0_0
gsave
1.000 0.000 0.000 setrgbcolor
fill
grestore
stroke
grestore
gsave
234.1 230.4 38.07 41.79 clipbox
129.107 80.1858 p0_0
gsave
1.000 0.000 0.000 setrgbcolor
fill
grestore
stroke
grestore
gsave
234.1 230.4 38.07 41.79 clipbox
181.127 80.1858 p0_0
gsave
1.000 0.000 0.000 setrgbcolor
fill
grestore
stroke
grestore
gsave
234.1 230.4 38.07 41.79 clipbox
233.146 80.1858 p0_0
gsave
1.000 0.000 0.000 setrgbcolor
fill
grestore
stroke
grestore
gsave
234.1 230.4 38.07 41.79 clipbox
77.0883 131.379 p0_0
gsave
1.000 0.000 0.000 setrgbcolor
fill
grestore
stroke
grestore
gsave
234.1 230.4 38.07 41.79 clipbox
129.107 131.379 p0_0
gsave
1.000 0.000 0.000 setrgbcolor
fill
grestore
stroke
grestore
gsave
234.1 230.4 38.07 41.79 clipbox
181.127 131.379 p0_0
gsave
1.000 0.000 0.000 setrgbcolor
fill
grestore
stroke
grestore
gsave
234.1 230.4 38.07 41.79 clipbox
233.146 131.379 p0_0
gsave
1.000 0.000 0.000 setrgbcolor
fill
grestore
stroke
grestore
gsave
234.1 230.4 38.07 41.79 clipbox
77.0883 182.572 p0_0
gsave
1.000 0.000 0.000 setrgbcolor
fill
grestore
stroke
grestore
gsave
234.1 230.4 38.07 41.79 clipbox
129.107 182.572 p0_0
gsave
1.000 0.000 0.000 setrgbcolor
fill
grestore
stroke
grestore
gsave
234.1 230.4 38.07 41.79 clipbox
181.127 182.572 p0_0
gsave
1.000 0.000 0.000 setrgbcolor
fill
grestore
stroke
grestore
gsave
234.1 230.4 38.07 41.79 clipbox
233.146 182.572 p0_0
gsave
1.000 0.000 0.000 setrgbcolor
fill
grestore
stroke
grestore
gsave
234.1 230.4 38.07 41.79 clipbox
77.0883 233.765 p0_0
gsave
1.000 0.000 0.000 setrgbcolor
fill
grestore
stroke
grestore
gsave
234.1 230.4 38.07 41.79 clipbox
129.107 233.765 p0_0
gsave
1.000 0.000 0.000 setrgbcolor
fill
grestore
stroke
grestore
gsave
234.1 230.4 38.07 41.79 clipbox
181.127 233.765 p0_0
gsave
1.000 0.000 0.000 setrgbcolor
fill
grestore
stroke
grestore
gsave
234.1 230.4 38.07 41.79 clipbox
233.146 233.765 p0_0
gsave
1.000 0.000 0.000 setrgbcolor
fill
grestore
stroke
grestore
0 setlinejoin
0.500 setgray
gsave
234.1 230.4 38.07 41.79 clipbox
89.0527 82.7454 m
88.0123 82.2335 l
88.0123 82.6942 l
81.2498 82.6942 l
81.2498 82.7966 l
88.0123 82.7966 l
88.0123 83.2574 l
cl
gsave
fill
grestore
stroke
grestore
gsave
234.1 230.4 38.07 41.79 clipbox
90.0931 91.9602 m
90.6133 90.9363 l
90.1451 90.9363 l
90.1451 84.2812 l
90.041 84.2812 l
90.041 90.9363 l
89.5729 90.9363 l
cl
gsave
fill
grestore
stroke
grestore
gsave
234.1 230.4 38.07 41.79 clipbox
80.7296 92.9841 m
81.77 93.496 l
81.77 93.0353 l
88.5325 93.0353 l
88.5325 92.9329 l
81.77 92.9329 l
81.77 92.4721 l
cl
gsave
fill
grestore
stroke
grestore
gsave
234.1 230.4 38.07 41.79 clipbox
79.6892 83.7693 m
79.169 84.7932 l
79.6372 84.7932 l
79.6372 91.4483 l
79.7413 91.4483 l
79.7413 84.7932 l
80.2094 84.7932 l
cl
gsave
fill
grestore
stroke
grestore
gsave
234.1 230.4 38.07 41.79 clipbox
89.0527 98.1034 m
88.0123 97.5914 l
88.0123 98.0522 l
81.2498 98.0522 l
81.2498 98.1546 l
88.0123 98.1546 l
88.0123 98.6153 l
cl
gsave
fill
grestore
stroke
grestore
gsave
234.1 230.4 38.07 41.79 clipbox
90.0931 107.318 m
90.6133 106.294 l
90.1451 106.294 l
90.1451 99.6392 l
90.041 99.6392 l
90.041 106.294 l
89.5729 106.294 l
cl
gsave
fill
grestore
stroke
grestore
gsave
234.1 230.4 38.07 41.79 clipbox
80.7296 108.342 m
81.77 108.854 l
81.77 108.393 l
88.5325 108.393 l
88.5325 108.291 l
81.77 108.291 l
81.77 107.83 l
cl
gsave
fill
grestore
stroke
grestore
gsave
234.1 230.4 38.07 41.79 clipbox
79.6892 99.1272 m
79.169 100.151 l
79.6372 100.151 l
79.6372 106.806 l
79.7413 106.806 l
79.7413 100.151 l
80.2094 100.151 l
cl
gsave
fill
grestore
stroke
grestore
gsave
234.1 230.4 38.07 41.79 clipbox
89.0527 113.461 m
88.0123 112.949 l
88.0123 113.41 l
81.2498 113.41 l
81.2498 113.513 l
88.0123 113.513 l
88.0123 113.973 l
cl
gsave
fill
grestore
stroke
grestore
gsave
234.1 230.4 38.07 41.79 clipbox
90.0931 122.676 m
90.6133 121.652 l
90.1451 121.652 l
90.1451 114.997 l
90.041 114.997 l
90.041 121.652 l
89.5729 121.652 l
cl
gsave
fill
grestore
stroke
grestore
gsave
234.1 230.4 38.07 41.79 clipbox
80.7296 123.7 m
81.77 124.212 l
81.77 123.751 l
88.5325 123.751 l
88.5325 123.649 l
81.77 123.649 l
81.77 123.188 l
cl
gsave
fill
grestore
stroke
grestore
gsave
234.1 230.4 38.07 41.79 clipbox
79.6892 114.485 m
79.169 115.509 l
79.6372 115.509 l
79.6372 122.164 l
79.7413 122.164 l
79.7413 115.509 l
80.2094 115.509 l
cl
gsave
fill
grestore
stroke
grestore
gsave
234.1 230.4 38.07 41.79 clipbox
89.0527 128.819 m
88.0123 128.307 l
88.0123 128.768 l
81.2498 128.768 l
81.2498 128.87 l
88.0123 128.87 l
88.0123 129.331 l
cl
gsave
fill
grestore
stroke
grestore
gsave
234.1 230.4 38.07 41.79 clipbox
90.0931 138.034 m
90.6133 137.01 l
90.1451 137.01 l
90.1451 130.355 l
90.041 130.355 l
90.041 137.01 l
89.5729 137.01 l
cl
gsave
fill
grestore
stroke
grestore
gsave
234.1 230.4 38.07 41.79 clipbox
80.7296 139.058 m
81.77 139.57 l
81.77 139.109 l
88.5325 139.109 l
88.5325 139.007 l
81.77 139.007 l
81.77 138.546 l
cl
gsave
fill
grestore
stroke
grestore
gsave
234.1 230.4 38.07 41.79 clipbox
79.6892 129.843 m
79.169 130.867 l
79.6372 130.867 l
79.6372 137.522 l
79.7413 137.522 l
79.7413 130.867 l
80.2094 130.867 l
cl
gsave
fill
grestore
stroke
grestore
gsave
234.1 230.4 38.07 41.79 clipbox
104.658 82.7454 m
103.618 82.2335 l
103.618 82.6942 l
96.8555 82.6942 l
96.8555 82.7966 l
103.618 82.7966 l
103.618 83.2574 l
cl
gsave
fill
grestore
stroke
grestore
gsave
234.1 230.4 38.07 41.79 clipbox
105.699 91.9602 m
106.219 90.9363 l
105.751 90.9363 l
105.751 84.2812 l
105.647 84.2812 l
105.647 90.9363 l
105.179 90.9363 l
cl
gsave
fill
grestore
stroke
grestore
gsave
234.1 230.4 38.07 41.79 clipbox
96.3354 92.9841 m
97.3757 93.496 l
97.3757 93.0353 l
104.138 93.0353 l
104.138 92.9329 l
97.3757 92.9329 l
97.3757 92.4721 l
cl
gsave
fill
grestore
stroke
grestore
gsave
234.1 230.4 38.07 41.79 clipbox
95.295 83.7693 m
94.7748 84.7932 l
95.243 84.7932 l
95.243 91.4483 l
95.347 91.4483 l
95.347 84.7932 l
95.8152 84.7932 l
cl
gsave
fill
grestore
stroke
grestore
gsave
234.1 230.4 38.07 41.79 clipbox
104.658 98.1034 m
103.618 97.5914 l
103.618 98.0522 l
96.8555 98.0522 l
96.8555 98.1546 l
103.618 98.1546 l
103.618 98.6153 l
cl
gsave
fill
grestore
stroke
grestore
gsave
234.1 230.4 38.07 41.79 clipbox
105.699 107.318 m
106.219 106.294 l
105.751 106.294 l
105.751 99.6392 l
105.647 99.6392 l
105.647 106.294 l
105.179 106.294 l
cl
gsave
fill
grestore
stroke
grestore
gsave
234.1 230.4 38.07 41.79 clipbox
96.3354 108.342 m
97.3757 108.854 l
97.3757 108.393 l
104.138 108.393 l
104.138 108.291 l
97.3757 108.291 l
97.3757 107.83 l
cl
gsave
fill
grestore
stroke
grestore
gsave
234.1 230.4 38.07 41.79 clipbox
95.295 99.1272 m
94.7748 100.151 l
95.243 100.151 l
95.243 106.806 l
95.347 106.806 l
95.347 100.151 l
95.8152 100.151 l
cl
gsave
fill
grestore
stroke
grestore
gsave
234.1 230.4 38.07 41.79 clipbox
104.658 113.461 m
103.618 112.949 l
103.618 113.41 l
96.8555 113.41 l
96.8555 113.513 l
103.618 113.513 l
103.618 113.973 l
cl
gsave
fill
grestore
stroke
grestore
gsave
234.1 230.4 38.07 41.79 clipbox
105.699 122.676 m
106.219 121.652 l
105.751 121.652 l
105.751 114.997 l
105.647 114.997 l
105.647 121.652 l
105.179 121.652 l
cl
gsave
fill
grestore
stroke
grestore
gsave
234.1 230.4 38.07 41.79 clipbox
96.3354 123.7 m
97.3757 124.212 l
97.3757 123.751 l
104.138 123.751 l
104.138 123.649 l
97.3757 123.649 l
97.3757 123.188 l
cl
gsave
fill
grestore
stroke
grestore
gsave
234.1 230.4 38.07 41.79 clipbox
95.295 114.485 m
94.7748 115.509 l
95.243 115.509 l
95.243 122.164 l
95.347 122.164 l
95.347 115.509 l
95.8152 115.509 l
cl
gsave
fill
grestore
stroke
grestore
gsave
234.1 230.4 38.07 41.79 clipbox
104.658 128.819 m
103.618 128.307 l
103.618 128.768 l
96.8555 128.768 l
96.8555 128.87 l
103.618 128.87 l
103.618 129.331 l
cl
gsave
fill
grestore
stroke
grestore
gsave
234.1 230.4 38.07 41.79 clipbox
105.699 138.034 m
106.219 137.01 l
105.751 137.01 l
105.751 130.355 l
105.647 130.355 l
105.647 137.01 l
105.179 137.01 l
cl
gsave
fill
grestore
stroke
grestore
gsave
234.1 230.4 38.07 41.79 clipbox
96.3354 139.058 m
97.3757 139.57 l
97.3757 139.109 l
104.138 139.109 l
104.138 139.007 l
97.3757 139.007 l
97.3757 138.546 l
cl
gsave
fill
grestore
stroke
grestore
gsave
234.1 230.4 38.07 41.79 clipbox
95.295 129.843 m
94.7748 130.867 l
95.243 130.867 l
95.243 137.522 l
95.347 137.522 l
95.347 130.867 l
95.8152 130.867 l
cl
gsave
fill
grestore
stroke
grestore
gsave
234.1 230.4 38.07 41.79 clipbox
120.264 82.7454 m
119.224 82.2335 l
119.224 82.6942 l
112.461 82.6942 l
112.461 82.7966 l
119.224 82.7966 l
119.224 83.2574 l
cl
gsave
fill
grestore
stroke
grestore
gsave
234.1 230.4 38.07 41.79 clipbox
121.305 91.9602 m
121.825 90.9363 l
121.357 90.9363 l
121.357 84.2812 l
121.253 84.2812 l
121.253 90.9363 l
120.784 90.9363 l
cl
gsave
fill
grestore
stroke
grestore
gsave
234.1 230.4 38.07 41.79 clipbox
111.941 92.9841 m
112.981 93.496 l
112.981 93.0353 l
119.744 93.0353 l
119.744 92.9329 l
112.981 92.9329 l
112.981 92.4721 l
cl
gsave
fill
grestore
stroke
grestore
gsave
234.1 230.4 38.07 41.79 clipbox
110.901 83.7693 m
110.381 84.7932 l
110.849 84.7932 l
110.849 91.4483 l
110.953 91.4483 l
110.953 84.7932 l
111.421 84.7932 l
cl
gsave
fill
grestore
stroke
grestore
gsave
234.1 230.4 38.07 41.79 clipbox
120.264 98.1034 m
119.224 97.5914 l
119.224 98.0522 l
112.461 98.0522 l
112.461 98.1546 l
119.224 98.1546 l
119.224 98.6153 l
cl
gsave
fill
grestore
stroke
grestore
gsave
234.1 230.4 38.07 41.79 clipbox
121.305 107.318 m
121.825 106.294 l
121.357 106.294 l
121.357 99.6392 l
121.253 99.6392 l
121.253 106.294 l
120.784 106.294 l
cl
gsave
fill
grestore
stroke
grestore
gsave
234.1 230.4 38.07 41.79 clipbox
111.941 108.342 m
112.981 108.854 l
112.981 108.393 l
119.744 108.393 l
119.744 108.291 l
112.981 108.291 l
112.981 107.83 l
cl
gsave
fill
grestore
stroke
grestore
gsave
234.1 230.4 38.07 41.79 clipbox
110.901 99.1272 m
110.381 100.151 l
110.849 100.151 l
110.849 106.806 l
110.953 106.806 l
110.953 100.151 l
111.421 100.151 l
cl
gsave
fill
grestore
stroke
grestore
gsave
234.1 230.4 38.07 41.79 clipbox
120.264 113.461 m
119.224 112.949 l
119.224 113.41 l
112.461 113.41 l
112.461 113.513 l
119.224 113.513 l
119.224 113.973 l
cl
gsave
fill
grestore
stroke
grestore
gsave
234.1 230.4 38.07 41.79 clipbox
121.305 122.676 m
121.825 121.652 l
121.357 121.652 l
121.357 114.997 l
121.253 114.997 l
121.253 121.652 l
120.784 121.652 l
cl
gsave
fill
grestore
stroke
grestore
gsave
234.1 230.4 38.07 41.79 clipbox
111.941 123.7 m
112.981 124.212 l
112.981 123.751 l
119.744 123.751 l
119.744 123.649 l
112.981 123.649 l
112.981 123.188 l
cl
gsave
fill
grestore
stroke
grestore
gsave
234.1 230.4 38.07 41.79 clipbox
110.901 114.485 m
110.381 115.509 l
110.849 115.509 l
110.849 122.164 l
110.953 122.164 l
110.953 115.509 l
111.421 115.509 l
cl
gsave
fill
grestore
stroke
grestore
gsave
234.1 230.4 38.07 41.79 clipbox
120.264 128.819 m
119.224 128.307 l
119.224 128.768 l
112.461 128.768 l
112.461 128.87 l
119.224 128.87 l
119.224 129.331 l
cl
gsave
fill
grestore
stroke
grestore
gsave
234.1 230.4 38.07 41.79 clipbox
121.305 138.034 m
121.825 137.01 l
121.357 137.01 l
121.357 130.355 l
121.253 130.355 l
121.253 137.01 l
120.784 137.01 l
cl
gsave
fill
grestore
stroke
grestore
gsave
234.1 230.4 38.07 41.79 clipbox
111.941 139.058 m
112.981 139.57 l
112.981 139.109 l
119.744 139.109 l
119.744 139.007 l
112.981 139.007 l
112.981 138.546 l
cl
gsave
fill
grestore
stroke
grestore
gsave
234.1 230.4 38.07 41.79 clipbox
110.901 129.843 m
110.381 130.867 l
110.849 130.867 l
110.849 137.522 l
110.953 137.522 l
110.953 130.867 l
111.421 130.867 l
cl
gsave
fill
grestore
stroke
grestore
gsave
234.1 230.4 38.07 41.79 clipbox
135.87 82.7454 m
134.83 82.2335 l
134.83 82.6942 l
128.067 82.6942 l
128.067 82.7966 l
134.83 82.7966 l
134.83 83.2574 l
cl
gsave
fill
grestore
stroke
grestore
gsave
234.1 230.4 38.07 41.79 clipbox
136.91 91.9602 m
137.43 90.9363 l
136.962 90.9363 l
136.962 84.2812 l
136.858 84.2812 l
136.858 90.9363 l
136.39 90.9363 l
cl
gsave
fill
grestore
stroke
grestore
gsave
234.1 230.4 38.07 41.79 clipbox
127.547 92.9841 m
128.587 93.496 l
128.587 93.0353 l
135.35 93.0353 l
135.35 92.9329 l
128.587 92.9329 l
128.587 92.4721 l
cl
gsave
fill
grestore
stroke
grestore
gsave
234.1 230.4 38.07 41.79 clipbox
126.506 83.7693 m
125.986 84.7932 l
126.454 84.7932 l
126.454 91.4483 l
126.558 91.4483 l
126.558 84.7932 l
127.027 84.7932 l
cl
gsave
fill
grestore
stroke
grestore
gsave
234.1 230.4 38.07 41.79 clipbox
135.87 98.1034 m
134.83 97.5914 l
134.83 98.0522 l
128.067 98.0522 l
128.067 98.1546 l
134.83 98.1546 l
134.83 98.6153 l
cl
gsave
fill
grestore
stroke
grestore
gsave
234.1 230.4 38.07 41.79 clipbox
136.91 107.318 m
137.43 106.294 l
136.962 106.294 l
136.962 99.6392 l
136.858 99.6392 l
136.858 106.294 l
136.39 106.294 l
cl
gsave
fill
grestore
stroke
grestore
gsave
234.1 230.4 38.07 41.79 clipbox
127.547 108.342 m
128.587 108.854 l
128.587 108.393 l
135.35 108.393 l
135.35 108.291 l
128.587 108.291 l
128.587 107.83 l
cl
gsave
fill
grestore
stroke
grestore
gsave
234.1 230.4 38.07 41.79 clipbox
126.506 99.1272 m
125.986 100.151 l
126.454 100.151 l
126.454 106.806 l
126.558 106.806 l
126.558 100.151 l
127.027 100.151 l
cl
gsave
fill
grestore
stroke
grestore
gsave
234.1 230.4 38.07 41.79 clipbox
135.87 113.461 m
134.83 112.949 l
134.83 113.41 l
128.067 113.41 l
128.067 113.513 l
134.83 113.513 l
134.83 113.973 l
cl
gsave
fill
grestore
stroke
grestore
gsave
234.1 230.4 38.07 41.79 clipbox
136.91 122.676 m
137.43 121.652 l
136.962 121.652 l
136.962 114.997 l
136.858 114.997 l
136.858 121.652 l
136.39 121.652 l
cl
gsave
fill
grestore
stroke
grestore
gsave
234.1 230.4 38.07 41.79 clipbox
127.547 123.7 m
128.587 124.212 l
128.587 123.751 l
135.35 123.751 l
135.35 123.649 l
128.587 123.649 l
128.587 123.188 l
cl
gsave
fill
grestore
stroke
grestore
gsave
234.1 230.4 38.07 41.79 clipbox
126.506 114.485 m
125.986 115.509 l
126.454 115.509 l
126.454 122.164 l
126.558 122.164 l
126.558 115.509 l
127.027 115.509 l
cl
gsave
fill
grestore
stroke
grestore
gsave
234.1 230.4 38.07 41.79 clipbox
135.87 128.819 m
134.83 128.307 l
134.83 128.768 l
128.067 128.768 l
128.067 128.87 l
134.83 128.87 l
134.83 129.331 l
cl
gsave
fill
grestore
stroke
grestore
gsave
234.1 230.4 38.07 41.79 clipbox
136.91 138.034 m
137.43 137.01 l
136.962 137.01 l
136.962 130.355 l
136.858 130.355 l
136.858 137.01 l
136.39 137.01 l
cl
gsave
fill
grestore
stroke
grestore
gsave
234.1 230.4 38.07 41.79 clipbox
127.547 139.058 m
128.587 139.57 l
128.587 139.109 l
135.35 139.109 l
135.35 139.007 l
128.587 139.007 l
128.587 138.546 l
cl
gsave
fill
grestore
stroke
grestore
gsave
234.1 230.4 38.07 41.79 clipbox
126.506 129.843 m
125.986 130.867 l
126.454 130.867 l
126.454 137.522 l
126.558 137.522 l
126.558 130.867 l
127.027 130.867 l
cl
gsave
fill
grestore
stroke
grestore
2 setlinecap
0.000 setgray
gsave
38.0739 272.16 m
272.16 272.16 l
stroke
grestore
gsave
272.16 41.7909 m
272.16 272.16 l
stroke
grestore
gsave
38.0739 41.7909 m
272.16 41.7909 l
stroke
grestore
gsave
38.0739 41.7909 m
38.0739 272.16 l
stroke
grestore
0.500 setlinewidth
1 setlinejoin
0 setlinecap
gsave
/o {
gsave
newpath
translate
0.5 setlinewidth
1 setlinejoin
0 setlinecap
0 0 m
0 4 l
gsave
0.000 setgray
fill
grestore
stroke
grestore
} bind def
77.0883 41.7909 o
grestore
gsave
/o {
gsave
newpath
translate
0.5 setlinewidth
1 setlinejoin
0 setlinecap
0 0 m
0 -4 l
gsave
0.000 setgray
fill
grestore
stroke
grestore
} bind def
77.0883 272.16 o
grestore
/BitstreamVeraSans-Roman findfont
10.000 scalefont
setfont
gsave
74.564844 30.197188 translate
0.000000 rotate
0.000000 0.000000 m /zero glyphshow
grestore
gsave
/o {
gsave
newpath
translate
0.5 setlinewidth
1 setlinejoin
0 setlinecap
0 0 m
0 4 l
gsave
0.000 setgray
fill
grestore
stroke
grestore
} bind def
129.107 41.7909 o
grestore
gsave
/o {
gsave
newpath
translate
0.5 setlinewidth
1 setlinejoin
0 setlinecap
0 0 m
0 -4 l
gsave
0.000 setgray
fill
grestore
stroke
grestore
} bind def
129.107 272.16 o
grestore
gsave
126.935531 30.197188 translate
0.000000 rotate
0.000000 0.000000 m /one glyphshow
grestore
gsave
/o {
gsave
newpath
translate
0.5 setlinewidth
1 setlinejoin
0 setlinecap
0 0 m
0 4 l
gsave
0.000 setgray
fill
grestore
stroke
grestore
} bind def
181.127 41.7909 o
grestore
gsave
/o {
gsave
newpath
translate
0.5 setlinewidth
1 setlinejoin
0 setlinecap
0 0 m
0 -4 l
gsave
0.000 setgray
fill
grestore
stroke
grestore
} bind def
181.127 272.16 o
grestore
gsave
178.814031 30.197188 translate
0.000000 rotate
0.000000 0.000000 m /two glyphshow
grestore
gsave
/o {
gsave
newpath
translate
0.5 setlinewidth
1 setlinejoin
0 setlinecap
0 0 m
0 4 l
gsave
0.000 setgray
fill
grestore
stroke
grestore
} bind def
233.146 41.7909 o
grestore
gsave
/o {
gsave
newpath
translate
0.5 setlinewidth
1 setlinejoin
0 setlinecap
0 0 m
0 -4 l
gsave
0.000 setgray
fill
grestore
stroke
grestore
} bind def
233.146 272.16 o
grestore
gsave
230.747219 30.197188 translate
0.000000 rotate
0.000000 0.000000 m /three glyphshow
grestore
gsave
148.116969 15.119063 translate
0.000000 rotate
/Cmr10 findfont
10.0 scalefont
setfont
0.000000 0.953125 moveto
/Theta glyphshow

/Cmmi10 findfont
7.0 scalefont
setfont
7.768555 -1.597812 moveto
/x glyphshow


grestore
gsave
/o {
gsave
newpath
translate
0.5 setlinewidth
1 setlinejoin
0 setlinecap
0 0 m
4 0 l
gsave
0.000 setgray
fill
grestore
stroke
grestore
} bind def
38.0739 80.1858 o
grestore
gsave
/o {
gsave
newpath
translate
0.5 setlinewidth
1 setlinejoin
0 setlinecap
0 0 m
-4 0 l
gsave
0.000 setgray
fill
grestore
stroke
grestore
} bind def
272.16 80.1858 o
grestore
gsave
29.027063 77.427969 translate
0.000000 rotate
0.000000 0.000000 m /zero glyphshow
grestore
gsave
/o {
gsave
newpath
translate
0.5 setlinewidth
1 setlinejoin
0 setlinecap
0 0 m
4 0 l
gsave
0.000 setgray
fill
grestore
stroke
grestore
} bind def
38.0739 131.379 o
grestore
gsave
/o {
gsave
newpath
translate
0.5 setlinewidth
1 setlinejoin
0 setlinecap
0 0 m
-4 0 l
gsave
0.000 setgray
fill
grestore
stroke
grestore
} bind def
272.16 131.379 o
grestore
gsave
29.730188 128.621094 translate
0.000000 rotate
0.000000 0.000000 m /one glyphshow
grestore
gsave
/o {
gsave
newpath
translate
0.5 setlinewidth
1 setlinejoin
0 setlinecap
0 0 m
4 0 l
gsave
0.000 setgray
fill
grestore
stroke
grestore
} bind def
38.0739 182.572 o
grestore
gsave
/o {
gsave
newpath
translate
0.5 setlinewidth
1 setlinejoin
0 setlinecap
0 0 m
-4 0 l
gsave
0.000 setgray
fill
grestore
stroke
grestore
} bind def
272.16 182.572 o
grestore
gsave
29.448938 179.814219 translate
0.000000 rotate
0.000000 0.000000 m /two glyphshow
grestore
gsave
/o {
gsave
newpath
translate
0.5 setlinewidth
1 setlinejoin
0 setlinecap
0 0 m
4 0 l
gsave
0.000 setgray
fill
grestore
stroke
grestore
} bind def
38.0739 233.765 o
grestore
gsave
/o {
gsave
newpath
translate
0.5 setlinewidth
1 setlinejoin
0 setlinecap
0 0 m
-4 0 l
gsave
0.000 setgray
fill
grestore
stroke
grestore
} bind def
272.16 233.765 o
grestore
gsave
29.277063 231.007344 translate
0.000000 rotate
0.000000 0.000000 m /three glyphshow
grestore
gsave
20.027063 150.475469 translate
90.000000 rotate
/Cmr10 findfont
10.0 scalefont
setfont
0.000000 0.953125 moveto
/Theta glyphshow

/Cmmi10 findfont
7.0 scalefont
setfont
7.768555 -1.597812 moveto
/y glyphshow


grestore

end
showpage
